traces/data7_trace_problem_solved.vcd
$version
   VCD tracing
	Hepia 2013-2014
$end

$timescale
   1us
$end

$comment
$end

$scope module Collected traces $end
$var wire	 1  sig_000 sig_000 $end
$var wire	 1  sig_001 sig_001 $end
$var wire	 1  sig_002 sig_002 $end
$var wire	 1  sig_003 sig_003 $end
$var wire	 1  sig_004 sig_004 $end
$var wire	 1  sig_005 sig_005 $end
$var wire	 1  sig_006 sig_006 $end
$var wire	 1  sig_007 sig_007 $end
$upscope $end
$enddefinitions  $end

$dumpvars
0sig_000
0sig_001
0sig_002
0sig_003
0sig_004
0sig_005
0sig_006
0sig_007
$end


#1241
1sig_000
#5569
0sig_000
#5571
1sig_001
#5588
0sig_001
#5590
1sig_002
#6077
0sig_002
#6078
1sig_003
#7294
0sig_003
#7296
1sig_004
#8512
0sig_004
#8514
1sig_005
#9730
0sig_005
#9732
1sig_006
#10949
0sig_006
#20123
1sig_000
#24452
0sig_000
#24454
1sig_002
#24465
0sig_002
#29034
1sig_003
#31564
0sig_003
#31566
1sig_007
#34102
0sig_007
#34104
1sig_004
#36633
0sig_004
#36635
1sig_000
#40965
0sig_000
#40967
1sig_002
#40978
0sig_002
#40980
1sig_005
#43509
0sig_005
#43511
1sig_006
#46040
0sig_006
#55209
1sig_000
#59537
0sig_000
#59539
1sig_002
#59550
0sig_002
#59552
1sig_003
#62083
0sig_003
#62085
1sig_004
#64615
0sig_004
#64617
1sig_007
#67146
0sig_007
#73654
1sig_005
#76185
0sig_005
#76187
1sig_000
#80515
0sig_000
#80517
1sig_002
#80528
0sig_002
#80530
1sig_006
#83059
0sig_006
#88231
1sig_003
#90763
0sig_003
#90765
1sig_004
#93293
0sig_004
#93295
1sig_000
#97626
0sig_000
#97628
1sig_002
#97639
0sig_002
#97641
1sig_007
#100170
0sig_007
#106676
1sig_005
#109209
0sig_005
#109211
1sig_000
#113545
0sig_000
#113547
1sig_002
#113558
0sig_002
#113559
1sig_006
#116088
0sig_006
#116090
1sig_003
#118620
0sig_003
#118622
1sig_004
#121151
0sig_004
#128990
1sig_000
#133322
0sig_000
#133324
1sig_002
#133335
0sig_002
#133337
1sig_007
#135867
0sig_007
#135869
1sig_005
#138398
0sig_005
#143576
1sig_003
#146109
0sig_003
#146111
1sig_000
#150439
0sig_000
#150441
1sig_002
#150452
0sig_002
#150453
1sig_006
#152981
0sig_006
#152983
1sig_004
#155512
0sig_004
#162021
1sig_000
#166356
0sig_000
#166358
1sig_002
#166369
0sig_002
#166371
1sig_005
#168900
0sig_005
#168902
1sig_007
#171431
0sig_007
#171433
1sig_003
#173960
0sig_003
#180466
1sig_000
#184794
0sig_000
#184796
1sig_002
#184807
0sig_002
#184809
1sig_004
#187338
0sig_004
#187340
1sig_006
#189867
0sig_006
#195043
1sig_005
#197570
0sig_005
#197572
1sig_000
#201903
0sig_000
#201904
1sig_002
#201915
0sig_002
#201917
1sig_003
#204446
0sig_003
#204448
1sig_007
#206976
0sig_007
#213480
1sig_004
#216008
0sig_004
#216009
1sig_000
#220342
0sig_000
#220343
1sig_002
#220355
0sig_002
#220356
1sig_006
#222884
0sig_006
#228057
1sig_005
#230588
0sig_005
#230590
1sig_003
#233119
0sig_003
#233120
1sig_000
#237451
0sig_000
#237453
1sig_002
#237464
0sig_002
#237466
1sig_007
#239996
0sig_007
#239998
1sig_004
#242527
0sig_004
#250363
1sig_000
#254691
0sig_000
#254693
1sig_002
#254704
0sig_002
#254706
1sig_006
#257240
0sig_006
#257242
1sig_003
#259769
0sig_003
#259771
1sig_005
#262300
0sig_005
#268808
1sig_000
#273140
0sig_000
#273142
1sig_002
#273153
0sig_002
#273155
1sig_004
#275682
0sig_004
#275684
1sig_007
#278213
0sig_007
#283385
1sig_003
#285914
0sig_003
#285916
1sig_000
#290248
0sig_000
#290250
1sig_002
#290261
0sig_002
#290263
1sig_006
#292790
0sig_006
#292792
1sig_005
#295321
0sig_005
#301830
1sig_004
#304358
0sig_004
#304360
1sig_000
#308694
0sig_000
#308696
1sig_002
#308706
0sig_002
#308708
1sig_003
#311237
0sig_003
#311239
1sig_007
#313767
0sig_007
#320275
1sig_000
#324606
0sig_000
#324608
1sig_002
#324619
0sig_002
#324621
1sig_006
#327150
0sig_006
#327152
1sig_005
#329682
0sig_005
#329684
1sig_004
#332213
0sig_004
#338721
1sig_003
#341249
0sig_003
#341251
1sig_000
#345582
0sig_000
#345584
1sig_002
#345595
0sig_002
#345597
1sig_007
#348126
0sig_007
#355040
1sig_006
#357570
0sig_006
#357572
1sig_005
#360100
0sig_005
#360102
1sig_000
#364433
0sig_000
#364435
1sig_002
#364445
0sig_002
#364447
1sig_004
#366975
0sig_004
#366977
1sig_003
#369506
0sig_003
#377343
1sig_000
#381674
0sig_000
#381676
1sig_002
#381687
0sig_002
#381689
1sig_007
#384218
0sig_007
#388058
1sig_006
#390588
0sig_006
#390590
1sig_005
#393125
0sig_005
#393127
1sig_004
#395654
0sig_004
#395656
1sig_003
#398185
0sig_003
#398186
1sig_000
#402515
0sig_000
#402516
1sig_002
#402528
0sig_002
#412035
1sig_000
#416366
0sig_000
#416368
1sig_002
#416379
0sig_002
#416381
1sig_007
#418911
0sig_007
#418913
1sig_006
#421449
0sig_006
#421451
1sig_005
#423978
0sig_005
#423980
1sig_004
#426513
0sig_004
#426515
1sig_003
#429043
0sig_003
#429045
1sig_000
#433373
0sig_000
#433375
1sig_002
#433386
0sig_002
#445217
1sig_000
#449553
0sig_000
#449555
1sig_002
#449566
0sig_002
#449568
1sig_007
#452101
0sig_007
#452103
1sig_006
#454630
0sig_006
#454632
1sig_005
#457160
0sig_005
#457162
1sig_004
#459694
0sig_004
#459696
1sig_003
#462224
0sig_003
#462226
1sig_000
#466554
0sig_000
#466556
1sig_002
#466567
0sig_002
#478397
1sig_000
#482730
0sig_000
#482732
1sig_002
#482743
0sig_002
#482745
1sig_007
#485281
0sig_007
#485283
1sig_006
#487810
0sig_006
#487812
1sig_005
#490340
0sig_005
#490342
1sig_004
#492874
0sig_004
#492876
1sig_003
#495404
0sig_003
#495406
1sig_000
#499734
0sig_000
#499736
1sig_002
#499747
0sig_002
#511577
1sig_000
#515911
0sig_000
#515913
1sig_002
#515924
0sig_002
#515926
1sig_007
#518461
0sig_007
#518463
1sig_006
#520990
0sig_006
#520992
1sig_005
#523521
0sig_005
#523523
1sig_004
#526056
0sig_004
#526057
1sig_003
#528585
0sig_003
#528587
1sig_000
#532915
0sig_000
#532917
1sig_002
#532928
0sig_002
#544757
1sig_000
#549094
0sig_000
#549096
1sig_002
#549107
0sig_002
#549109
1sig_007
#551641
0sig_007
#551642
1sig_006
#554171
0sig_006
#554173
1sig_005
#556700
0sig_005
#556702
1sig_004
#559235
0sig_004
#559237
1sig_003
#561764
0sig_003
#561766
1sig_000
#566095
0sig_000
#566097
1sig_002
#566108
0sig_002
#577938
1sig_000
#582275
0sig_000
#582277
1sig_002
#582288
0sig_002
#582290
1sig_007
#584821
0sig_007
#584823
1sig_006
#587352
0sig_006
#587353
1sig_005
#589881
0sig_005
#589883
1sig_004
#592416
0sig_004
#592418
1sig_003
#594945
0sig_003
#594947
1sig_000
#599276
0sig_000
#599278
1sig_002
#599289
0sig_002
#611118
1sig_000
#615454
0sig_000
#615455
1sig_002
#615467
0sig_002
#615468
1sig_007
#618000
0sig_007
#618002
1sig_006
#620530
0sig_006
#620532
1sig_005
#623061
0sig_005
#623062
1sig_004
#625594
0sig_004
#625596
1sig_003
#628125
0sig_003
#628126
1sig_000
#632455
0sig_000
#632456
1sig_002
#632468
0sig_002
#644298
1sig_000
#648632
0sig_000
#648634
1sig_002
#648645
0sig_002
#648647
1sig_007
#651182
0sig_007
#651184
1sig_006
#653711
0sig_006
#653713
1sig_005
#656241
0sig_005
#656243
1sig_004
#658775
0sig_004
#658777
1sig_003
#661305
0sig_003
#661307
1sig_000
#665635
0sig_000
#665637
1sig_002
#665648
0sig_002
#677478
1sig_000
#681811
0sig_000
#681813
1sig_002
#681824
0sig_002
#681826
1sig_007
#684362
0sig_007
#684364
1sig_006
#686891
0sig_006
#686893
1sig_005
#689421
0sig_005
#689423
1sig_004
#691955
0sig_004
#691957
1sig_003
#694485
0sig_003
#694487
1sig_000
#698815
0sig_000
#698817
1sig_002
#698828
0sig_002
#710658
1sig_000
#714992
0sig_000
#714994
1sig_002
#715005
0sig_002
#715007
1sig_007
#717542
0sig_007
#717544
1sig_006
#720072
0sig_006
#720074
1sig_005
#722601
0sig_005
#722603
1sig_004
#725136
0sig_004
#725138
1sig_003
#727665
0sig_003
#727667
1sig_000
#731995
0sig_000
#731997
1sig_002
#732008
0sig_002
#743838
1sig_000
#748175
0sig_000
#748177
1sig_002
#748188
0sig_002
#748190
1sig_007
#750722
0sig_007
#750724
1sig_006
#753252
0sig_006
#753254
1sig_005
#755781
0sig_005
#755783
1sig_004
#758316
0sig_004
#758318
1sig_003
#760845
0sig_003
#760847
1sig_000
#765176
0sig_000
#765178
1sig_002
#765189
0sig_002
#777019
1sig_000
#781356
0sig_000
#781358
1sig_002
#781369
0sig_002
#781371
1sig_007
#783902
0sig_007
#783904
1sig_006
#786433
0sig_006
#786435
1sig_005
#788962
0sig_005
#788964
1sig_004
#791497
0sig_004
#791499
1sig_003
#794026
0sig_003
#794028
1sig_000
#798357
0sig_000
#798359
1sig_002
#798370
0sig_002
#810199
1sig_000
#814534
0sig_000
#814536
1sig_002
#814547
0sig_002
#814549
1sig_007
#817082
0sig_007
#817084
1sig_006
#819611
0sig_006
#819613
1sig_005
#822141
0sig_005
#822143
1sig_004
#824675
0sig_004
#824677
1sig_003
#827206
0sig_003
#827208
1sig_000
#831536
0sig_000
#831538
1sig_002
#831549
0sig_002
#843379
1sig_000
#847713
0sig_000
#847714
1sig_002
#847726
0sig_002
#847728
1sig_007
#850263
0sig_007
#850265
1sig_006
#852792
0sig_006
#852794
1sig_005
#855323
0sig_005
#855324
1sig_004
#857856
0sig_004
#857858
1sig_003
#860387
0sig_003
#860389
1sig_000
#864717
0sig_000
#864719
1sig_002
#864730
0sig_002
#876559
1sig_000
#880893
0sig_000
#880894
1sig_002
#880906
0sig_002
#880908
1sig_007
#883443
0sig_007
#883445
1sig_006
#885972
0sig_006
#885974
1sig_005
#888503
0sig_005
#888504
1sig_004
#891038
0sig_004
#891039
1sig_003
#893567
0sig_003
#893569
1sig_000
#897897
0sig_000
#897899
1sig_002
#897910
0sig_002
#909739
1sig_000
#914076
0sig_000
#914078
1sig_002
#914089
0sig_002
#914091
1sig_007
#916623
0sig_007
#916625
1sig_006
#919153
0sig_006
#919155
1sig_005
#921682
0sig_005
#921684
1sig_004
#924217
0sig_004
#924219
1sig_003
#926746
0sig_003
#926748
1sig_000
#931077
0sig_000
#931079
1sig_002
#931090
0sig_002
#942919
1sig_000
#947256
0sig_000
#947258
1sig_002
#947269
0sig_002
#947271
1sig_007
#949803
0sig_007
#949805
1sig_006
#952333
0sig_006
#952335
1sig_005
#954863
0sig_005
#954864
1sig_004
#957398
0sig_004
#957399
1sig_003
#959927
0sig_003
#959929
1sig_000
#964258
0sig_000
#964260
1sig_002
#964271
0sig_002
#976099
1sig_000
#980435
0sig_000
#980437
1sig_002
#980448
0sig_002
#980450
1sig_007
#982982
0sig_007
#982984
1sig_006
#985512
0sig_006
#985514
1sig_005
#988042
0sig_005
#988044
1sig_004
#990576
0sig_004
#990578
1sig_003
#993106
0sig_003
#993108
1sig_000
#997436
0sig_000
#997438
1sig_002
#997449
0sig_002
#1009280
1sig_000
#1013613
0sig_000
#1013615
1sig_002
#1013627
0sig_002
#1013628
1sig_007
#1016164
0sig_007
#1016166
1sig_006
#1018693
0sig_006
#1018695
1sig_005
#1021223
0sig_005
#1021225
1sig_004
#1023757
0sig_004
#1023759
1sig_003
#1026288
0sig_003
#1026289
1sig_000
#1030617
0sig_000
#1030619
1sig_002
#1030630
0sig_002
#1042460
1sig_000
#1046793
0sig_000
#1046795
1sig_002
#1046807
0sig_002
#1046808
1sig_007
#1049344
0sig_007
#1049346
1sig_006
#1051873
0sig_006
#1051875
1sig_005
#1054403
0sig_005
#1054405
1sig_004
#1056937
0sig_004
#1056939
1sig_003
#1059467
0sig_003
#1059469
1sig_000
#1063797
0sig_000
#1063799
1sig_002
#1063810
0sig_002
#1075640
1sig_000
#1079973
0sig_000
#1079975
1sig_002
#1079987
0sig_002
#1079988
1sig_007
#1082524
0sig_007
#1082526
1sig_006
#1085054
0sig_006
#1085056
1sig_005
#1087583
0sig_005
#1087585
1sig_004
#1090118
0sig_004
#1090120
1sig_003
#1092647
0sig_003
#1092649
1sig_000
#1096977
0sig_000
#1096979
1sig_002
#1096990
0sig_002
#1108820
1sig_000
#1113157
0sig_000
#1113159
1sig_002
#1113170
0sig_002
#1113172
1sig_007
#1115704
0sig_007
#1115706
1sig_006
#1118234
0sig_006
#1118236
1sig_005
#1120763
0sig_005
#1120765
1sig_004
#1123298
0sig_004
#1123300
1sig_003
#1125827
0sig_003
#1125829
1sig_000
#1130158
0sig_000
#1130160
1sig_002
#1130171
0sig_002
#1142000
1sig_000
#1146337
0sig_000
#1146339
1sig_002
#1146350
0sig_002
#1146352
1sig_007
#1148884
0sig_007
#1148886
1sig_006
#1151414
0sig_006
#1151416
1sig_005
#1153943
0sig_005
#1153945
1sig_004
#1156478
0sig_004
#1156480
1sig_003
#1159007
0sig_003
#1159009
1sig_000
#1163338
0sig_000
#1163340
1sig_002
#1163351
0sig_002
#1175181
1sig_000
#1179516
0sig_000
#1179518
1sig_002
#1179529
0sig_002
#1179531
1sig_007
#1182064
0sig_007
#1182066
1sig_006
#1184593
0sig_006
#1184595
1sig_005
#1187124
0sig_005
#1187125
1sig_004
#1189657
0sig_004
#1189659
1sig_003
#1192188
0sig_003
#1192189
1sig_000
#1196517
0sig_000
#1196519
1sig_002
#1196530
0sig_002
#1208361
1sig_000
#1212694
0sig_000
#1212696
1sig_002
#1212707
0sig_002
#1212709
1sig_007
#1215244
0sig_007
#1215246
1sig_006
#1217773
0sig_006
#1217775
1sig_005
#1220304
0sig_005
#1220306
1sig_004
#1222838
0sig_004
#1222839
1sig_003
#1225368
0sig_003
#1225370
1sig_000
#1229698
0sig_000
#1229700
1sig_002
#1229711
0sig_002
#1241541
1sig_000
#1245874
0sig_000
#1245876
1sig_002
#1245887
0sig_002
#1245889
1sig_007
#1248425
0sig_007
#1248426
1sig_006
#1250954
0sig_006
#1250955
1sig_005
#1253484
0sig_005
#1253486
1sig_004
#1256018
0sig_004
#1256019
1sig_003
#1258548
0sig_003
#1258550
1sig_000
#1262878
0sig_000
#1262880
1sig_002
#1262891
0sig_002
#1274721
1sig_000
#1279060
0sig_000
#1279062
1sig_002
#1279073
0sig_002
#1279075
1sig_007
#1281604
0sig_007
#1281606
1sig_006
#1284134
0sig_006
#1284136
1sig_005
#1286664
0sig_005
#1286665
1sig_004
#1289199
0sig_004
#1289200
1sig_003
#1291728
0sig_003
#1291730
1sig_000
#1296059
0sig_000
#1296061
1sig_002
#1296072
0sig_002
#1307901
1sig_000
#1312238
0sig_000
#1312240
1sig_002
#1312251
0sig_002
#1312253
1sig_007
#1314785
0sig_007
#1314786
1sig_006
#1317315
0sig_006
#1317316
1sig_005
#1319844
0sig_005
#1319846
1sig_004
#1322379
0sig_004
#1322380
1sig_003
#1324908
0sig_003
#1324910
1sig_000
#1329239
0sig_000
#1329241
1sig_002
#1329252
0sig_002
#1341081
1sig_000
#1345417
0sig_000
#1345419
1sig_002
#1345430
0sig_002
#1345432
1sig_007
#1347964
0sig_007
#1347965
1sig_006
#1350494
0sig_006
#1350496
1sig_005
#1353023
0sig_005
#1353025
1sig_004
#1355558
0sig_004
#1355560
1sig_003
#1358088
0sig_003
#1358090
1sig_000
#1362418
0sig_000
#1362420
1sig_002
#1362431
0sig_002
#1374262
1sig_000
#1378597
0sig_000
#1378599
1sig_002
#1378610
0sig_002
#1378612
1sig_007
#1381146
0sig_007
#1381148
1sig_006
#1383675
0sig_006
#1383677
1sig_005
#1386205
0sig_005
#1386207
1sig_004
#1388739
0sig_004
#1388741
1sig_003
#1391269
0sig_003
#1391271
1sig_000
#1395599
0sig_000
#1395601
1sig_002
#1395612
0sig_002
#1407442
1sig_000
#1411775
0sig_000
#1411777
1sig_002
#1411788
0sig_002
#1411790
1sig_007
#1414325
0sig_007
#1414327
1sig_006
#1416854
0sig_006
#1416856
1sig_005
#1419385
0sig_005
#1419387
1sig_004
#1421918
0sig_004
#1421920
1sig_003
#1424449
0sig_003
#1424450
1sig_000
#1428779
0sig_000
#1428780
1sig_002
#1428792
0sig_002
#1440622
1sig_000
#1444955
0sig_000
#1444957
1sig_002
#1444968
0sig_002
#1444970
1sig_007
#1447506
0sig_007
#1447508
1sig_006
#1450036
0sig_006
#1450038
1sig_005
#1452565
0sig_005
#1452567
1sig_004
#1455100
0sig_004
#1455102
1sig_003
#1457629
0sig_003
#1457631
1sig_000
#1461959
0sig_000
#1461961
1sig_002
#1461972
0sig_002
#1473802
1sig_000
#1478139
0sig_000
#1478141
1sig_002
#1478152
0sig_002
#1478154
1sig_007
#1480686
0sig_007
#1480688
1sig_006
#1483216
0sig_006
#1483218
1sig_005
#1485745
0sig_005
#1485747
1sig_004
#1488280
0sig_004
#1488282
1sig_003
#1490809
0sig_003
#1490811
1sig_000
#1495141
0sig_000
#1495142
1sig_002
#1495154
0sig_002
#1506982
1sig_000
#1511319
0sig_000
#1511321
1sig_002
#1511332
0sig_002
#1511334
1sig_007
#1513866
0sig_007
#1513868
1sig_006
#1516396
0sig_006
#1516398
1sig_005
#1518925
0sig_005
#1518927
1sig_004
#1521460
0sig_004
#1521462
1sig_003
#1523989
0sig_003
#1523991
1sig_000
#1528320
0sig_000
#1528322
1sig_002
#1528333
0sig_002
#1540162
1sig_000
#1544498
0sig_000
#1544500
1sig_002
#1544511
0sig_002
#1544513
1sig_007
#1547046
0sig_007
#1547048
1sig_006
#1549575
0sig_006
#1549577
1sig_005
#1552105
0sig_005
#1552107
1sig_004
#1554639
0sig_004
#1554641
1sig_003
#1557169
0sig_003
#1557171
1sig_000
#1561499
0sig_000
#1561501
1sig_002
#1561512
0sig_002
#1573343
1sig_000
#1577676
0sig_000
#1577678
1sig_002
#1577689
0sig_002
#1577691
1sig_007
#1580227
0sig_007
#1580228
1sig_006
#1582755
0sig_006
#1582757
1sig_005
#1585286
0sig_005
#1585288
1sig_004
#1587820
0sig_004
#1587821
1sig_003
#1590350
0sig_003
#1590352
1sig_000
#1594680
0sig_000
#1594682
1sig_002
#1594693
0sig_002
#1606522
1sig_000
#1610856
0sig_000
#1610857
1sig_002
#1610869
0sig_002
#1610871
1sig_007
#1613406
0sig_007
#1613408
1sig_006
#1615935
0sig_006
#1615937
1sig_005
#1618466
0sig_005
#1618468
1sig_004
#1620999
0sig_004
#1621001
1sig_003
#1623530
0sig_003
#1623532
1sig_000
#1627860
0sig_000
#1627862
1sig_002
#1627873
0sig_002
#1639703
1sig_000
#1644043
0sig_000
#1644045
1sig_002
#1645009
0sig_002
#1645011
1sig_007
#1647542
0sig_007
#1647544
1sig_006
#1650072
0sig_006
#1650074
1sig_005
#1652604
0sig_005
#1652606
1sig_004
#1655136
0sig_004
#1655138
1sig_003
#1657665
0sig_003
#1657667
1sig_002
#1658633
0sig_002
#1658635
1sig_000
#1662964
0sig_000
#1674796
1sig_002
#1675763
0sig_002
#1675765
1sig_000
#1680107
0sig_000
#1680109
1sig_007
#1682636
0sig_007
#1682637
1sig_006
#1685168
0sig_006
#1685170
1sig_005
#1687697
0sig_005
#1687699
1sig_004
#1690230
0sig_004
#1690232
1sig_003
#1692759
0sig_003
#1692761
1sig_002
#1693727
0sig_002
#1693729
1sig_000
#1698059
0sig_000
#1709890
1sig_002
#1710857
0sig_002
#1710859
1sig_000
#1715200
0sig_000
#1715202
1sig_007
#1717729
0sig_007
#1717731
1sig_006
#1720262
0sig_006
#1720264
1sig_005
#1722791
0sig_005
#1722792
1sig_004
#1725323
0sig_004
#1725325
1sig_003
#1727852
0sig_003
#1727854
1sig_002
#1728820
0sig_002
#1728822
1sig_000
#1733152
0sig_000
#1744984
1sig_002
#1745950
0sig_002
#1745952
1sig_000
#1750294
0sig_000
#1750296
1sig_007
#1752823
0sig_007
#1752825
1sig_006
#1755355
0sig_006
#1755357
1sig_005
#1757884
0sig_005
#1757886
1sig_004
#1760417
0sig_004
#1760419
1sig_003
#1762946
0sig_003
#1762948
1sig_002
#1763914
0sig_002
#1763916
1sig_000
#1768245
0sig_000
#1780078
1sig_002
#1781045
0sig_002
#1781046
1sig_000
#1785387
0sig_000
#1785389
1sig_007
#1787916
0sig_007
#1787918
1sig_006
#1790448
0sig_006
#1790450
1sig_005
#1792977
0sig_005
#1792979
1sig_004
#1795510
0sig_004
#1795512
1sig_003
#1798040
0sig_003
#1798042
1sig_002
#1799007
0sig_002
#1799008
1sig_000
#1803338
0sig_000
#1815171
1sig_002
#1816138
0sig_002
#1816140
1sig_000
#1820481
0sig_000
#1820483
1sig_007
#1823010
0sig_007
#1823011
1sig_006
#1825542
0sig_006
#1825544
1sig_005
#1828072
0sig_005
#1828074
1sig_004
#1830604
0sig_004
#1830606
1sig_003
#1833134
0sig_003
#1833136
1sig_002
#1834102
0sig_002
#1834104
1sig_000
#1838433
0sig_000
#1850265
1sig_002
#1851232
0sig_002
#1851234
1sig_000
#1855575
0sig_000
#1855577
1sig_007
#1858105
0sig_007
#1858107
1sig_006
#1860636
0sig_006
#1860638
1sig_005
#1863166
0sig_005
#1863168
1sig_004
#1865698
0sig_004
#1865700
1sig_003
#1868228
0sig_003
#1868230
1sig_002
#1868241
0sig_002
#1868243
1sig_000
#1872571
0sig_000
#1884402
1sig_002
#1884414
0sig_002
#1884416
1sig_000
#1888749
0sig_000
#1888751
1sig_007
#1891286
0sig_007
#1891288
1sig_006
#1893816
0sig_006
#1893817
1sig_005
#1896348
0sig_005
#1896350
1sig_004
#1898880
0sig_004
#1898882
1sig_003
#1901410
0sig_003
#1901412
1sig_002
#1901423
0sig_002
#1901424
1sig_000
#1905753
0sig_000
#1917582
1sig_002
#1917594
0sig_002
#1917596
1sig_000
#1921929
0sig_000
#1921931
1sig_007
#1924466
0sig_007
#1924468
1sig_006
#1926995
0sig_006
#1926997
1sig_005
#1929528
0sig_005
#1929530
1sig_004
#1932061
0sig_004
#1932063
1sig_003
#1934590
0sig_003
#1934592
1sig_002
#1934602
0sig_002
#1934604
1sig_000
#1938933
0sig_000
#1950763
1sig_002
#1950774
0sig_002
#1950776
1sig_000
#1955113
0sig_000
#1955115
1sig_007
#1957647
0sig_007
#1957648
1sig_006
#1960179
0sig_006
#1960181
1sig_005
#1962708
0sig_005
#1962710
1sig_004
#1965241
0sig_004
#1965243
1sig_003
#1967770
0sig_003
#1967772
1sig_002
#1967782
0sig_002
#1967784
1sig_000
#1972114
0sig_000
#1983943
1sig_002
#1983954
0sig_002
#1983956
1sig_000
#1988293
0sig_000
#1988295
1sig_007
#1990827
0sig_007
#1990828
1sig_006
#1993359
0sig_006
#1993361
1sig_005
#1995888
0sig_005
#1995890
1sig_004
#1998421
0sig_004
#1998423
1sig_003
#2000950
0sig_003
#2000952
1sig_002
#2000963
0sig_002
#2000964
1sig_000
#2016449
0sig_000
#2016451
1sig_002
#2016463
0sig_002
#2029628
1sig_007
#2032156
0sig_007
#2032158
1sig_006
#2034684
0sig_006
#2034686
1sig_005
#2037215
0sig_005
#2037216
1sig_004
#2039743
0sig_004
#2039745
1sig_003
#2042274
0sig_003
#2042276
1sig_000
#2046598
0sig_000
#2046600
1sig_002
#2046610
0sig_002
#2046612
1sig_000
#2046629
0sig_000
#2046631
1sig_001
#2047079
0sig_001
#2058906
1sig_002
#2058918
0sig_002
#2058919
1sig_001
#2059786
0sig_001
#2062301
1sig_007
#2064835
0sig_007
#2064837
1sig_006
#2067365
0sig_006
#2067367
1sig_005
#2069899
0sig_005
#2069901
1sig_004
#2072429
0sig_004
#2072431
1sig_003
#2074959
0sig_003
#2074960
1sig_002
#2074971
0sig_002
#2074973
1sig_001
#2075839
0sig_001
#2085006
1sig_002
#2085017
0sig_002
#2086337
1sig_001
#2087204
0sig_001
#2094036
1sig_007
#2096572
0sig_007
#2096574
1sig_002
#2096585
0sig_002
#2096586
1sig_006
#2099117
0sig_006
#2099119
1sig_005
#2101646
0sig_005
#2101648
1sig_004
#2104176
0sig_004
#2104178
1sig_003
#2106708
0sig_003
#2106710
1sig_001
#2107575
0sig_001
#2107577
1sig_002
#2107588
0sig_002
#2118086
1sig_001
#2118951
0sig_001
#2118953
1sig_002
#2118965
0sig_002
#2126033
1sig_007
#2128573
0sig_007
#2128575
1sig_006
#2131103
0sig_006
#2131105
1sig_005
#2133632
0sig_005
#2133634
1sig_004
#2136162
0sig_004
#2136164
1sig_003
#2138691
0sig_003
#2138693
1sig_001
#2139558
0sig_001
#2139560
1sig_002
#2139571
0sig_002
#2149037
1sig_001
#2149901
0sig_001
#2149903
1sig_002
#2149915
0sig_002
#2158033
1sig_007
#2160574
0sig_007
#2160575
1sig_006
#2163104
0sig_006
#2163105
1sig_005
#2165632
0sig_005
#2165634
1sig_001
#2166499
0sig_001
#2166501
1sig_002
#2166512
0sig_002
#2166514
1sig_004
#2169043
0sig_004
#2169044
1sig_003
#2171572
0sig_003
#2180744
1sig_001
#2181610
0sig_001
#2181612
1sig_002
#2181623
0sig_002
#2190034
1sig_007
#2192571
0sig_007
#2192573
1sig_006
#2195105
0sig_006
#2195107
1sig_005
#2197634
0sig_005
#2197636
1sig_001
#2198501
0sig_001
#2198503
1sig_002
#2198514
0sig_002
#2198516
1sig_004
#2201044
0sig_004
#2201046
1sig_003
#2203574
0sig_003
#2212743
1sig_001
#2213609
0sig_001
#2213610
1sig_002
#2213622
0sig_002
#2222033
1sig_007
#2224569
0sig_007
#2224571
1sig_006
#2227104
0sig_006
#2227106
1sig_005
#2229633
0sig_005
#2229634
1sig_001
#2230500
0sig_001
#2230502
1sig_002
#2230512
0sig_002
#2230514
1sig_004
#2233043
0sig_004
#2233045
1sig_003
#2235573
0sig_003
#2244742
1sig_001
#2245607
0sig_001
#2245609
1sig_002
#2245621
0sig_002
#2254035
1sig_007
#2256571
0sig_007
#2256573
1sig_006
#2259105
0sig_006
#2259107
1sig_005
#2261634
0sig_005
#2261636
1sig_001
#2262501
0sig_001
#2262503
1sig_002
#2262514
0sig_002
#2262516
1sig_004
#2265045
0sig_004
#2265046
1sig_003
#2267574
0sig_003
#2276740
1sig_001
#2277606
0sig_001
#2277608
1sig_002
#2277619
0sig_002
#2286034
1sig_007
#2288570
0sig_007
#2288572
1sig_006
#2291105
0sig_006
#2291106
1sig_005
#2293633
0sig_005
#2293635
1sig_001
#2294500
0sig_001
#2294502
1sig_002
#2294513
0sig_002
#2294515
1sig_004
#2297043
0sig_004
#2297045
1sig_003
#2299573
0sig_003
#2308739
1sig_001
#2309605
0sig_001
#2309606
1sig_002
#2310573
0sig_002
#2318037
1sig_007
#2320571
0sig_007
#2320573
1sig_002
#2321544
0sig_002
#2321545
1sig_006
#2324074
0sig_006
#2324075
1sig_005
#2326603
0sig_005
#2326605
1sig_001
#2327470
0sig_001
#2327472
1sig_004
#2330001
0sig_004
#2330003
1sig_003
#2332532
0sig_003
#2332534
1sig_002
#2333500
0sig_002
#2343999
1sig_001
#2344865
0sig_001
#2344867
1sig_002
#2345834
0sig_002
#2350034
1sig_007
#2352566
0sig_007
#2352568
1sig_006
#2355105
0sig_006
#2355107
1sig_005
#2357634
0sig_005
#2357636
1sig_004
#2360164
0sig_004
#2360166
1sig_002
#2361132
0sig_002
#2361134
1sig_003
#2363661
0sig_003
#2363663
1sig_001
#2364529
0sig_001
#2373693
1sig_002
#2374662
0sig_002
#2374664
1sig_001
#2375530
0sig_001
#2382037
1sig_007
#2384571
0sig_007
#2384573
1sig_002
#2385543
0sig_002
#2385545
1sig_006
#2388073
0sig_006
#2388075
1sig_005
#2390602
0sig_005
#2390604
1sig_004
#2393135
0sig_004
#2393137
1sig_003
#2395664
0sig_003
#2395666
1sig_001
#2396531
0sig_001
#2396533
1sig_002
#2397499
0sig_002
#2407997
1sig_002
#2408963
0sig_002
#2408965
1sig_001
#2409832
0sig_001
#2414034
1sig_007
#2416568
0sig_007
#2416570
1sig_006
#2419105
0sig_006
#2419107
1sig_005
#2421634
0sig_005
#2421636
1sig_002
#2422602
0sig_002
#2422604
1sig_004
#2425132
0sig_004
#2425134
1sig_003
#2427661
0sig_003
#2427663
1sig_001
#2428529
0sig_001
#2437699
1sig_002
#2437710
0sig_002
#2439032
1sig_001
#2439897
0sig_001
#2446033
1sig_007
#2448567
0sig_007
#2448569
1sig_006
#2451104
0sig_006
#2451106
1sig_005
#2453633
0sig_005
#2453635
1sig_002
#2453645
0sig_002
#2453647
1sig_004
#2456176
0sig_004
#2456178
1sig_003
#2458705
0sig_003
#2458707
1sig_001
#2459573
0sig_001
#2468741
1sig_002
#2468752
0sig_002
#2470072
1sig_001
#2470938
0sig_001
#2478038
1sig_007
#2480576
0sig_007
#2480578
1sig_002
#2480588
0sig_002
#2480590
1sig_006
#2483118
0sig_006
#2483120
1sig_005
#2485647
0sig_005
#2485649
1sig_004
#2488178
0sig_004
#2488179
1sig_003
#2490709
0sig_003
#2490711
1sig_001
#2491576
0sig_001
#2491578
1sig_002
#2491589
0sig_002
#2502087
1sig_001
#2502952
0sig_001
#2502954
1sig_002
#2502966
0sig_002
#2510034
1sig_007
#2512575
0sig_007
#2512576
1sig_006
#2515104
0sig_006
#2515106
1sig_005
#2517633
0sig_005
#2517635
1sig_004
#2520163
0sig_004
#2520165
1sig_003
#2522692
0sig_003
#2522694
1sig_001
#2523560
0sig_001
