traces/data10_final_final.vcd
$version
   VCD tracing
	Hepia 2013-2014
$end

$timescale
   1us
$end

$comment
$end

$scope module Collected traces $end
$var wire	 1  sig_000 sig_000 $end
$var wire	 1  sig_001 sig_001 $end
$var wire	 1  sig_002 sig_002 $end
$var wire	 1  sig_003 sig_003 $end
$var wire	 1  sig_004 sig_004 $end
$var wire	 1  sig_005 sig_005 $end
$var wire	 1  sig_006 sig_006 $end
$var wire	 1  sig_007 sig_007 $end
$upscope $end
$enddefinitions  $end

$dumpvars
0sig_000
0sig_001
0sig_002
0sig_003
0sig_004
0sig_005
0sig_006
0sig_007
$end


#1152
1sig_000
#5197
0sig_000
#5199
1sig_001
#5216
0sig_001
#5217
1sig_002
#5672
0sig_002
#5673
1sig_003
#6799
0sig_003
#6801
1sig_004
#7927
0sig_004
#7929
1sig_005
#9054
0sig_005
#9055
1sig_006
#10183
0sig_006
#19356
1sig_000
#23402
0sig_000
#23404
1sig_002
#23416
0sig_002
#28035
1sig_003
#29355
0sig_003
#31037
1sig_007
#32357
0sig_007
#32358
1sig_004
#33683
0sig_004
#33684
1sig_000
#37733
0sig_000
#37734
1sig_002
#37746
0sig_002
#37747
1sig_005
#39070
0sig_005
#39072
1sig_006
#40392
0sig_006
#48226
1sig_000
#52275
0sig_000
#52276
1sig_002
#52288
0sig_002
#52289
1sig_003
#53610
0sig_003
#57453
1sig_004
#58774
0sig_004
#62039
1sig_007
#63359
0sig_007
#63361
1sig_000
#67409
0sig_000
#67411
1sig_002
#67422
0sig_002
#67424
1sig_005
#68743
0sig_005
#68745
1sig_006
#70067
0sig_006
#76572
1sig_003
#77897
0sig_003
#77898
1sig_000
#81944
0sig_000
#81945
1sig_002
#81957
0sig_002
#85799
1sig_004
#87121
0sig_004
#91036
1sig_000
#95087
0sig_000
#95088
1sig_002
#95100
0sig_002
#95101
1sig_007
#96421
0sig_007
#96423
1sig_005
#97742
0sig_005
#102913
1sig_006
#104235
0sig_006
#104236
1sig_003
#105560
0sig_003
#105562
1sig_000
#109608
0sig_000
#109609
1sig_002
#109621
0sig_002
#114795
1sig_004
#116116
0sig_004
#119036
1sig_000
#123084
0sig_000
#123086
1sig_002
#123098
0sig_002
#123099
1sig_005
#124416
0sig_005
#128256
1sig_007
#129576
0sig_007
#129578
1sig_003
#130899
0sig_003
#133406
1sig_006
#134726
0sig_006
#134728
1sig_000
#138774
0sig_000
#138775
1sig_002
#138787
0sig_002
#142633
1sig_004
#143955
0sig_004
#148035
1sig_000
#152086
0sig_000
#152088
1sig_002
#152099
0sig_002
#152101
1sig_005
#153421
0sig_005
#153422
1sig_003
#154742
0sig_003
#159914
1sig_007
#161236
0sig_007
#162418
1sig_006
#163739
0sig_006
#163741
1sig_000
#167789
0sig_000
#167790
1sig_002
#167801
0sig_002
#167803
1sig_004
#169124
0sig_004
#176034
1sig_003
#177358
0sig_003
#177359
1sig_000
#181408
0sig_000
#181409
1sig_002
#181421
0sig_002
#181422
1sig_005
#182740
0sig_005
#191042
1sig_007
#192361
0sig_007
#192363
1sig_006
#193685
0sig_006
#193686
1sig_000
#197732
0sig_000
#197733
1sig_002
#197745
0sig_002
#197746
1sig_004
#199070
0sig_004
#199071
1sig_003
#200391
0sig_003
#208228
1sig_000
#212274
0sig_000
#212276
1sig_002
#212287
0sig_002
#212289
1sig_005
#213609
0sig_005
#221033
1sig_006
#222362
0sig_006
#222363
1sig_007
#223685
0sig_007
#223687
1sig_003
#225005
0sig_003
#225007
1sig_000
#229054
0sig_000
#229055
1sig_002
#229067
0sig_002
#229068
1sig_004
#230388
0sig_004
#239039
1sig_005
#240356
0sig_005
#240357
1sig_000
#244403
0sig_000
#244405
1sig_002
#244417
0sig_002
#248256
1sig_003
#249576
0sig_003
#250760
1sig_006
#252082
0sig_006
#253264
1sig_007
#254591
0sig_007
#254592
1sig_004
#255912
0sig_004
#255913
1sig_000
#259959
0sig_000
#259960
1sig_002
#259972
0sig_002
#266035
1sig_005
#267355
0sig_005
#269036
1sig_000
#273085
0sig_000
#273086
1sig_002
#273098
0sig_002
#273099
1sig_003
#274419
0sig_003
#279034
1sig_004
#280357
0sig_004
#280358
1sig_006
#281679
0sig_006
#284190
1sig_000
#288236
0sig_000
#288237
1sig_002
#288249
0sig_002
#288250
1sig_007
#289571
0sig_007
#293417
1sig_005
#294735
0sig_005
#296033
1sig_003
#297353
0sig_003
#298533
1sig_000
#302579
0sig_000
#302581
1sig_002
#302593
0sig_002
#305106
1sig_004
#306426
0sig_004
#309035
1sig_006
#310356
0sig_006
#312036
1sig_000
#316082
0sig_000
#316084
1sig_002
#316096
0sig_002
#319037
1sig_007
#320360
0sig_007
#320362
1sig_003
#321681
0sig_003
#321682
1sig_005
#323002
0sig_005
#326846
1sig_000
#330895
0sig_000
#330897
1sig_002
#330908
0sig_002
#330909
1sig_004
#332231
0sig_004
#338033
1sig_006
#339353
0sig_006
#340533
1sig_000
#344581
0sig_000
#344583
1sig_002
#344594
0sig_002
#344596
1sig_003
#345916
0sig_003
#349760
1sig_005
#351080
0sig_005
#351082
1sig_007
#352402
0sig_007
#354910
1sig_000
#358959
0sig_000
#358960
1sig_002
#358972
0sig_002
#358973
1sig_004
#360294
0sig_004
#367037
1sig_006
#368361
0sig_006
#368363
1sig_003
#369683
0sig_003
#369684
1sig_000
#373730
0sig_000
#373731
1sig_002
#373743
0sig_002
#378921
1sig_005
#380242
0sig_005
#382034
1sig_007
#383357
0sig_007
#383359
1sig_000
#387408
0sig_000
#387409
1sig_002
#387421
0sig_002
#387422
1sig_004
#388742
0sig_004
#393914
1sig_003
#395235
0sig_003
#396418
1sig_006
#397743
0sig_006
#397744
1sig_000
#401790
0sig_000
#401791
1sig_002
#401803
0sig_002
#406034
1sig_005
#407351
0sig_005
#411037
1sig_000
#415087
0sig_000
#415089
1sig_002
#415100
0sig_002
#415102
1sig_004
#416422
0sig_004
#416424
1sig_007
#417746
0sig_007
#417747
1sig_003
#419068
0sig_003
#425571
1sig_006
#426891
0sig_006
#426893
1sig_000
#430938
0sig_000
#430940
1sig_002
#430952
0sig_002
#434798
1sig_005
#436120
0sig_005
#440037
1sig_004
#441359
0sig_004
#441361
1sig_000
#445407
0sig_000
#445408
1sig_002
#445420
0sig_002
#445421
1sig_003
#446741
0sig_003
#451913
1sig_007
#453234
0sig_007
#454417
1sig_006
#455742
0sig_006
#455744
1sig_000
#459790
0sig_000
#459792
1sig_002
#459804
0sig_002
#463644
1sig_005
#464961
0sig_005
#466140
1sig_004
#467460
0sig_004
#468644
1sig_003
#469968
0sig_003
#469970
1sig_000
#474015
0sig_000
#474017
1sig_002
#474029
0sig_002
#483042
1sig_007
#484362
0sig_007
#484363
1sig_006
#485682
0sig_006
#485684
1sig_000
#489730
0sig_000
#489732
1sig_002
#489744
0sig_002
#494919
1sig_005
#496239
0sig_005
#496240
1sig_004
#497560
0sig_004
#497561
1sig_003
#498881
0sig_003
#502723
1sig_000
#506769
0sig_000
#506770
1sig_002
#506782
0sig_002
#513033
1sig_006
#514355
0sig_006
#514357
1sig_007
#515677
0sig_007
#518190
1sig_000
#522243
0sig_000
#522244
1sig_002
#522256
0sig_002
#522257
1sig_003
#523576
0sig_003
#523577
1sig_004
#524897
0sig_004
#524899
1sig_005
#526217
0sig_005
#532725
1sig_000
#536771
0sig_000
#536772
1sig_002
#536784
0sig_002
#542034
1sig_006
#543354
0sig_006
#545036
1sig_007
#546359
0sig_007
#546361
1sig_003
#547679
0sig_003
#547681
1sig_000
#551729
0sig_000
#551731
1sig_002
#551742
0sig_002
#551743
1sig_004
#553067
0sig_004
#553069
1sig_005
#554388
0sig_005
#562227
1sig_000
#566274
0sig_000
#566275
1sig_002
#566287
0sig_002
#569035
1sig_003
#570354
0sig_003
#571537
1sig_006
#572858
0sig_006
#576038
1sig_007
#577359
0sig_007
#577361
1sig_000
#581409
0sig_000
#581410
1sig_002
#581422
0sig_002
#581423
1sig_004
#582743
0sig_004
#582744
1sig_005
#584066
0sig_005
#591036
1sig_000
#595084
0sig_000
#595086
1sig_002
#595097
0sig_002
#595099
1sig_003
#596418
0sig_003
#600258
1sig_006
#601579
0sig_006
#605036
1sig_000
#609087
0sig_000
#609089
1sig_002
#609100
0sig_002
#609102
1sig_004
#610423
0sig_004
#610425
1sig_007
#611744
0sig_007
#611745
1sig_005
#613067
0sig_005
#619569
1sig_003
#620889
0sig_003
#620890
1sig_000
#624936
0sig_000
#624938
1sig_002
#624949
0sig_002
#629033
1sig_006
#630353
0sig_006
#634039
1sig_004
#635359
0sig_004
#635360
1sig_000
#639408
0sig_000
#639410
1sig_002
#639421
0sig_002
#639423
1sig_005
#640743
0sig_005
#645918
1sig_007
#647240
0sig_007
#647241
1sig_003
#648560
0sig_003
#651068
1sig_000
#655114
0sig_000
#655116
1sig_002
#655127
0sig_002
#658035
1sig_006
#659357
0sig_006
#659359
1sig_004
#660678
0sig_004
#665036
1sig_000
#669084
0sig_000
#669086
1sig_002
#669097
0sig_002
#669099
1sig_005
#670421
0sig_005
#670422
1sig_003
#671742
0sig_003
#677034
1sig_007
#678353
0sig_007
#679531
1sig_000
#683577
0sig_000
#683579
1sig_002
#683591
0sig_002
#686104
1sig_004
#687426
0sig_004
#687428
1sig_006
#688748
0sig_006
#693038
1sig_003
#694357
0sig_003
#694358
1sig_000
#698407
0sig_000
#698408
1sig_002
#698420
0sig_002
#698421
1sig_005
#699741
0sig_005
#708039
1sig_007
#709358
0sig_007
#709360
1sig_000
#713408
0sig_000
#713409
1sig_002
#713421
0sig_002
#713422
1sig_004
#714742
0sig_004
#719916
1sig_006
#721237
0sig_006
#721238
1sig_003
#722557
0sig_003
#725067
1sig_000
#729113
0sig_000
#729114
1sig_002
#729126
0sig_002
#729127
1sig_005
#730448
0sig_005
#738034
1sig_004
#739359
0sig_004
#739361
1sig_007
#740680
0sig_007
#740682
1sig_000
#744730
0sig_000
#744732
1sig_002
#744743
0sig_002
#744744
1sig_003
#746066
0sig_003
#752573
1sig_006
#753893
0sig_006
#755077
1sig_000
#759125
0sig_000
#759127
1sig_002
#759138
0sig_002
#759140
1sig_005
#760460
0sig_005
#764304
1sig_004
#765624
0sig_004
#768035
1sig_003
#769359
0sig_003
#769360
1sig_000
#773408
0sig_000
#773410
1sig_002
#773421
0sig_002
#773422
1sig_007
#774742
0sig_007
#781034
1sig_006
#782353
0sig_006
#783531
1sig_000
#787580
0sig_000
#787581
1sig_002
#787593
0sig_002
#787594
1sig_005
#788914
0sig_005
#792758
1sig_004
#794079
0sig_004
#794080
1sig_003
#795400
0sig_003
#797908
1sig_000
#801954
0sig_000
#801956
1sig_002
#801968
0sig_002
#804481
1sig_007
#805802
0sig_007
#810033
1sig_006
#811357
0sig_006
#811358
1sig_000
#815407
0sig_000
#815408
1sig_002
#815420
0sig_002
#815421
1sig_005
#816741
0sig_005
#821911
1sig_003
#823231
0sig_003
#823233
1sig_004
#824554
0sig_004
#827062
1sig_000
#831107
0sig_000
#831109
1sig_002
#831121
0sig_002
#835036
1sig_007
#836355
0sig_007
#839034
1sig_006
#840354
0sig_006
#841538
1sig_000
#845589
0sig_000
#845591
1sig_002
#845602
0sig_002
#845603
1sig_005
#846923
0sig_005
#846924
1sig_003
#848247
0sig_003
#848248
1sig_004
#849568
0sig_004
#856073
1sig_000
#860119
0sig_000
#860121
1sig_002
#860133
0sig_002
#866033
1sig_007
#867353
0sig_007
#868537
1sig_006
#869856
0sig_006
#871041
1sig_003
#872363
0sig_003
#872364
1sig_000
#876412
0sig_000
#876414
1sig_002
#876425
0sig_002
#876426
1sig_005
#877746
0sig_005
#877748
1sig_004
#879069
0sig_004
#886035
1sig_000
#890081
0sig_000
#890083
1sig_002
#890095
0sig_002
#894033
1sig_003
#895351
0sig_003
#897035
1sig_007
#898355
0sig_007
#898356
1sig_006
#899676
0sig_006
#902191
1sig_000
#906241
0sig_000
#906243
1sig_002
#906254
0sig_002
#906255
1sig_005
#907575
0sig_005
#907576
1sig_004
#908896
0sig_004
#916037
1sig_000
#920085
0sig_000
#920086
1sig_002
#920098
0sig_002
#920099
1sig_003
#921420
0sig_003
#927034
1sig_006
#928356
0sig_006
#928358
1sig_007
#929677
0sig_007
#932193
1sig_000
#936241
0sig_000
#936243
1sig_002
#936254
0sig_002
#936255
1sig_004
#937575
0sig_004
#937576
1sig_005
#938896
0sig_005
#944074
1sig_003
#945394
0sig_003
#946578
1sig_000
#950624
0sig_000
#950626
1sig_002
#950637
0sig_002
#956035
1sig_006
#957355
0sig_006
#959034
1sig_007
#960358
0sig_007
#960360
1sig_000
#964410
0sig_000
#964412
1sig_002
#964423
0sig_002
#964424
1sig_004
#965744
0sig_004
#965746
1sig_005
#967069
0sig_005
#967070
1sig_003
#968391
0sig_003
#976231
1sig_000
#980277
0sig_000
#980278
1sig_002
#980290
0sig_002
#985035
1sig_006
#986355
0sig_006
#989033
1sig_004
#990361
0sig_004
#990363
1sig_007
#991682
0sig_007
#991683
1sig_003
#993003
0sig_003
#993004
1sig_000
#997054
0sig_000
#997055
1sig_002
#997066
0sig_002
#997068
1sig_005
#998388
0sig_005
#1007037
1sig_000
#1011083
0sig_000
#1011084
1sig_002
#1011096
0sig_002
#1014040
1sig_006
#1015359
0sig_006
#1015360
1sig_004
#1016679
0sig_004
#1016680
1sig_003
#1018000
0sig_003
#1021841
1sig_007
#1023161
0sig_007
#1023163
1sig_000
#1027211
0sig_000
#1027212
1sig_002
#1027224
0sig_002
#1027225
1sig_005
#1028545
0sig_005
#1037037
1sig_000
#1041088
0sig_000
#1041089
1sig_002
#1041100
0sig_002
#1041102
1sig_003
#1042421
0sig_003
#1042423
1sig_004
#1043744
0sig_004
#1043746
1sig_006
#1045068
0sig_006
#1051577
1sig_000
#1055627
0sig_000
#1055629
1sig_002
#1055640
0sig_002
#1055642
1sig_007
#1056961
0sig_007
#1056963
1sig_005
#1058283
0sig_005
#1064034
1sig_003
#1065358
0sig_003
#1065359
1sig_000
#1069408
0sig_000
#1069409
1sig_002
#1069421
0sig_002
#1069422
1sig_004
#1070742
0sig_004
#1075912
1sig_006
#1077234
0sig_006
#1079035
1sig_000
#1083082
0sig_000
#1083083
1sig_002
#1083095
0sig_002
#1085605
1sig_005
#1086927
0sig_005
#1086929
1sig_007
#1088252
0sig_007
#1088253
1sig_003
#1089573
0sig_003
#1093418
1sig_000
#1097466
0sig_000
#1097467
1sig_002
#1097479
0sig_002
#1097480
1sig_004
#1098800
0sig_004
#1105033
1sig_006
#1106353
0sig_006
#1107537
1sig_000
#1111585
0sig_000
#1111587
1sig_002
#1111598
0sig_002
#1111600
1sig_003
#1112922
0sig_003
#1112924
1sig_005
#1114245
0sig_005
#1119418
1sig_007
#1120739
0sig_007
#1121922
1sig_000
#1125971
0sig_000
#1125972
1sig_002
#1125984
0sig_002
#1125985
1sig_004
#1127306
0sig_004
#1134036
1sig_006
#1135359
0sig_006
#1135361
1sig_003
#1136680
0sig_003
#1136681
1sig_000
#1140730
0sig_000
#1140731
1sig_002
#1140743
0sig_002
#1140744
1sig_005
#1142065
0sig_005
#1150039
1sig_007
#1151361
0sig_007
#1151362
1sig_000
#1155408
0sig_000
#1155409
1sig_002
#1155421
0sig_002
#1155422
1sig_004
#1156742
0sig_004
#1161916
1sig_003
#1163239
0sig_003
#1163241
1sig_006
#1164561
0sig_006
#1167075
1sig_000
#1171123
0sig_000
#1171125
1sig_002
#1171136
0sig_002
#1171138
1sig_005
#1172458
0sig_005
#1180034
1sig_004
#1181359
0sig_004
#1181361
1sig_007
#1182680
0sig_007
#1182681
1sig_000
#1186730
0sig_000
#1186731
1sig_002
#1186743
0sig_002
#1186744
1sig_003
#1188065
0sig_003
#1194573
1sig_006
#1195893
0sig_006
#1197077
1sig_000
#1201126
0sig_000
#1201127
1sig_002
#1201139
0sig_002
#1201140
1sig_005
#1202460
0sig_005
#1206304
1sig_004
#1207624
0sig_004
#1210035
1sig_003
#1211359
0sig_003
#1211360
1sig_000
#1215408
0sig_000
#1215410
1sig_002
#1215421
0sig_002
#1215422
1sig_007
#1216743
0sig_007
#1223034
1sig_006
#1224353
0sig_006
#1225531
1sig_000
#1229580
0sig_000
#1229581
1sig_002
#1229593
0sig_002
#1229594
1sig_005
#1230914
0sig_005
#1234758
1sig_004
#1236079
0sig_004
#1236081
1sig_003
#1237401
0sig_003
#1239916
1sig_000
#1243962
0sig_000
#1243964
1sig_002
#1243975
0sig_002
#1246489
1sig_007
#1247809
0sig_007
#1252035
1sig_006
#1253359
0sig_006
#1253361
1sig_000
#1257409
0sig_000
#1257410
1sig_002
#1257422
0sig_002
#1257423
1sig_005
#1258743
0sig_005
#1263920
1sig_003
#1265240
0sig_003
#1265242
1sig_004
#1266561
0sig_004
#1269070
1sig_000
#1273116
0sig_000
#1273118
1sig_002
#1273129
0sig_002
#1277035
1sig_007
#1278356
0sig_007
#1281035
1sig_006
#1282354
0sig_006
#1283538
1sig_000
#1287589
0sig_000
#1287591
1sig_002
#1287602
0sig_002
#1287604
1sig_005
#1288923
0sig_005
#1288924
1sig_003
#1290247
0sig_003
#1290249
1sig_004
#1291568
0sig_004
#1298073
1sig_000
#1302119
0sig_000
#1302120
1sig_002
#1302132
0sig_002
#1308033
1sig_007
#1309353
0sig_007
#1310537
1sig_006
#1311856
0sig_006
#1313041
1sig_003
#1314362
0sig_003
#1314364
1sig_000
#1318412
0sig_000
#1318413
1sig_002
#1318425
0sig_002
#1318426
1sig_005
#1319746
0sig_005
#1319747
1sig_004
#1321069
0sig_004
#1328035
1sig_000
#1332082
0sig_000
#1332083
1sig_002
#1332095
0sig_002
#1336033
1sig_003
#1337353
0sig_003
#1339035
1sig_007
#1340355
0sig_007
#1340356
1sig_006
#1341676
0sig_006
#1344191
1sig_000
#1348241
0sig_000
#1348243
1sig_002
#1348254
0sig_002
#1348255
1sig_005
#1349571
0sig_005
#1349572
1sig_004
#1350892
0sig_004
#1358037
1sig_000
#1362086
0sig_000
#1362087
1sig_002
#1362098
0sig_002
#1362100
1sig_003
#1363420
0sig_003
#1369034
1sig_006
#1370356
0sig_006
#1370357
1sig_007
#1371677
0sig_007
#1374185
1sig_000
#1378233
0sig_000
#1378235
1sig_002
#1378246
0sig_002
#1378247
1sig_004
#1379567
0sig_004
#1379569
1sig_005
#1380889
0sig_005
#1386066
1sig_003
#1387385
0sig_003
#1388562
1sig_000
#1392608
0sig_000
#1392609
1sig_002
#1392621
0sig_002
#1398033
1sig_006
#1399353
0sig_006
#1401034
1sig_007
#1402358
0sig_007
#1402359
1sig_000
#1406410
0sig_000
#1406411
1sig_002
#1406423
0sig_002
#1406424
1sig_004
#1407744
0sig_004
#1407745
1sig_005
#1409068
0sig_005
#1409070
1sig_003
#1410389
0sig_003
#1418223
1sig_000
#1422269
0sig_000
#1422270
1sig_002
#1422282
0sig_002
#1427035
1sig_006
#1428355
0sig_006
#1431033
1sig_004
#1432361
0sig_004
#1432363
1sig_007
#1433682
0sig_007
#1433684
1sig_003
#1435000
0sig_003
#1435002
1sig_000
#1439051
0sig_000
#1439053
1sig_002
#1439064
0sig_002
#1439065
1sig_005
#1440385
0sig_005
#1449037
1sig_000
#1453083
0sig_000
#1453084
1sig_002
#1453096
0sig_002
#1456040
1sig_006
#1457359
0sig_006
#1457360
1sig_004
#1458679
0sig_004
#1458681
1sig_003
#1460000
0sig_003
#1463841
1sig_007
#1465161
0sig_007
#1465163
1sig_000
#1469211
0sig_000
#1469213
1sig_002
#1469224
0sig_002
#1469225
1sig_005
#1470546
0sig_005
#1479037
1sig_000
#1483088
0sig_000
#1483089
1sig_002
#1483100
0sig_002
#1483102
1sig_003
#1484422
0sig_003
#1484423
1sig_004
#1485745
0sig_004
#1485747
1sig_006
#1487068
0sig_006
#1493577
1sig_000
#1497628
0sig_000
#1497629
1sig_002
#1497640
0sig_002
#1497642
1sig_007
#1498961
0sig_007
#1498963
1sig_005
#1500283
0sig_005
#1506034
1sig_003
#1507358
0sig_003
#1507359
1sig_000
#1511407
0sig_000
#1511409
1sig_002
#1511420
0sig_002
#1511421
1sig_004
#1512742
0sig_004
#1517912
1sig_006
#1519234
0sig_006
#1521035
1sig_000
#1525082
0sig_000
#1525083
1sig_002
#1525095
0sig_002
#1527605
1sig_005
#1528927
0sig_005
#1528928
1sig_007
#1530252
0sig_007
#1530253
1sig_003
#1531573
0sig_003
#1535418
1sig_000
#1539466
0sig_000
#1539467
1sig_002
#1539479
0sig_002
#1539480
1sig_004
#1540800
0sig_004
#1547033
1sig_006
#1548353
0sig_006
#1549537
1sig_000
#1553585
0sig_000
#1553587
1sig_002
#1553598
0sig_002
#1553600
1sig_003
#1554922
0sig_003
#1554923
1sig_005
#1556244
0sig_005
#1561418
1sig_007
#1562738
0sig_007
#1563922
1sig_000
#1567971
0sig_000
#1567972
1sig_002
#1567984
0sig_002
#1567985
1sig_004
#1569306
0sig_004
#1576036
1sig_006
#1577359
0sig_006
#1577361
1sig_003
#1578679
0sig_003
#1578681
1sig_000
#1582729
0sig_000
#1582730
1sig_002
#1582742
0sig_002
#1582743
1sig_005
#1584064
0sig_005
#1592039
1sig_007
#1593362
0sig_007
#1593363
1sig_000
#1597409
0sig_000
#1597411
1sig_002
#1597422
0sig_002
#1597424
1sig_004
#1598743
0sig_004
#1603916
1sig_003
#1605240
0sig_003
#1605241
1sig_006
#1606561
0sig_006
#1609075
1sig_000
#1613124
0sig_000
#1613125
1sig_002
#1613137
0sig_002
#1613138
1sig_005
#1614458
0sig_005
#1622034
1sig_004
#1623359
0sig_004
#1623361
1sig_007
#1624680
0sig_007
#1624681
1sig_000
#1628730
0sig_000
#1628731
1sig_002
#1628743
0sig_002
#1628744
1sig_003
#1630064
0sig_003
#1636573
1sig_006
#1637893
0sig_006
#1639077
1sig_000
#1643125
0sig_000
#1643127
1sig_002
#1643138
0sig_002
#1643140
1sig_005
#1644459
0sig_005
#1648304
1sig_004
#1649624
0sig_004
#1652035
1sig_003
#1653359
0sig_003
#1653360
1sig_000
#1657408
0sig_000
#1657410
1sig_002
#1657421
0sig_002
#1657423
1sig_007
#1658743
0sig_007
#1665034
1sig_006
#1666354
0sig_006
#1667531
1sig_000
#1671579
0sig_000
#1671581
1sig_002
#1671592
0sig_002
#1671594
1sig_005
#1672913
0sig_005
#1676758
1sig_004
#1678079
0sig_004
#1678080
1sig_003
#1679399
0sig_003
#1681908
1sig_000
#1685954
0sig_000
#1685955
1sig_002
#1685967
0sig_002
#1688481
1sig_007
#1689801
0sig_007
#1694033
1sig_006
#1695357
0sig_006
#1695359
1sig_000
#1699407
0sig_000
#1699408
1sig_002
#1699420
0sig_002
#1699421
1sig_005
#1700741
0sig_005
#1705911
1sig_003
#1707231
0sig_003
#1707233
1sig_004
#1708552
0sig_004
#1711062
1sig_000
#1715107
0sig_000
#1715109
1sig_002
#1715121
0sig_002
#1719036
1sig_007
#1720355
0sig_007
#1723034
1sig_006
#1724354
0sig_006
#1725538
1sig_000
#1729589
0sig_000
#1729591
1sig_002
#1729602
0sig_002
#1729603
1sig_005
#1730922
0sig_005
#1730924
1sig_003
#1732247
0sig_003
#1732248
1sig_004
#1733568
0sig_004
#1740073
1sig_000
#1744119
0sig_000
#1744120
1sig_002
#1744132
0sig_002
#1750033
1sig_007
#1751354
0sig_007
#1752537
1sig_006
#1753857
0sig_006
#1755041
1sig_003
#1756362
0sig_003
#1756363
1sig_000
#1760411
0sig_000
#1760412
1sig_002
#1760424
0sig_002
#1760425
1sig_005
#1761745
0sig_005
#1761746
1sig_004
#1763068
0sig_004
#1770038
1sig_000
#1774084
0sig_000
#1774085
1sig_002
#1774097
0sig_002
#1778033
1sig_003
#1779353
0sig_003
#1781035
1sig_007
#1782355
0sig_007
#1782356
1sig_006
#1783676
0sig_006
#1786191
1sig_000
#1790241
0sig_000
#1790243
1sig_002
#1790254
0sig_002
#1790255
1sig_005
#1791574
0sig_005
#1791576
1sig_004
#1792896
0sig_004
#1800037
1sig_000
#1804085
0sig_000
#1804087
1sig_002
#1804098
0sig_002
#1804100
1sig_003
#1805419
0sig_003
#1811034
1sig_006
#1812356
0sig_006
#1812358
1sig_007
#1813678
0sig_007
#1816193
1sig_000
#1820241
0sig_000
#1820243
1sig_002
#1820254
0sig_002
#1820256
1sig_004
#1821575
0sig_004
#1821576
1sig_005
#1822896
0sig_005
#1828074
1sig_003
#1829394
0sig_003
#1830570
1sig_000
#1834616
0sig_000
#1834617
1sig_002
#1834629
0sig_002
#1840035
1sig_006
#1841355
0sig_006
#1843034
1sig_007
#1844358
0sig_007
#1844359
1sig_000
#1848410
0sig_000
#1848411
1sig_002
#1848423
0sig_002
#1848424
1sig_004
#1849743
0sig_004
#1849745
1sig_005
#1851067
0sig_005
#1851069
1sig_003
#1852389
0sig_003
#1860222
1sig_000
#1864269
0sig_000
#1864270
1sig_002
#1864282
0sig_002
#1869035
1sig_006
#1870355
0sig_006
#1873033
1sig_004
#1874361
0sig_004
#1874362
1sig_007
#1875682
0sig_007
#1875683
1sig_003
#1877002
0sig_003
#1877003
1sig_000
#1881053
0sig_000
#1881054
1sig_002
#1881066
0sig_002
#1881067
1sig_005
#1882386
0sig_005
#1891037
1sig_000
#1895083
0sig_000
#1895084
1sig_002
#1895096
0sig_002
#1898040
1sig_006
#1899359
0sig_006
#1899360
1sig_004
#1900680
0sig_004
#1900681
1sig_003
#1902000
0sig_003
#1905841
1sig_007
#1907162
0sig_007
#1907164
1sig_000
#1911212
0sig_000
#1911213
1sig_002
#1911224
0sig_002
#1911226
1sig_005
#1912546
0sig_005
#1921037
1sig_000
#1925088
0sig_000
#1925089
1sig_002
#1925100
0sig_002
#1925102
1sig_003
#1926421
0sig_003
#1926422
1sig_004
#1927745
0sig_004
#1927747
1sig_006
#1929068
0sig_006
#1935577
1sig_000
#1939628
0sig_000
#1939629
1sig_002
#1939640
0sig_002
#1939642
1sig_007
#1940961
0sig_007
#1940963
1sig_005
#1942283
0sig_005
#1948034
1sig_003
#1949358
0sig_003
#1949359
1sig_000
#1953407
0sig_000
#1953409
1sig_002
#1953420
0sig_002
#1953422
1sig_004
#1954741
0sig_004
#1959912
1sig_006
#1961234
0sig_006
#1963036
1sig_000
#1967082
0sig_000
#1967083
1sig_002
#1967095
0sig_002
#1969605
1sig_005
#1970927
0sig_005
#1970928
1sig_007
#1972251
0sig_007
#1972253
1sig_003
#1973573
0sig_003
#1977418
1sig_000
#1981466
0sig_000
#1981468
1sig_002
#1981479
0sig_002
#1981480
1sig_004
#1982800
0sig_004
#1989034
1sig_006
#1990353
0sig_006
#1991537
1sig_000
#1995586
0sig_000
#1995587
1sig_002
#1995599
0sig_002
#1995600
1sig_003
#1996922
0sig_003
#1996923
1sig_005
#1998244
0sig_005
#2003418
1sig_007
#2004738
0sig_007
#2005914
1sig_000
#2009963
0sig_000
#2009964
1sig_002
#2009975
0sig_002
#2009977
1sig_004
#2011298
0sig_004
#2018036
1sig_006
#2019360
0sig_006
#2019361
1sig_003
#2020680
0sig_003
#2020681
1sig_000
#2024730
0sig_000
#2024731
1sig_002
#2024743
0sig_002
#2024744
1sig_005
#2026065
0sig_005
#2034039
1sig_007
#2035361
0sig_007
#2035362
1sig_000
#2039408
0sig_000
#2039410
1sig_002
#2039421
0sig_002
#2039423
1sig_004
#2040742
0sig_004
#2045916
1sig_003
#2047239
0sig_003
#2047241
1sig_006
#2048561
0sig_006
#2051075
1sig_000
#2055123
0sig_000
#2055125
1sig_002
#2055136
0sig_002
#2055138
1sig_005
#2056458
0sig_005
#2064034
1sig_004
#2065360
0sig_004
#2065362
1sig_007
#2066682
0sig_007
#2066683
1sig_000
#2070731
0sig_000
#2070733
1sig_002
#2070744
0sig_002
#2070746
1sig_003
#2072066
0sig_003
#2078573
1sig_006
#2079893
0sig_006
#2081077
1sig_000
#2085126
0sig_000
#2085127
1sig_002
#2085139
0sig_002
#2085140
1sig_005
#2086459
0sig_005
#2090304
1sig_004
#2091624
0sig_004
#2094035
1sig_003
#2095356
0sig_003
#2095358
1sig_000
#2099406
0sig_000
#2099407
1sig_002
#2099418
0sig_002
#2099420
1sig_007
#2100740
0sig_007
#2107034
1sig_006
#2108354
0sig_006
#2109531
1sig_000
#2113580
0sig_000
#2113581
1sig_002
#2113592
0sig_002
#2113594
1sig_005
#2114914
0sig_005
#2118758
1sig_004
#2120074
0sig_004
#2120076
1sig_003
#2121396
0sig_003
#2123908
1sig_000
#2127954
0sig_000
#2127955
1sig_002
#2127967
0sig_002
#2130481
1sig_007
#2131801
0sig_007
#2136034
1sig_006
#2137357
0sig_006
#2137359
1sig_000
#2141407
0sig_000
#2141409
1sig_002
#2141420
0sig_002
#2141422
1sig_005
#2142741
0sig_005
#2147911
1sig_003
#2149232
0sig_003
#2149233
1sig_004
#2150553
0sig_004
#2153061
1sig_000
#2157107
0sig_000
#2157109
1sig_002
#2157120
0sig_002
#2161035
1sig_007
#2162355
0sig_007
#2165034
1sig_006
#2166354
0sig_006
#2167538
1sig_000
#2171589
0sig_000
#2171591
1sig_002
#2171602
0sig_002
#2171604
1sig_005
#2172922
0sig_005
#2172924
1sig_003
#2174247
0sig_003
#2174248
1sig_004
#2175568
0sig_004
#2182073
1sig_000
#2186119
0sig_000
#2186120
1sig_002
#2186132
0sig_002
#2192033
1sig_007
#2193353
0sig_007
#2194537
1sig_006
#2195856
0sig_006
#2197033
1sig_003
#2198354
0sig_003
#2198356
1sig_000
#2202404
0sig_000
#2202405
1sig_002
#2202417
0sig_002
#2202418
1sig_005
#2203738
0sig_005
#2203739
1sig_004
#2205061
0sig_004
#2212035
1sig_000
#2216081
0sig_000
#2216083
1sig_002
#2216095
0sig_002
#2220033
1sig_003
#2221354
0sig_003
#2223038
1sig_007
#2224358
0sig_007
