traces/data2_ref_us.vcd
$version
   VCD tracing
	Hepia 2013-2014
$end

$timescale
   1us
$end

$comment
$end

$scope module Collected traces $end
$var wire	 1  sig_000 sig_000 $end
$var wire	 1  sig_001 sig_001 $end
$var wire	 1  sig_002 sig_002 $end
$var wire	 1  sig_003 sig_003 $end
$var wire	 1  sig_004 sig_004 $end
$var wire	 1  sig_005 sig_005 $end
$var wire	 1  sig_006 sig_006 $end
$var wire	 1  sig_007 sig_007 $end
$upscope $end
$enddefinitions  $end

$dumpvars
0sig_000
0sig_001
0sig_002
0sig_003
0sig_004
0sig_005
0sig_006
0sig_007
$end


#43829986
1sig_000
#43834074
0sig_000
#43834082
1sig_001
#43834102
0sig_001
#43834106
1sig_002
#43834563
0sig_002
#43834567
1sig_003
#43835698
0sig_003
#43835702
1sig_004
#43836833
0sig_004
#43836838
1sig_005
#43837965
0sig_005
#43837969
1sig_006
#43839101
0sig_006
#43843878
1sig_000
#43847965
0sig_000
#43847973
1sig_002
#43847987
0sig_002
#43856876
1sig_003
#43859233
0sig_003
#43859242
1sig_000
#43863335
0sig_000
#43863343
1sig_002
#43863357
0sig_002
#43863361
1sig_007
#43865726
0sig_007
#43865730
1sig_004
#43868092
0sig_004
#43868100
1sig_005
#43870454
0sig_005
#43870462
1sig_006
#43872816
0sig_006
#43872878
1sig_000
#43876967
0sig_000
#43876975
1sig_002
#43876989
0sig_002
#43880877
1sig_003
#43883230
0sig_003
#43886878
1sig_000
#43890966
0sig_000
#43890974
1sig_002
#43890988
0sig_002
#43891877
1sig_004
#43894236
0sig_004
#43894876
1sig_007
#43897231
0sig_007
#43897239
1sig_005
#43899593
0sig_005
#43899876
1sig_006
#43902234
0sig_006
#43902242
1sig_000
#43906333
0sig_000
#43906341
1sig_002
#43906355
0sig_002
#43906359
1sig_003
#43908722
0sig_003
#43915879
1sig_000
#43919969
0sig_000
#43919978
1sig_002
#43919992
0sig_002
#43919996
1sig_004
#43922359
0sig_004
#43924876
1sig_005
#43927231
0sig_005
#43927239
1sig_007
#43929593
0sig_007
#43929882
1sig_006
#43932235
0sig_006
#43932244
1sig_003
#43934596
0sig_003
#43934605
1sig_000
#43938693
0sig_000
#43938701
1sig_002
#43938715
0sig_002
#43945877
1sig_004
#43948234
0sig_004
#43948242
1sig_000
#43952331
0sig_000
#43952340
1sig_002
#43952354
0sig_002
#43952876
1sig_005
#43955240
0sig_005
#43955876
1sig_003
#43958229
0sig_003
#43958876
1sig_007
#43961231
0sig_007
#43961239
1sig_006
#43963597
0sig_006
#43963605
1sig_000
#43967694
0sig_000
#43967703
1sig_002
#43967716
0sig_002
#43971876
1sig_004
#43974229
0sig_004
#43976878
1sig_000
#43980971
0sig_000
#43980979
1sig_002
#43980993
0sig_002
#43980997
1sig_003
#43983359
0sig_003
#43983363
1sig_005
#43985722
0sig_005
#43990882
1sig_007
#43993234
0sig_007
#43993243
1sig_006
#43995596
0sig_006
#43995604
1sig_000
#43999695
0sig_000
#43999704
1sig_002
#43999717
0sig_002
#43999722
1sig_004
#44002086
0sig_004
#44004877
1sig_003
#44007230
0sig_003
#44008878
1sig_000
#44012968
0sig_000
#44012976
1sig_002
#44012990
0sig_002
#44012994
1sig_005
#44015357
0sig_005
#44022884
1sig_007
#44025236
0sig_007
#44025244
1sig_006
#44027600
0sig_006
#44027608
1sig_000
#44031699
0sig_000
#44031707
1sig_002
#44031721
0sig_002
#44031725
1sig_004
#44034089
0sig_004
#44034093
1sig_003
#44036452
0sig_003
#44040882
1sig_005
#44043234
0sig_005
#44043243
1sig_000
#44047331
0sig_000
#44047339
1sig_002
#44047354
0sig_002
#44054878
1sig_007
#44057235
0sig_007
#44057244
1sig_006
#44059601
0sig_006
#44059609
1sig_000
#44063698
0sig_000
#44063706
1sig_002
#44063720
0sig_002
#44063724
1sig_004
#44066087
0sig_004
#44066092
1sig_003
#44068450
0sig_003
#44068876
1sig_005
#44071231
0sig_005
#44072878
1sig_000
#44076966
0sig_000
#44076974
1sig_002
#44076988
0sig_002
#44086883
1sig_007
#44089236
0sig_007
#44089244
1sig_006
#44091601
0sig_006
#44091610
1sig_000
#44095698
0sig_000
#44095706
1sig_002
#44095720
0sig_002
#44095724
1sig_004
#44098090
0sig_004
#44098094
1sig_003
#44100453
0sig_003
#44100461
1sig_005
#44102815
0sig_005
#44104879
1sig_000
#44108967
0sig_000
#44108975
1sig_002
#44108989
0sig_002
#44118882
1sig_007
#44121235
0sig_007
#44121243
1sig_006
#44123601
0sig_006
#44123609
1sig_000
#44127697
0sig_000
#44127706
1sig_002
#44127719
0sig_002
#44127723
1sig_004
#44130089
0sig_004
#44130093
1sig_003
#44132452
0sig_003
#44132460
1sig_005
#44134814
0sig_005
#44136878
1sig_000
#44140965
0sig_000
#44140973
1sig_002
#44140987
0sig_002
#44150883
1sig_007
#44153235
0sig_007
#44153243
1sig_006
#44155601
0sig_006
#44155609
1sig_000
#44159698
0sig_000
#44159706
1sig_002
#44159720
0sig_002
#44159724
1sig_004
#44162090
0sig_004
#44162094
1sig_003
#44164453
0sig_003
#44164461
1sig_005
#44166815
0sig_005
#44168879
1sig_000
#44172968
0sig_000
#44172976
1sig_002
#44173889
0sig_002
#44181876
1sig_002
#44182789
0sig_002
#44182880
1sig_007
#44185233
0sig_007
#44185242
1sig_006
#44187600
0sig_006
#44187608
1sig_000
#44191699
0sig_000
#44191708
1sig_004
#44194064
0sig_004
#44194073
1sig_003
#44196426
0sig_003
#44196434
1sig_002
#44197347
0sig_002
#44197351
1sig_005
#44199710
0sig_005
#44200877
1sig_000
#44204968
0sig_000
#44204976
1sig_002
#44205890
0sig_002
#44213876
1sig_002
#44214789
0sig_002
#44214880
1sig_007
#44217234
0sig_007
#44217242
1sig_006
#44219600
0sig_006
#44219608
1sig_000
#44223700
0sig_000
#44223708
1sig_004
#44226065
0sig_004
#44226073
1sig_003
#44228427
0sig_003
#44228435
1sig_002
#44229348
0sig_002
#44229352
1sig_005
#44231711
0sig_005
#44232876
1sig_000
#44236966
0sig_000
#44236975
1sig_002
#44237888
0sig_002
#44245876
1sig_002
#44246789
0sig_002
#44246880
1sig_007
#44249234
0sig_007
#44249242
1sig_006
#44251600
0sig_006
#44251608
1sig_000
#44255700
0sig_000
#44255708
1sig_004
#44258065
0sig_004
#44258073
1sig_003
#44260427
0sig_003
#44260435
1sig_002
#44261348
0sig_002
#44261352
1sig_005
#44263711
0sig_005
#44264876
1sig_000
#44268966
0sig_000
#44268975
1sig_002
#44269888
0sig_002
#44277876
1sig_002
#44278789
0sig_002
#44278880
1sig_007
#44281234
0sig_007
#44281242
1sig_006
#44283600
0sig_006
#44283608
1sig_000
#44287700
0sig_000
#44287708
1sig_004
#44290065
0sig_004
#44290073
1sig_003
#44292427
0sig_003
#44292435
1sig_002
#44293348
0sig_002
#44293353
1sig_005
#44295712
0sig_005
#44296876
1sig_000
#44300967
0sig_000
#44300975
1sig_002
#44301888
0sig_002
#44309877
1sig_002
#44310790
0sig_002
#44310881
1sig_007
#44313234
0sig_007
#44313242
1sig_006
#44315600
0sig_006
#44315608
1sig_000
#44319699
0sig_000
#44319707
1sig_004
#44322064
0sig_004
#44322072
1sig_003
#44324426
0sig_003
#44324434
1sig_002
#44324447
0sig_002
#44324452
1sig_005
#44326815
0sig_005
#44328877
1sig_000
#44332966
0sig_000
#44333876
1sig_002
#44333894
0sig_002
#44342880
1sig_007
#44345235
0sig_007
#44345243
1sig_006
#44347601
0sig_006
#44347609
1sig_000
#44351698
0sig_000
#44351706
1sig_002
#44351720
0sig_002
#44351724
1sig_004
#44354090
0sig_004
#44354094
1sig_003
#44356452
0sig_003
#44356461
1sig_005
#44358815
0sig_005
#44360879
1sig_000
#44364967
0sig_000
#44364975
1sig_002
#44364989
0sig_002
#44374882
1sig_007
#44377234
0sig_007
#44377242
1sig_006
#44379600
0sig_006
#44379608
1sig_000
#44383697
0sig_000
#44383705
1sig_002
#44383719
0sig_002
#44383723
1sig_004
#44386089
0sig_004
#44386093
1sig_003
#44388452
0sig_003
#44388460
1sig_005
#44390814
0sig_005
#44392878
1sig_000
#44396966
0sig_000
#44396974
1sig_002
#44396988
0sig_002
#44406884
1sig_007
#44409236
0sig_007
#44409244
1sig_006
#44411602
0sig_006
#44411610
1sig_000
#44415699
0sig_000
#44415707
1sig_002
#44415721
0sig_002
#44415725
1sig_004
#44418091
0sig_004
#44418095
1sig_003
#44420454
0sig_003
#44420462
1sig_005
#44422816
0sig_005
#44424878
1sig_000
#44428966
0sig_000
#44428974
1sig_002
#44428988
0sig_002
#44438883
1sig_007
#44441235
0sig_007
#44441244
1sig_006
#44443601
0sig_006
#44443610
1sig_000
#44447698
0sig_000
#44447706
1sig_002
#44447720
0sig_002
#44447724
1sig_004
#44450090
0sig_004
#44450094
1sig_003
#44452453
0sig_003
#44452461
1sig_005
#44454815
0sig_005
#44456879
1sig_000
#44460967
0sig_000
#44460975
1sig_002
#44460989
0sig_002
#44470882
1sig_007
#44473235
0sig_007
#44473243
1sig_006
#44475601
0sig_006
#44475609
1sig_000
#44479697
0sig_000
#44479706
1sig_002
#44479719
0sig_002
#44479723
1sig_004
#44482089
0sig_004
#44482094
1sig_003
#44484452
0sig_003
#44484461
1sig_005
#44486815
0sig_005
#44488879
1sig_000
#44492967
0sig_000
#44492975
1sig_002
#44492989
0sig_002
#44502882
1sig_007
#44505234
0sig_007
#44505243
1sig_006
#44507600
0sig_006
#44507608
1sig_000
#44511697
0sig_000
#44511705
1sig_002
#44511718
0sig_002
#44511723
1sig_004
#44514089
0sig_004
#44514093
1sig_003
#44516451
0sig_003
#44516460
1sig_005
#44518814
0sig_005
#44520878
1sig_000
#44524965
0sig_000
#44524973
1sig_002
#44524987
0sig_002
#44534883
1sig_007
#44537235
0sig_007
#44537243
1sig_006
#44539601
0sig_006
#44539609
1sig_000
#44543697
0sig_000
#44543706
1sig_002
#44543719
0sig_002
#44543723
1sig_004
#44546089
0sig_004
#44546093
1sig_003
#44548452
0sig_003
#44548460
1sig_005
#44550814
0sig_005
#44552878
1sig_000
#44556966
0sig_000
#44556974
1sig_002
#44556988
0sig_002
#44566883
1sig_007
#44569236
0sig_007
#44569244
1sig_006
#44571602
0sig_006
#44571610
1sig_000
#44575699
0sig_000
#44575707
1sig_002
#44575720
0sig_002
#44575725
1sig_004
#44578091
0sig_004
#44578095
1sig_003
#44580453
0sig_003
#44580462
1sig_005
#44582816
0sig_005
#44584879
1sig_000
#44588967
0sig_000
#44588976
1sig_002
#44588990
0sig_002
#44598883
1sig_007
#44601235
0sig_007
#44601243
1sig_006
#44603601
0sig_006
#44603609
1sig_000
#44607698
0sig_000
#44607707
1sig_002
#44608622
0sig_002
#44608626
1sig_004
#44610985
0sig_004
#44610994
1sig_003
#44613347
0sig_003
#44613356
1sig_005
#44615709
0sig_005
#44615877
1sig_002
#44616790
0sig_002
#44616877
1sig_000
#44620971
0sig_000
#44623877
1sig_002
#44624790
0sig_002
#44630880
1sig_007
#44633235
0sig_007
#44633244
1sig_006
#44635601
0sig_006
#44635610
1sig_000
#44639698
0sig_000
#44639706
1sig_002
#44640620
0sig_002
#44640624
1sig_004
#44642986
0sig_004
#44642994
1sig_003
#44645348
0sig_003
#44645356
1sig_005
#44647710
0sig_005
#44647876
1sig_002
#44648788
0sig_002
#44648876
1sig_000
#44652970
0sig_000
#44655876
1sig_002
#44656788
0sig_002
#44662881
1sig_007
#44665236
0sig_007
#44665244
1sig_006
#44667602
0sig_006
#44667610
1sig_000
#44671699
0sig_000
#44671707
1sig_002
#44672620
0sig_002
#44672624
1sig_004
#44674987
0sig_004
#44674995
1sig_003
#44677348
0sig_003
#44677357
1sig_005
#44679711
0sig_005
#44679876
1sig_002
#44680788
0sig_002
#44680876
1sig_000
#44684970
0sig_000
#44687876
1sig_002
#44688789
0sig_002
#44694882
1sig_007
#44697237
0sig_007
#44697245
1sig_006
#44699603
0sig_006
#44699611
1sig_000
#44703699
0sig_000
#44703708
1sig_002
#44704621
0sig_002
#44704625
1sig_004
#44706987
0sig_004
#44706995
1sig_003
#44709349
0sig_003
#44709357
1sig_005
#44711712
0sig_005
#44711877
1sig_002
#44712789
0sig_002
#44712877
1sig_000
#44716971
0sig_000
#44719877
1sig_002
#44720789
0sig_002
#44726880
1sig_007
#44729235
0sig_007
#44729243
1sig_006
#44731601
0sig_006
#44731609
1sig_000
#44735698
0sig_000
#44735706
1sig_002
#44736619
0sig_002
#44736623
1sig_004
#44738985
0sig_004
#44738993
1sig_003
#44741347
0sig_003
#44741355
1sig_005
#44743709
0sig_005
#44743877
1sig_002
#44744789
0sig_002
#44744876
1sig_000
#44748971
0sig_000
#44751876
1sig_002
#44751894
0sig_002
#44758880
1sig_007
#44761233
0sig_007
#44761241
1sig_006
#44763601
0sig_006
#44763609
1sig_000
#44778216
0sig_000
#44778224
1sig_002
#44778237
0sig_002
#44778242
1sig_004
#44780604
0sig_004
#44780608
1sig_003
#44782967
0sig_003
#44782976
1sig_005
#44785330
0sig_005
#44787879
1sig_000
#44791965
0sig_000
#44791973
1sig_002
#44791987
0sig_002
#44791991
1sig_000
#44792011
0sig_000
#44792015
1sig_007
#44794377
0sig_007
#44794381
1sig_006
#44796749
0sig_006
#44796753
1sig_001
#44797190
0sig_001
#44801877
1sig_002
#44801896
0sig_002
#44803876
1sig_004
#44806231
0sig_004
#44806240
1sig_003
#44808595
0sig_003
#44808604
1sig_001
#44809452
0sig_001
#44810875
1sig_005
#44813231
0sig_005
#44813239
1sig_002
#44813253
0sig_002
#44818876
1sig_001
#44819723
0sig_001
#44822876
1sig_002
#44822894
0sig_002
#44823878
1sig_007
#44826231
0sig_007
#44826240
1sig_006
#44828594
0sig_006
#44828876
1sig_001
#44829723
0sig_001
#44829878
1sig_004
#44832231
0sig_004
#44832239
1sig_003
#44834595
0sig_003
#44834604
1sig_002
#44834618
0sig_002
#44838879
1sig_005
#44841232
0sig_005
#44841240
1sig_001
#44842088
0sig_001
#44843877
1sig_002
#44843895
0sig_002
#44851877
1sig_001
#44852724
0sig_001
#44853876
1sig_002
#44853895
0sig_002
#44855884
1sig_007
#44858236
0sig_007
#44858244
1sig_006
#44860598
0sig_006
#44860606
1sig_004
#44862963
0sig_004
#44862971
1sig_003
#44865327
0sig_003
#44865335
1sig_001
#44866182
0sig_001
#44866186
1sig_002
#44866200
0sig_002
#44866876
1sig_005
#44869239
0sig_005
#44875878
1sig_001
#44876724
0sig_001
#44876733
1sig_002
#44876746
0sig_002
#44885877
1sig_001
#44886724
0sig_001
#44886733
1sig_002
#44886747
0sig_002
#44886877
1sig_004
#44889244
0sig_004
#44889249
1sig_003
#44891607
0sig_003
#44891615
1sig_007
#44893970
0sig_007
#44893978
1sig_006
#44896339
0sig_006
#44896347
1sig_005
#44898700
0sig_005
#44898709
1sig_001
#44899556
0sig_001
#44899560
1sig_002
#44899574
0sig_002
#44908879
1sig_001
#44909726
0sig_001
#44909734
1sig_002
#44909749
0sig_002
#44912878
1sig_004
#44915231
0sig_004
#44915239
1sig_003
#44917593
0sig_003
#44918879
1sig_001
#44919726
0sig_001
#44919734
1sig_002
#44919748
0sig_002
#44923881
1sig_007
#44926233
0sig_007
#44926241
1sig_006
#44928595
0sig_006
#44928603
1sig_005
#44930962
0sig_005
#44930971
1sig_001
#44931817
0sig_001
#44931821
1sig_002
#44931835
0sig_002
#44938878
1sig_004
#44941235
0sig_004
#44941243
1sig_003
#44943596
0sig_003
#44943604
1sig_001
#44944452
0sig_001
#44944456
1sig_002
#44944470
0sig_002
#44953878
1sig_001
#44954725
0sig_001
#44954733
1sig_002
#44954747
0sig_002
#44955878
1sig_007
#44958239
0sig_007
#44958247
1sig_006
#44960601
0sig_006
#44960609
1sig_005
#44962964
0sig_005
#44963879
1sig_001
#44964725
0sig_001
#44964733
1sig_002
#44964747
0sig_002
#44964878
1sig_004
#44967240
0sig_004
#44967245
1sig_003
#44969604
0sig_003
#44973878
1sig_001
#44974725
0sig_001
#44974733
1sig_002
#44974747
0sig_002
#44983877
1sig_001
#44984724
0sig_001
#44984733
1sig_002
#44984747
0sig_002
#44987880
1sig_007
#44990234
0sig_007
#44990243
1sig_006
#44992600
0sig_006
#44992609
1sig_005
#44994968
0sig_005
#44994976
1sig_004
#44997329
0sig_004
#44997337
1sig_003
#44999690
0sig_003
#44999699
1sig_001
#45000546
0sig_001
#45000550
1sig_002
#45000564
0sig_002
#45009879
1sig_001
#45010726
0sig_001
#45010734
1sig_002
#45010748
0sig_002
#45019883
1sig_007
#45022242
0sig_007
#45022250
1sig_006
#45024603
0sig_006
#45024611
1sig_001
#45025459
0sig_001
#45025463
1sig_002
#45025476
0sig_002
#45025481
1sig_005
#45027843
0sig_005
#45027847
1sig_004
#45030211
0sig_004
#45030220
1sig_003
#45032574
0sig_003
#45034879
1sig_001
#45035726
0sig_001
#45035734
1sig_002
#45035748
0sig_002
#45044879
1sig_001
#45045725
0sig_001
#45045734
1sig_002
#45045748
0sig_002
#45051878
1sig_007
#45054238
0sig_007
#45054246
1sig_006
#45056603
0sig_006
#45056612
1sig_005
#45058966
0sig_005
#45058974
1sig_004
#45061327
0sig_004
#45061335
1sig_003
#45063689
0sig_003
#45063697
1sig_001
#45070097
0sig_001
#45070105
1sig_002
#45070119
0sig_002
#45079879
1sig_001
#45080724
0sig_001
#45080732
1sig_002
#45080747
0sig_002
#45083879
1sig_007
#45085129
0sig_007
#45085138
1sig_006
#45087491
0sig_006
#45087499
1sig_005
#45089853
0sig_005
#45089861
1sig_004
#45092220
0sig_004
#45092228
1sig_003
#45094582
0sig_003
#45094590
1sig_001
#45095436
0sig_001
#45095440
1sig_002
#45095454
0sig_002
#45104881
1sig_007
#45104899
0sig_007
#45104903
1sig_001
#45105748
0sig_001
#45105752
1sig_002
#45105766
0sig_002
#45114883
1sig_006
#45117240
0sig_006
#45117248
1sig_005
#45119601
0sig_005
#45119609
1sig_001
#45120455
0sig_001
#45120459
1sig_002
#45120473
0sig_002
#45120477
1sig_004
#45122839
0sig_004
#45122844
1sig_003
#45125211
0sig_003
#45125219
1sig_007
#45125233
0sig_007
#45129879
1sig_001
#45130724
0sig_001
#45130733
1sig_002
#45130746
0sig_002
#45139879
1sig_001
#45140725
0sig_001
#45140733
1sig_002
#45140748
0sig_002
#45144880
1sig_006
#45147237
0sig_006
#45147246
1sig_005
#45149598
0sig_005
#45149607
1sig_007
#45149620
0sig_007
#45149624
1sig_004
#45151992
0sig_004
#45151996
1sig_003
#45154354
0sig_003
#45154363
1sig_001
#45155209
0sig_001
#45155213
1sig_002
#45155226
0sig_002
#45164879
1sig_001
#45165724
0sig_001
#45165732
1sig_002
#45165747
0sig_002
#45168877
1sig_007
#45168895
0sig_007
#45174883
1sig_006
#45177239
0sig_006
#45177248
1sig_005
#45179600
0sig_005
#45179609
1sig_001
#45180454
0sig_001
#45180459
1sig_002
#45180472
0sig_002
#45180476
1sig_004
#45182839
0sig_004
#45182843
1sig_003
#45185208
0sig_003
#45188877
1sig_007
#45188895
0sig_007
#45189879
1sig_001
#45190724
0sig_001
#45190728
1sig_002
#45190742
0sig_002
#45199878
1sig_001
#45200723
0sig_001
#45200732
1sig_002
#45200746
0sig_002
#45204879
1sig_006
#45207236
0sig_006
#45207244
1sig_005
#45209600
0sig_005
#45209608
1sig_004
#45211967
0sig_004
#45211976
1sig_003
#45214329
0sig_003
#45214337
1sig_007
#45214350
0sig_007
#45214354
1sig_001
#45215200
0sig_001
#45215204
1sig_002
#45215218
0sig_002
#45224878
1sig_001
#45225723
0sig_001
#45225731
1sig_002
#45225745
0sig_002
#45233876
1sig_007
#45233895
0sig_007
#45234883
1sig_006
#45237240
0sig_006
#45237248
1sig_005
#45239601
0sig_005
#45239609
1sig_001
#45240455
0sig_001
#45240459
1sig_002
#45240473
0sig_002
#45240477
1sig_004
#45242840
0sig_004
#45242844
1sig_003
#45245209
0sig_003
#45249878
1sig_001
#45250723
0sig_001
#45250731
1sig_002
#45250745
0sig_002
#45253876
1sig_007
#45253894
0sig_007
#45259880
1sig_001
#45260725
0sig_001
#45260733
1sig_002
#45260748
0sig_002
#45264878
1sig_006
#45267235
0sig_006
#45267244
1sig_005
#45269597
0sig_005
#45269605
1sig_004
#45271964
0sig_004
#45271973
1sig_003
#45274329
0sig_003
#45274337
1sig_001
#45275183
0sig_001
#45275187
1sig_002
#45275201
0sig_002
#45275205
1sig_007
#45275219
0sig_007
#45284879
1sig_001
#45285724
0sig_001
#45285732
1sig_002
#45285746
0sig_002
#45294886
1sig_006
#45297243
0sig_006
#45297251
1sig_005
#45299603
0sig_005
#45299612
1sig_007
#45299624
0sig_007
#45299629
1sig_001
#45300475
0sig_001
#45300479
1sig_002
#45301391
0sig_002
#45301395
1sig_004
#45303763
0sig_004
#45303767
1sig_003
#45306131
0sig_003
#45308877
1sig_002
#45309789
0sig_002
#45309876
1sig_001
#45310721
0sig_001
#45316876
1sig_002
#45317788
0sig_002
#45318876
1sig_007
#45318894
0sig_007
#45319876
1sig_001
#45320721
0sig_001
#45324880
1sig_006
#45327235
0sig_006
#45327243
1sig_005
#45329599
0sig_005
#45329607
1sig_002
#45330521
0sig_002
#45330526
1sig_004
#45332885
0sig_004
#45332893
1sig_003
#45335247
0sig_003
#45335255
1sig_001
#45336102
0sig_001
#45337877
1sig_002
#45338789
0sig_002
#45338875
1sig_007
#45338890
0sig_007
#45345878
1sig_001
#45346724
0sig_001
#45346732
1sig_002
#45347644
0sig_002
#45354880
1sig_006
#45357239
0sig_006
#45357247
1sig_005
#45359603
0sig_005
#45359611
1sig_002
#45360523
0sig_002
#45360528
1sig_001
#45361373
0sig_001
#45361378
1sig_004
#45363741
0sig_004
#45363749
1sig_003
#45366104
0sig_003
#45366112
1sig_007
#45366126
0sig_007
#45367876
1sig_002
#45368788
0sig_002
#45370877
1sig_001
#45371722
0sig_001
#45375877
1sig_002
#45376789
0sig_002
#45380877
1sig_001
#45381723
0sig_001
#45383876
1sig_002
#45384788
0sig_002
#45384879
1sig_006
#45387237
0sig_006
#45387246
1sig_005
#45389601
0sig_005
#45389610
1sig_007
#45389623
0sig_007
#45389627
1sig_004
#45391995
0sig_004
#45391999
1sig_003
#45394358
0sig_003
#45394366
1sig_001
#45395212
0sig_001
#45395217
1sig_002
#45396129
0sig_002
#45403876
1sig_002
#45404788
0sig_002
#45404877
1sig_001
#45405722
0sig_001
#45408876
1sig_007
#45408894
0sig_007
#45411877
1sig_002
#45412789
0sig_002
#45414882
1sig_006
#45417239
0sig_006
#45417247
1sig_005
#45419600
0sig_005
#45419608
1sig_001
#45420457
0sig_001
#45420462
1sig_004
#45422820
0sig_004
#45422828
1sig_003
#45425183
0sig_003
#45425191
1sig_002
#45426104
0sig_002
#45428876
1sig_007
#45428895
0sig_007
#45429876
1sig_001
#45430722
0sig_001
#45433876
1sig_002
#45434787
0sig_002
#45439876
1sig_001
#45440722
0sig_001
#45441877
1sig_002
#45442789
0sig_002
#45444879
1sig_006
#45447237
0sig_006
#45447245
1sig_005
#45449601
0sig_005
#45449609
1sig_004
#45451968
0sig_004
#45451976
1sig_003
#45454330
0sig_003
#45454338
1sig_007
#45454351
0sig_007
#45454355
1sig_001
#45455201
0sig_001
#45455206
1sig_002
#45456118
0sig_002
#45463876
1sig_002
#45464787
0sig_002
#45464876
1sig_001
#45465722
0sig_001
#45471876
1sig_002
#45472788
0sig_002
#45473877
1sig_007
#45473895
0sig_007
#45474881
1sig_006
#45477239
0sig_006
#45477247
1sig_005
#45479600
0sig_005
#45479608
1sig_001
#45480457
0sig_001
#45480461
1sig_004
#45482819
0sig_004
#45482828
1sig_003
#45485182
0sig_003
#45485191
1sig_002
#45486103
0sig_002
#45489876
1sig_001
#45490722
0sig_001
#45493879
1sig_007
#45493897
0sig_007
#45493901
1sig_002
#45494812
0sig_002
#45499876
1sig_001
#45500722
0sig_001
#45501877
1sig_002
#45502789
0sig_002
#45504880
1sig_006
#45507237
0sig_006
#45507245
1sig_005
#45509599
0sig_005
#45509607
1sig_004
#45511966
0sig_004
#45511974
1sig_003
#45514330
0sig_003
#45514338
1sig_001
#45515184
0sig_001
#45515188
1sig_002
#45516100
0sig_002
#45516105
1sig_007
#45516119
0sig_007
#45523876
1sig_002
#45524788
0sig_002
#45524877
1sig_001
#45525722
0sig_001
#45531877
1sig_002
#45532789
0sig_002
#45534881
1sig_006
#45537240
0sig_006
#45537249
1sig_005
#45539602
0sig_005
#45539610
1sig_001
#45546007
0sig_001
#45546015
1sig_004
#45548368
0sig_004
#45548376
1sig_003
#45549619
0sig_003
#45549623
1sig_007
#45549642
0sig_007
#45549646
1sig_002
#45550559
0sig_002
#45555876
1sig_001
#45556721
0sig_001
#45557876
1sig_002
#45558787
0sig_002
#45564878
1sig_006
#45567235
0sig_006
#45567243
1sig_005
#45569601
0sig_005
#45569609
1sig_001
#45570454
0sig_001
#45570458
1sig_002
#45571370
0sig_002
#45571374
1sig_003
#45571387
0sig_003
#45571392
1sig_007
#45571405
0sig_007
#45571876
1sig_004
#45574243
0sig_004
#45578876
1sig_002
#45579787
0sig_002
#45579876
1sig_001
#45580720
0sig_001
#45586877
1sig_002
#45587789
0sig_002
#45589877
1sig_001
#45590722
0sig_001
#45590877
1sig_003
#45590891
0sig_003
#45590895
1sig_007
#45590909
0sig_007
#45594881
1sig_006
#45597233
0sig_006
#45597242
1sig_005
#45599597
0sig_005
#45599606
1sig_002
#45600520
0sig_002
#45600524
1sig_004
#45602884
0sig_004
#45602892
1sig_001
#45603736
0sig_001
#45607876
1sig_002
#45608788
0sig_002
#45610878
1sig_003
#45610896
0sig_003
#45610900
1sig_007
#45610914
0sig_007
#45612877
1sig_001
#45613721
0sig_001
#45615877
1sig_002
#45616789
0sig_002
#45622876
1sig_001
#45623720
0sig_001
#45623876
1sig_002
#45624788
0sig_002
#45624878
1sig_006
#45627239
0sig_006
#45627247
1sig_005
#45629601
0sig_005
#45629609
1sig_004
#45631971
0sig_004
#45631979
1sig_003
#45631992
0sig_003
#45631996
1sig_007
#45632009
0sig_007
#45632013
1sig_002
#45632928
0sig_002
#45632932
1sig_001
#45633777
0sig_001
#45640877
1sig_002
#45641789
0sig_002
#45642877
1sig_001
#45643721
0sig_001
#45648877
1sig_002
#45648896
0sig_002
#45651878
1sig_003
#45651896
0sig_003
#45651900
1sig_007
#45651914
0sig_007
#45652877
1sig_001
#45653721
0sig_001
#45654878
1sig_006
#45657239
0sig_006
#45657247
1sig_005
#45659603
0sig_005
#45659612
1sig_004
#45661966
0sig_004
#45661974
1sig_002
#45661989
0sig_002
#45662877
1sig_001
#45663721
0sig_001
#45671881
1sig_003
#45671898
0sig_003
#45671902
1sig_007
#45671916
0sig_007
#45671920
1sig_002
#45671934
0sig_002
#45672877
1sig_001
#45673721
0sig_001
#45681877
1sig_002
#45681895
0sig_002
#45682877
1sig_001
#45683721
0sig_001
#45684879
1sig_006
#45687234
0sig_006
#45687242
1sig_005
#45689596
0sig_005
#45689604
1sig_004
#45691966
0sig_004
#45691974
1sig_003
#45691987
0sig_003
#45691991
1sig_007
#45692004
0sig_007
#45692008
1sig_002
#45692022
0sig_002
#45692877
1sig_001
#45693721
0sig_001
#45701877
1sig_002
#45701895
0sig_002
#45702877
1sig_001
#45703721
0sig_001
#45711880
1sig_003
#45711898
0sig_003
#45711902
1sig_007
#45711916
0sig_007
#45711920
1sig_002
#45711934
0sig_002
#45712877
1sig_001
#45713722
0sig_001
#45714879
1sig_006
#45717249
0sig_006
#45717253
1sig_005
#45719612
0sig_005
#45719620
1sig_004
#45721977
0sig_004
#45721986
1sig_002
#45722000
0sig_002
#45722876
1sig_001
#45723720
0sig_001
#45731880
1sig_003
#45731897
0sig_003
#45731902
1sig_007
#45731915
0sig_007
#45731919
1sig_002
#45731933
0sig_002
#45732876
1sig_001
#45733721
0sig_001
#45741876
1sig_002
#45741895
0sig_002
#45742877
1sig_001
#45743721
0sig_001
#45744879
1sig_006
#45747234
0sig_006
#45747243
1sig_005
#45749596
0sig_005
#45749604
1sig_004
#45751966
0sig_004
#45751974
1sig_003
#45751987
0sig_003
#45751991
1sig_007
#45752004
0sig_007
#45752008
1sig_002
#45752022
0sig_002
#45752877
1sig_001
#45753721
0sig_001
#45761877
1sig_002
#45761896
0sig_002
#45762877
1sig_001
#45763722
0sig_001
#45771881
1sig_003
#45771898
0sig_003
#45771902
1sig_007
#45771916
0sig_007
#45771920
1sig_002
#45771934
0sig_002
#45772875
1sig_001
#45773720
0sig_001
#45774879
1sig_006
#45777249
0sig_006
#45777253
1sig_005
#45779612
0sig_005
#45779620
1sig_004
#45781977
0sig_004
#45781985
1sig_002
#45782000
0sig_002
#45782876
1sig_001
#45783720
0sig_001
#45791882
1sig_003
#45791899
0sig_003
#45791903
1sig_007
#45791917
0sig_007
#45791921
1sig_002
#45791935
0sig_002
#45792876
1sig_001
#45793720
0sig_001
#45801876
1sig_002
#45801894
0sig_002
#45802876
1sig_001
#45803721
0sig_001
#45804879
1sig_006
#45807234
0sig_006
#45807242
1sig_005
#45809596
0sig_005
#45809604
1sig_004
#45811966
0sig_004
#45811974
1sig_003
#45811987
0sig_003
#45811991
1sig_007
#45812004
0sig_007
#45812008
1sig_002
#45812022
0sig_002
#45812877
1sig_001
#45813721
0sig_001
#45821877
1sig_002
#45821895
0sig_002
#45822877
1sig_001
#45823721
0sig_001
#45831880
1sig_003
#45831898
0sig_003
#45831902
1sig_007
#45831915
0sig_007
#45831919
1sig_002
#45831934
0sig_002
#45832877
1sig_001
#45833721
0sig_001
#45834878
1sig_006
#45837248
0sig_006
#45837253
1sig_005
#45839611
0sig_005
#45839619
1sig_004
#45841977
0sig_004
#45841985
1sig_002
#45841999
0sig_002
