traces/data9_18_ghosts.vcd
$version
   VCD tracing
	Hepia 2013-2014
$end

$timescale
   1us
$end

$comment
$end

$scope module Collected traces $end
$var wire	 1  sig_000 sig_000 $end
$var wire	 1  sig_001 sig_001 $end
$var wire	 1  sig_002 sig_002 $end
$var wire	 1  sig_003 sig_003 $end
$var wire	 1  sig_004 sig_004 $end
$var wire	 1  sig_005 sig_005 $end
$var wire	 1  sig_006 sig_006 $end
$var wire	 1  sig_007 sig_007 $end
$var wire	 1  sig_008 sig_008 $end
$var wire	 1  sig_009 sig_009 $end
$var wire	 1  sig_010 sig_010 $end
$var wire	 1  sig_011 sig_011 $end
$var wire	 1  sig_012 sig_012 $end
$var wire	 1  sig_013 sig_013 $end
$var wire	 1  sig_014 sig_014 $end
$var wire	 1  sig_015 sig_015 $end
$var wire	 1  sig_016 sig_016 $end
$var wire	 1  sig_017 sig_017 $end
$var wire	 1  sig_018 sig_018 $end
$var wire	 1  sig_019 sig_019 $end
$var wire	 1  sig_020 sig_020 $end
$upscope $end
$enddefinitions  $end

$dumpvars
0sig_000
0sig_001
0sig_002
0sig_003
0sig_004
0sig_005
0sig_006
0sig_007
0sig_008
0sig_009
0sig_010
0sig_011
0sig_012
0sig_013
0sig_014
0sig_015
0sig_016
0sig_017
0sig_018
0sig_019
0sig_020
$end


#1173
1sig_000
#5252
0sig_000
#5254
1sig_001
#5271
0sig_001
#5272
1sig_002
#5727
0sig_002
#5728
1sig_003
#6857
0sig_003
#6859
1sig_004
#8008
0sig_004
#8009
1sig_005
#9134
0sig_005
#9136
1sig_006
#10270
0sig_006
#10272
1sig_007
#11408
0sig_007
#11409
1sig_008
#12559
0sig_008
#12560
1sig_009
#13692
0sig_009
#13693
1sig_010
#14816
0sig_010
#14818
1sig_011
#15949
0sig_011
#15950
1sig_012
#17082
0sig_012
#17084
1sig_013
#18212
0sig_013
#18213
1sig_014
#19364
0sig_014
#19365
1sig_015
#20499
0sig_015
#20500
1sig_016
#21651
0sig_016
#21653
1sig_017
#22792
0sig_017
#22794
1sig_018
#23945
0sig_018
#23947
1sig_019
#25087
0sig_019
#25088
1sig_000
#29170
0sig_000
#29172
1sig_002
#29184
0sig_002
#29185
1sig_003
#30502
0sig_003
#60973
1sig_004
#62317
0sig_004
#62319
1sig_005
#63641
0sig_005
#63643
1sig_006
#64986
0sig_006
#64988
1sig_000
#69073
0sig_000
#69075
1sig_002
#69087
0sig_002
#69088
1sig_007
#70409
0sig_007
#70411
1sig_008
#71754
0sig_008
#71755
1sig_009
#73077
0sig_009
#73079
1sig_010
#74416
0sig_010
#74417
1sig_003
#75743
0sig_003
#75744
1sig_011
#77064
0sig_011
#77065
1sig_020
#78408
0sig_020
#78410
1sig_012
#79736
0sig_012
#79738
1sig_013
#81083
0sig_013
#81084
1sig_014
#82409
0sig_014
#82411
1sig_015
#83736
0sig_015
#83737
1sig_016
#85083
0sig_016
#85084
1sig_017
#86416
0sig_017
#86417
1sig_018
#87762
0sig_018
#87763
1sig_019
#89101
0sig_019
#89103
1sig_000
#93185
0sig_000
#93186
1sig_002
#93198
0sig_002
#93200
1sig_004
#94543
0sig_004
#94545
1sig_005
#95863
0sig_005
#95864
1sig_006
#97212
0sig_006
#97214
1sig_003
#98531
0sig_003
#132991
1sig_007
#134326
0sig_007
#134328
1sig_008
#135670
0sig_008
#135672
1sig_000
#139756
0sig_000
#139757
1sig_002
#139769
0sig_002
#139770
1sig_009
#141097
0sig_009
#141098
1sig_010
#142414
0sig_010
#142415
1sig_011
#143737
0sig_011
#143739
1sig_004
#145083
0sig_004
#145084
1sig_012
#146408
0sig_012
#146410
1sig_003
#147733
0sig_003
#147734
1sig_005
#149060
0sig_005
#149061
1sig_013
#150405
0sig_013
#150406
1sig_006
#151750
0sig_006
#151751
1sig_014
#153097
0sig_014
#153098
1sig_015
#154425
0sig_015
#154427
1sig_016
#155771
0sig_016
#155772
1sig_020
#157117
0sig_020
#157118
1sig_017
#158451
0sig_017
#158453
1sig_018
#159797
0sig_018
#159799
1sig_019
#161132
0sig_019
#161134
1sig_000
#165216
0sig_000
#165218
1sig_002
#165230
0sig_002
#165231
1sig_007
#166553
0sig_007
#197022
1sig_008
#198368
0sig_008
#198369
1sig_004
#199713
0sig_004
#199714
1sig_003
#201036
0sig_003
#201037
1sig_009
#202356
0sig_009
#202357
1sig_005
#203677
0sig_005
#203678
1sig_000
#207758
0sig_000
#207759
1sig_002
#207771
0sig_002
#207773
1sig_010
#209113
0sig_010
#209115
1sig_006
#210459
0sig_006
#210460
1sig_011
#211781
0sig_011
#211782
1sig_012
#213106
0sig_012
#213107
1sig_013
#214451
0sig_013
#214453
1sig_007
#215785
0sig_007
#215787
1sig_014
#217117
0sig_014
#217118
1sig_015
#218444
0sig_015
#218445
1sig_016
#219790
0sig_016
#219791
1sig_017
#221121
0sig_017
#221123
1sig_018
#222470
0sig_018
#222471
1sig_020
#223817
0sig_020
#223818
1sig_019
#225153
0sig_019
#225155
1sig_000
#229237
0sig_000
#229238
1sig_002
#229250
0sig_002
#229251
1sig_003
#230577
0sig_003
#230579
1sig_004
#231923
0sig_004
#231925
1sig_005
#233247
0sig_005
#233249
1sig_008
#234594
0sig_008
#269056
1sig_009
#270381
0sig_009
#270383
1sig_006
#271729
0sig_006
#271730
1sig_000
#275812
0sig_000
#275813
1sig_002
#275825
0sig_002
#275826
1sig_010
#277143
0sig_010
#277145
1sig_007
#278466
0sig_007
#278468
1sig_011
#279794
0sig_011
#279796
1sig_003
#281113
0sig_003
#281114
1sig_012
#282438
0sig_012
#282440
1sig_004
#283782
0sig_004
#283784
1sig_013
#285133
0sig_013
#285134
1sig_005
#286452
0sig_005
#286453
1sig_014
#287797
0sig_014
#287799
1sig_015
#289127
0sig_015
#289128
1sig_008
#290446
0sig_008
#290447
1sig_016
#291792
0sig_016
#291793
1sig_017
#293127
0sig_017
#293129
1sig_018
#294474
0sig_018
#294475
1sig_020
#295819
0sig_020
#295820
1sig_019
#297154
0sig_019
#297155
1sig_000
#301237
0sig_000
#301238
1sig_002
#301250
0sig_002
#301252
1sig_006
#302596
0sig_006
#333062
1sig_003
#334385
0sig_003
#334387
1sig_009
#335717
0sig_009
#335719
1sig_004
#337062
0sig_004
#337063
1sig_007
#338393
0sig_007
#338394
1sig_000
#342476
0sig_000
#342478
1sig_002
#342490
0sig_002
#342491
1sig_005
#343814
0sig_005
#343815
1sig_010
#345154
0sig_010
#345155
1sig_011
#346487
0sig_011
#346489
1sig_012
#347809
0sig_012
#347811
1sig_008
#349156
0sig_008
#349157
1sig_013
#350501
0sig_013
#350503
1sig_006
#351850
0sig_006
#351851
1sig_014
#353183
0sig_014
#353184
1sig_015
#354510
0sig_015
#354512
1sig_016
#355857
0sig_016
#355858
1sig_017
#357191
0sig_017
#357193
1sig_018
#358538
0sig_018
#358540
1sig_020
#359876
0sig_020
#359877
1sig_019
#361215
0sig_019
#361217
1sig_000
#365296
0sig_000
#365297
1sig_002
#365309
0sig_002
#365311
1sig_003
#366628
0sig_003
#366629
1sig_004
#367972
0sig_004
#399772
1sig_007
#401096
0sig_007
#401098
1sig_009
#402422
0sig_009
#402424
1sig_005
#403744
0sig_005
#403745
1sig_000
#407827
0sig_000
#407829
1sig_002
#407840
0sig_002
#407842
1sig_006
#409185
0sig_006
#409187
1sig_010
#410506
0sig_010
#410507
1sig_008
#411824
0sig_008
#411825
1sig_011
#413146
0sig_011
#413148
1sig_012
#414472
0sig_012
#414473
1sig_003
#415801
0sig_003
#415803
1sig_004
#417150
0sig_004
#417152
1sig_013
#418495
0sig_013
#418496
1sig_014
#419840
0sig_014
#419842
1sig_015
#421170
0sig_015
#421172
1sig_016
#422516
0sig_016
#422518
1sig_017
#423850
0sig_017
#423852
1sig_018
#425197
0sig_018
#425199
1sig_020
#426543
0sig_020
#426544
1sig_019
#427876
0sig_019
#427878
1sig_000
#431962
0sig_000
#431964
1sig_002
#431976
0sig_002
#431977
1sig_005
#433299
0sig_005
#433300
1sig_007
#434631
0sig_007
#466432
1sig_009
#467761
0sig_009
#467762
1sig_006
#469105
0sig_006
#469107
1sig_003
#470425
0sig_003
#470426
1sig_004
#471769
0sig_004
#471771
1sig_000
#475853
0sig_000
#475854
1sig_002
#475866
0sig_002
#475867
1sig_008
#477214
0sig_008
#477216
1sig_010
#478552
0sig_010
#478554
1sig_011
#479882
0sig_011
#479884
1sig_012
#481207
0sig_012
#481209
1sig_005
#482530
0sig_005
#482531
1sig_013
#483873
0sig_013
#483875
1sig_014
#485205
0sig_014
#485207
1sig_007
#486528
0sig_007
#486529
1sig_015
#487854
0sig_015
#487856
1sig_016
#489200
0sig_016
#489202
1sig_017
#490531
0sig_017
#490532
1sig_018
#491876
0sig_018
#491877
1sig_019
#493215
0sig_019
#493216
1sig_020
#494551
0sig_020
#494553
1sig_000
#498637
0sig_000
#498639
1sig_002
#498650
0sig_002
#498652
1sig_003
#499976
0sig_003
#499977
1sig_004
#501323
0sig_004
#501325
1sig_006
#502668
0sig_006
#502670
1sig_009
#503996
0sig_009
#538458
1sig_005
#539777
0sig_005
#539779
1sig_000
#543863
0sig_000
#543864
1sig_002
#543876
0sig_002
#543877
1sig_008
#545194
0sig_008
#545196
1sig_010
#546512
0sig_010
#546513
1sig_007
#547846
0sig_007
#547847
1sig_011
#549179
0sig_011
#549180
1sig_012
#550506
0sig_012
#550507
1sig_003
#551823
0sig_003
#551824
1sig_013
#553172
0sig_013
#553173
1sig_004
#554515
0sig_004
#554516
1sig_014
#555860
0sig_014
#555862
1sig_006
#557205
0sig_006
#557206
1sig_015
#558533
0sig_015
#558535
1sig_016
#559878
0sig_016
#559879
1sig_009
#561208
0sig_009
#561210
1sig_017
#562543
0sig_017
#562544
1sig_018
#563888
0sig_018
#563889
1sig_019
#565225
0sig_019
#565226
1sig_020
#566570
0sig_020
#566571
1sig_000
#570651
0sig_000
#570652
1sig_002
#570664
0sig_002
#570666
1sig_005
#571985
0sig_005
#602456
1sig_003
#603779
0sig_003
#603780
1sig_008
#605128
0sig_008
#605129
1sig_007
#606450
0sig_007
#606451
1sig_004
#607796
0sig_004
#607797
1sig_000
#611877
0sig_000
#611878
1sig_002
#611890
0sig_002
#611892
1sig_010
#613232
0sig_010
#613233
1sig_006
#614576
0sig_006
#614577
1sig_011
#615908
0sig_011
#615909
1sig_012
#617231
0sig_012
#617232
1sig_013
#618575
0sig_013
#618576
1sig_009
#619905
0sig_009
#619906
1sig_005
#621232
0sig_005
#621233
1sig_014
#622561
0sig_014
#622562
1sig_015
#623887
0sig_015
#623889
1sig_016
#625236
0sig_016
#625237
1sig_017
#626566
0sig_017
#626567
1sig_018
#627911
0sig_018
#627912
1sig_019
#629247
0sig_019
#629249
1sig_000
#633331
0sig_000
#633332
1sig_002
#633344
0sig_002
#633345
1sig_020
#634681
0sig_020
#634682
1sig_003
#636000
0sig_003
#636001
1sig_004
#637350
0sig_004
#637352
1sig_007
#638682
0sig_007
#638683
1sig_008
#640001
0sig_008
#674465
1sig_006
#675806
0sig_006
#675808
1sig_000
#679892
0sig_000
#679894
1sig_002
#679905
0sig_002
#679907
1sig_005
#681225
0sig_005
#681227
1sig_010
#682544
0sig_010
#682545
1sig_011
#683868
0sig_011
#683869
1sig_009
#685197
0sig_009
#685199
1sig_012
#686523
0sig_012
#686524
1sig_003
#687847
0sig_003
#687849
1sig_013
#689197
0sig_013
#689198
1sig_004
#690543
0sig_004
#690545
1sig_014
#691889
0sig_014
#691891
1sig_007
#693213
0sig_007
#693215
1sig_015
#694544
0sig_015
#694546
1sig_008
#695889
0sig_008
#695891
1sig_016
#697236
0sig_016
#697237
1sig_017
#698571
0sig_017
#698573
1sig_018
#699917
0sig_018
#699918
1sig_019
#701252
0sig_019
#701254
1sig_000
#705336
0sig_000
#705337
1sig_002
#705349
0sig_002
#705351
1sig_020
#706696
0sig_020
#706697
1sig_006
#708044
0sig_006
#708045
1sig_005
#709369
0sig_005
#709371
1sig_003
#710688
0sig_003
#743820
1sig_004
#745166
0sig_004
#745167
1sig_000
#749248
0sig_000
#749250
1sig_002
#749262
0sig_002
#749263
1sig_010
#750599
0sig_010
#750600
1sig_009
#751927
0sig_009
#751929
1sig_011
#753258
0sig_011
#753259
1sig_007
#754589
0sig_007
#754590
1sig_012
#755912
0sig_012
#755914
1sig_008
#757231
0sig_008
#757233
1sig_013
#758575
0sig_013
#758576
1sig_003
#759904
0sig_003
#759905
1sig_014
#761231
0sig_014
#761232
1sig_005
#762552
0sig_005
#762554
1sig_006
#763897
0sig_006
#763898
1sig_015
#765225
0sig_015
#765226
1sig_016
#766570
0sig_016
#766571
1sig_017
#767900
0sig_017
#767901
1sig_018
#769248
0sig_018
#769249
1sig_019
#770583
0sig_019
#770585
1sig_000
#774665
0sig_000
#774666
1sig_002
#774678
0sig_002
#774679
1sig_020
#776015
0sig_020
#776016
1sig_004
#777361
0sig_004
#807826
1sig_003
#809144
0sig_003
#809145
1sig_007
#810467
0sig_007
#810468
1sig_000
#814552
0sig_000
#814554
1sig_002
#814566
0sig_002
#814567
1sig_009
#815894
0sig_009
#815896
1sig_010
#817216
0sig_010
#817217
1sig_005
#818537
0sig_005
#818539
1sig_008
#819882
0sig_008
#819884
1sig_011
#821218
0sig_011
#821219
1sig_006
#822561
0sig_006
#822563
1sig_012
#823887
0sig_012
#823888
1sig_013
#825238
0sig_013
#825240
1sig_004
#826582
0sig_004
#826583
1sig_014
#827928
0sig_014
#827929
1sig_015
#829260
0sig_015
#829261
1sig_016
#830605
0sig_016
#830606
1sig_017
#831943
0sig_017
#831945
1sig_018
#833289
0sig_018
#833291
1sig_019
#834623
0sig_019
#834624
1sig_000
#838703
0sig_000
#838705
1sig_002
#838717
0sig_002
#838718
1sig_020
#840066
0sig_020
#840067
1sig_003
#841392
0sig_003
#841393
1sig_007
#842724
0sig_007
#874519
1sig_005
#875839
0sig_005
#875840
1sig_000
#879922
0sig_000
#879924
1sig_002
#879936
0sig_002
#879937
1sig_009
#881265
0sig_009
#881267
1sig_006
#882609
0sig_006
#882610
1sig_004
#883952
0sig_004
#883954
1sig_008
#885275
0sig_008
#885276
1sig_010
#886613
0sig_010
#886614
1sig_011
#887943
0sig_011
#887944
1sig_012
#889272
0sig_012
#889273
1sig_003
#890589
0sig_003
#890591
1sig_013
#891933
0sig_013
#891935
1sig_014
#893261
0sig_014
#893262
1sig_007
#894583
0sig_007
#894585
1sig_015
#895910
0sig_015
#895911
1sig_016
#897258
0sig_016
#897260
1sig_017
#898588
0sig_017
#898590
1sig_018
#899933
0sig_018
#899935
1sig_019
#901272
0sig_019
#901274
1sig_000
#905353
0sig_000
#905355
1sig_002
#905367
0sig_002
#905368
1sig_020
#906704
0sig_020
#906705
1sig_005
#908028
0sig_005
#908030
1sig_004
#909375
0sig_004
#941171
1sig_006
#942512
0sig_006
#942514
1sig_003
#943837
0sig_003
#943838
1sig_009
#945170
0sig_009
#945171
1sig_000
#949253
0sig_000
#949254
1sig_002
#949266
0sig_002
#949267
1sig_008
#950611
0sig_008
#950612
1sig_010
#951931
0sig_010
#951932
1sig_007
#953263
0sig_007
#953265
1sig_011
#954595
0sig_011
#954597
1sig_012
#955923
0sig_012
#955924
1sig_013
#957268
0sig_013
#957269
1sig_005
#958588
0sig_005
#958589
1sig_004
#959936
0sig_004
#959937
1sig_014
#961282
0sig_014
#961284
1sig_015
#962616
0sig_015
#962617
1sig_016
#963960
0sig_016
#963962
1sig_017
#965298
0sig_017
#965300
1sig_018
#966643
0sig_018
#966644
1sig_019
#967976
0sig_019
#967978
1sig_000
#972061
0sig_000
#972062
1sig_002
#972074
0sig_002
#972075
1sig_020
#973419
0sig_020
#973421
1sig_003
#974748
0sig_003
#974750
1sig_006
#976094
0sig_006
#1007889
1sig_009
#1009217
0sig_009
#1009219
1sig_008
#1010535
0sig_008
#1010536
1sig_000
#1014618
0sig_000
#1014619
1sig_002
#1014631
0sig_002
#1014632
1sig_007
#1015956
0sig_007
#1015957
1sig_004
#1017300
0sig_004
#1017301
1sig_005
#1018623
0sig_005
#1018625
1sig_010
#1019962
0sig_010
#1019963
1sig_011
#1021296
0sig_011
#1021297
1sig_012
#1022618
0sig_012
#1022620
1sig_003
#1023943
0sig_003
#1023944
1sig_013
#1025293
0sig_013
#1025294
1sig_006
#1026637
0sig_006
#1026639
1sig_014
#1027964
0sig_014
#1027966
1sig_015
#1029295
0sig_015
#1029297
1sig_016
#1030641
0sig_016
#1030642
1sig_017
#1031972
0sig_017
#1031973
1sig_018
#1033318
0sig_018
#1033320
1sig_019
#1034655
0sig_019
#1034656
1sig_000
#1038736
0sig_000
#1038738
1sig_002
#1038750
0sig_002
#1038752
1sig_020
#1040090
0sig_020
#1069224
1sig_004
#1070565
0sig_004
#1070567
1sig_008
#1071912
0sig_008
#1071914
1sig_009
#1073242
0sig_009
#1073244
1sig_005
#1074570
0sig_005
#1074572
1sig_007
#1075905
0sig_007
#1075906
1sig_003
#1077235
0sig_003
#1077236
1sig_000
#1081320
0sig_000
#1081322
1sig_002
#1081334
0sig_002
#1081335
1sig_006
#1082678
0sig_006
#1082679
1sig_010
#1083996
0sig_010
#1083998
1sig_011
#1085321
0sig_011
#1085323
1sig_012
#1086647
0sig_012
#1086648
1sig_013
#1087991
0sig_013
#1087993
1sig_014
#1089341
0sig_014
#1089342
1sig_015
#1090672
0sig_015
#1090674
1sig_016
#1092021
0sig_016
#1092023
1sig_017
#1093357
0sig_017
#1093359
1sig_018
#1094705
0sig_018
#1094706
1sig_019
#1096042
0sig_019
#1096043
1sig_000
#1100128
0sig_000
#1100129
1sig_002
#1100141
0sig_002
#1100143
1sig_004
#1101484
0sig_004
#1101486
1sig_020
#1102830
0sig_020
#1102831
1sig_003
#1104158
0sig_003
#1104159
1sig_005
#1105493
0sig_005
#1105494
1sig_008
#1106811
0sig_008
#1106813
1sig_007
#1108138
0sig_007
#1108140
1sig_009
#1109466
0sig_009
#1146592
1sig_006
#1147932
0sig_006
#1147934
1sig_000
#1152015
0sig_000
#1152017
1sig_002
#1152028
0sig_002
#1152030
1sig_010
#1153367
0sig_010
#1153368
1sig_011
#1154696
0sig_011
#1154698
1sig_004
#1156041
0sig_004
#1156042
1sig_012
#1157362
0sig_012
#1157363
1sig_003
#1158692
0sig_003
#1158694
1sig_013
#1160037
0sig_013
#1160038
1sig_005
#1161368
0sig_005
#1161369
1sig_014
#1162694
0sig_014
#1162695
1sig_015
#1164020
0sig_015
#1164021
1sig_008
#1165366
0sig_008
#1165368
1sig_007
#1166697
0sig_007
#1166699
1sig_016
#1168043
0sig_016
#1168044
1sig_017
#1169373
0sig_017
#1169374
1sig_009
#1170702
0sig_009
#1170703
1sig_018
#1172048
0sig_018
#1172050
1sig_019
#1173384
0sig_019
#1173385
1sig_020
#1174721
0sig_020
#1174722
1sig_000
#1178804
0sig_000
#1178805
1sig_002
#1178817
0sig_002
#1178819
1sig_006
#1180167
0sig_006
#1180168
1sig_004
#1181510
0sig_004
#1181511
1sig_003
#1182835
0sig_003
#1215964
1sig_005
#1217298
0sig_005
#1217299
1sig_000
#1221381
0sig_000
#1221382
1sig_002
#1221394
0sig_002
#1221395
1sig_010
#1222711
0sig_010
#1222713
1sig_011
#1224046
0sig_011
#1224048
1sig_007
#1225389
0sig_007
#1225391
1sig_012
#1226714
0sig_012
#1226716
1sig_008
#1228035
0sig_008
#1228037
1sig_013
#1229379
0sig_013
#1229380
1sig_009
#1230708
0sig_009
#1230710
1sig_003
#1232042
0sig_003
#1232043
1sig_004
#1233384
0sig_004
#1233385
1sig_014
#1234729
0sig_014
#1234731
1sig_006
#1236073
0sig_006
#1236075
1sig_015
#1237402
0sig_015
#1237404
1sig_016
#1238747
0sig_016
#1238748
1sig_017
#1240082
0sig_017
#1240083
1sig_018
#1241427
0sig_018
#1241428
1sig_019
#1242760
0sig_019
#1242762
1sig_020
#1244109
0sig_020
#1244111
1sig_000
#1248191
0sig_000
#1248192
1sig_002
#1248204
0sig_002
#1248206
1sig_005
#1249533
0sig_005
#1280003
1sig_003
#1281328
0sig_003
#1281329
1sig_007
#1282671
0sig_007
#1282672
1sig_004
#1284016
0sig_004
#1284017
1sig_010
#1285355
0sig_010
#1285357
1sig_000
#1289438
0sig_000
#1289440
1sig_002
#1289451
0sig_002
#1289453
1sig_008
#1290799
0sig_008
#1290800
1sig_011
#1292130
0sig_011
#1292131
1sig_009
#1293461
0sig_009
#1293463
1sig_006
#1294805
0sig_006
#1294806
1sig_012
#1296130
0sig_012
#1296132
1sig_013
#1297474
0sig_013
#1297476
1sig_005
#1298806
0sig_005
#1298808
1sig_014
#1300141
0sig_014
#1300142
1sig_015
#1301467
0sig_015
#1301469
1sig_016
#1302812
0sig_016
#1302813
1sig_017
#1304145
0sig_017
#1304147
1sig_018
#1305490
0sig_018
#1305492
1sig_019
#1306826
0sig_019
#1306827
1sig_000
#1310909
0sig_000
#1310910
1sig_002
#1310921
0sig_002
#1310923
1sig_020
#1312262
0sig_020
#1312264
1sig_003
#1313591
0sig_003
#1313592
1sig_004
#1314934
0sig_004
#1314935
1sig_007
#1316280
0sig_007
#1349408
1sig_000
#1353490
0sig_000
#1353492
1sig_002
#1353504
0sig_002
#1353505
1sig_010
#1354824
0sig_010
#1354826
1sig_008
#1356143
0sig_008
#1356144
1sig_006
#1357487
0sig_006
#1357489
1sig_005
#1358814
0sig_005
#1358816
1sig_009
#1360144
0sig_009
#1360146
1sig_011
#1361466
0sig_011
#1361467
1sig_003
#1362790
0sig_003
#1362791
1sig_012
#1364121
0sig_012
#1364123
1sig_004
#1365465
0sig_004
#1365466
1sig_013
#1366809
0sig_013
#1366811
1sig_014
#1368159
0sig_014
#1368160
1sig_007
#1369502
0sig_007
#1369504
1sig_015
#1370832
0sig_015
#1370833
1sig_016
#1372178
0sig_016
#1372180
1sig_017
#1373514
0sig_017
#1373515
1sig_018
#1374859
0sig_018
#1374861
1sig_019
#1376195
0sig_019
#1376196
1sig_000
#1380276
0sig_000
#1380278
1sig_002
#1380290
0sig_002
#1380291
1sig_020
#1381636
0sig_020
#1410768
1sig_005
#1412102
0sig_005
#1412104
1sig_003
#1413430
0sig_003
#1413432
1sig_006
#1414773
0sig_006
#1414774
1sig_008
#1416121
0sig_008
#1416123
1sig_004
#1417464
0sig_004
#1417466
1sig_010
#1418802
0sig_010
#1418804
1sig_000
#1422886
0sig_000
#1422887
1sig_002
#1422899
0sig_002
#1422900
1sig_009
#1424232
0sig_009
#1424233
1sig_011
#1425562
0sig_011
#1425564
1sig_007
#1426908
0sig_007
#1426910
1sig_012
#1428231
0sig_012
#1428233
1sig_013
#1429575
0sig_013
#1429577
1sig_014
#1430905
0sig_014
#1430906
1sig_015
#1432237
0sig_015
#1432239
1sig_016
#1433582
0sig_016
#1433583
1sig_017
#1434912
0sig_017
#1434914
1sig_018
#1436261
0sig_018
#1436262
1sig_019
#1437599
0sig_019
#1437600
1sig_000
#1441685
0sig_000
#1441686
1sig_002
#1441698
0sig_002
#1441699
1sig_003
#1443024
0sig_003
#1443026
1sig_020
#1444362
0sig_020
#1444364
1sig_005
#1445691
0sig_005
#1445693
1sig_004
#1447036
0sig_004
#1447038
1sig_006
#1448382
0sig_006
#1448384
1sig_008
#1449702
0sig_008
#1485490
1sig_000
#1489572
0sig_000
#1489573
1sig_002
#1489585
0sig_002
#1489586
1sig_010
#1490902
0sig_010
#1490904
1sig_007
#1492248
0sig_007
#1492250
1sig_009
#1493574
0sig_009
#1493576
1sig_011
#1494895
0sig_011
#1494896
1sig_003
#1496225
0sig_003
#1496226
1sig_012
#1497568
0sig_012
#1497570
1sig_004
#1498911
0sig_004
#1498912
1sig_013
#1500261
0sig_013
#1500263
1sig_005
#1501593
0sig_005
#1501594
1sig_014
#1502938
0sig_014
#1502939
1sig_006
#1504282
0sig_006
#1504283
1sig_015
#1505610
0sig_015
#1505612
1sig_016
#1506954
0sig_016
#1506955
1sig_008
#1508300
0sig_008
#1508301
1sig_017
#1509634
0sig_017
#1509636
1sig_018
#1510978
0sig_018
#1510980
1sig_019
#1512313
0sig_019
#1512315
1sig_000
#1516394
0sig_000
#1516396
1sig_002
#1516408
0sig_002
#1516409
1sig_020
#1517753
0sig_020
#1546892
1sig_003
#1548216
0sig_003
#1548217
1sig_007
#1549558
0sig_007
#1549560
1sig_004
#1550901
0sig_004
#1550902
1sig_010
#1552242
0sig_010
#1552244
1sig_000
#1556326
0sig_000
#1556327
1sig_002
#1556339
0sig_002
#1556340
1sig_009
#1557669
0sig_009
#1557670
1sig_005
#1558997
0sig_005
#1558998
1sig_011
#1560331
0sig_011
#1560332
1sig_006
#1561675
0sig_006
#1561676
1sig_012
#1562999
0sig_012
#1563000
1sig_008
#1564318
0sig_008
#1564320
1sig_013
#1565662
0sig_013
#1565663
1sig_014
#1566995
0sig_014
#1566996
1sig_015
#1568323
0sig_015
#1568324
1sig_016
#1569667
0sig_016
#1569668
1sig_017
#1570999
0sig_017
#1571001
1sig_018
#1572345
0sig_018
#1572346
1sig_019
#1573691
0sig_019
#1573693
1sig_000
#1577774
0sig_000
#1577775
1sig_002
#1577787
0sig_002
#1577788
1sig_003
#1579119
0sig_003
#1579120
1sig_020
#1580456
0sig_020
#1580457
1sig_004
#1581800
0sig_004
#1581801
1sig_007
#1583145
0sig_007
#1616272
1sig_005
#1617604
0sig_005
#1617606
1sig_000
#1621688
0sig_000
#1621689
1sig_002
#1621701
0sig_002
#1621702
1sig_010
#1623018
0sig_010
#1623019
1sig_006
#1624364
0sig_006
#1624365
1sig_009
#1625690
0sig_009
#1625692
1sig_008
#1627039
0sig_008
#1627040
1sig_011
#1628370
0sig_011
#1628372
1sig_003
#1629694
0sig_003
#1629696
1sig_012
#1631043
0sig_012
#1631045
1sig_004
#1632386
0sig_004
#1632387
1sig_013
#1633728
0sig_013
#1633730
1sig_014
#1635075
0sig_014
#1635077
1sig_007
#1636420
0sig_007
#1636422
1sig_015
#1637749
0sig_015
#1637751
1sig_016
#1639094
0sig_016
#1639096
1sig_017
#1640428
0sig_017
#1640430
1sig_018
#1641772
0sig_018
#1641774
1sig_019
#1643120
0sig_019
#1643122
1sig_000
#1647201
0sig_000
#1647203
1sig_002
#1647214
0sig_002
#1647216
1sig_020
#1648560
0sig_020
#1648561
1sig_005
#1649888
0sig_005
#1680353
1sig_003
#1681680
0sig_003
#1681681
1sig_006
#1683022
0sig_006
#1683024
1sig_004
#1684369
0sig_004
#1684370
1sig_000
#1688452
0sig_000
#1688454
1sig_002
#1688465
0sig_002
#1688467
1sig_010
#1689804
0sig_010
#1689806
1sig_009
#1691136
0sig_009
#1691138
1sig_008
#1692454
0sig_008
#1692456
1sig_011
#1693788
0sig_011
#1693789
1sig_007
#1695132
0sig_007
#1695133
1sig_012
#1696454
0sig_012
#1696456
1sig_013
#1697801
0sig_013
#1697802
1sig_005
#1699139
0sig_005
#1699140
1sig_014
#1700466
0sig_014
#1700467
1sig_015
#1701794
0sig_015
#1701795
1sig_016
#1703142
0sig_016
#1703143
1sig_017
#1704475
0sig_017
#1704477
1sig_018
#1705820
0sig_018
#1705821
1sig_019
#1707166
0sig_019
#1707167
1sig_000
#1711251
0sig_000
#1711253
1sig_002
#1711264
0sig_002
#1711266
1sig_003
#1712589
0sig_003
#1712591
1sig_020
#1713927
0sig_020
#1713929
1sig_004
#1715272
0sig_004
#1715273
1sig_006
#1716616
0sig_006
#1749741
1sig_000
#1753823
0sig_000
#1753825
1sig_002
#1753837
0sig_002
#1753838
1sig_008
#1755185
0sig_008
#1755187
1sig_010
#1756503
0sig_010
#1756504
1sig_009
#1757831
0sig_009
#1757833
1sig_007
#1759175
0sig_007
#1759176
1sig_005
#1760502
0sig_005
#1760503
1sig_011
#1761825
0sig_011
#1761826
1sig_003
#1763158
0sig_003
#1763160
1sig_012
#1764502
0sig_012
#1764503
1sig_013
#1765844
0sig_013
#1765846
1sig_004
#1767188
0sig_004
#1767190
1sig_014
#1768534
0sig_014
#1768535
1sig_006
#1769879
0sig_006
#1769880
1sig_015
#1771209
0sig_015
#1771210
1sig_016
#1772553
0sig_016
#1772554
1sig_017
#1773887
0sig_017
#1773888
1sig_018
#1775232
0sig_018
#1775234
1sig_019
#1776577
0sig_019
#1776578
1sig_000
#1780657
0sig_000
#1780659
1sig_002
#1780670
0sig_002
#1780672
1sig_020
#1782016
0sig_020
#1811152
1sig_003
#1812477
0sig_003
#1812478
1sig_005
#1813808
0sig_005
#1813810
1sig_008
#1815127
0sig_008
#1815129
1sig_007
#1816470
0sig_007
#1816472
1sig_000
#1820556
0sig_000
#1820558
1sig_002
#1820569
0sig_002
#1820571
1sig_009
#1821898
0sig_009
#1821900
1sig_004
#1823246
0sig_004
#1823247
1sig_010
#1824584
0sig_010
#1824585
1sig_006
#1825928
0sig_006
#1825929
1sig_011
#1827262
0sig_011
#1827263
1sig_012
#1828584
0sig_012
#1828585
1sig_013
#1829927
0sig_013
#1829929
1sig_014
#1831261
0sig_014
#1831263
1sig_015
#1832588
0sig_015
#1832590
1sig_016
#1833932
0sig_016
#1833934
1sig_017
#1835266
0sig_017
#1835267
1sig_018
#1836610
0sig_018
#1836611
1sig_019
#1837956
0sig_019
#1837958
1sig_000
#1842041
0sig_000
#1842043
1sig_002
#1842054
0sig_002
#1842056
1sig_003
#1843383
0sig_003
#1843385
1sig_020
#1844720
0sig_020
#1844722
1sig_005
#1846052
0sig_005
#1846054
1sig_007
#1847401
0sig_007
#1847402
1sig_008
#1848746
0sig_008
#1848748
1sig_004
#1850091
0sig_004
#1885882
1sig_000
#1889963
0sig_000
#1889965
1sig_002
#1889976
0sig_002
#1889978
1sig_006
#1891322
0sig_006
#1891324
1sig_009
#1892649
0sig_009
#1892650
1sig_010
