traces/data5_without_press_joystick.vcd
$version
   VCD tracing
	Hepia 2013-2014
$end

$timescale
   1us
$end

$comment
$end

$scope module Collected traces $end
$var wire	 1  sig_000 sig_000 $end
$var wire	 1  sig_001 sig_001 $end
$var wire	 1  sig_002 sig_002 $end
$var wire	 1  sig_003 sig_003 $end
$var wire	 1  sig_004 sig_004 $end
$var wire	 1  sig_005 sig_005 $end
$var wire	 1  sig_006 sig_006 $end
$var wire	 1  sig_007 sig_007 $end
$upscope $end
$enddefinitions  $end

$dumpvars
0sig_000
0sig_001
0sig_002
0sig_003
0sig_004
0sig_005
0sig_006
0sig_007
$end


#1241
1sig_000
#1256
0sig_000
#1258
1sig_001
#1275
0sig_001
#1277
1sig_002
#1762
0sig_002
#1764
1sig_003
#2980
0sig_003
#2982
1sig_004
#4199
0sig_004
#4201
1sig_005
#5417
0sig_005
#5419
1sig_006
#6635
0sig_006
#11146
1sig_000
#11162
0sig_000
#11163
1sig_002
#11175
0sig_002
#36275
1sig_000
#36290
0sig_000
#36292
1sig_002
#36303
0sig_002
#36305
1sig_006
#38833
0sig_006
#1241
1sig_000
#1256
0sig_000
#1258
1sig_001
#1275
0sig_001
#1277
1sig_002
#1762
0sig_002
#1764
1sig_003
#2980
0sig_003
#2982
1sig_004
#4199
0sig_004
#4201
1sig_005
#5417
0sig_005
#5419
1sig_006
#6635
0sig_006
#11146
1sig_000
#11162
0sig_000
#11163
1sig_002
#11175
0sig_002
#21130
1sig_000
#21146
0sig_000
#21148
1sig_002
#21160
0sig_002
#24458
1sig_003
#26986
0sig_003
#28169
1sig_004
#30697
0sig_004
#31214
1sig_007
#33741
0sig_007
#33743
1sig_005
#36273
0sig_005
#36275
1sig_000
#36290
0sig_000
#36292
1sig_002
#36303
0sig_002
#36305
1sig_006
#38833
0sig_006
#46673
1sig_000
#46688
0sig_000
#46690
1sig_002
#46702
0sig_002
#48670
1sig_003
#51199
0sig_003
#54377
1sig_004
#56909
0sig_004
#56911
1sig_000
#56926
0sig_000
#56928
1sig_002
#56940
0sig_002
#62114
1sig_005
#64645
0sig_005
#64646
1sig_007
#67181
0sig_007
#67183
1sig_006
#69710
0sig_006
#69712
1sig_000
#69728
0sig_000
#69729
1sig_002
#69741
0sig_002
#73580
1sig_003
#76109
0sig_003
#79287
1sig_000
#79302
0sig_000
#79304
1sig_002
#79316
0sig_002
#80618
1sig_004
#83147
0sig_004
#89654
1sig_000
#89670
0sig_000
#89671
1sig_002
#89683
0sig_002
#90319
1sig_005
#92847
0sig_005
#97358
1sig_007
#99892
0sig_007
#99894
1sig_006
#102422
0sig_006
#102424
1sig_003
#104951
0sig_003
#104953
1sig_000
#104968
0sig_000
#104970
1sig_002
#104982
0sig_002
#107492
1sig_004
#110020
0sig_004
#114530
1sig_000
#114546
0sig_000
#114548
1sig_002
#114559
0sig_002
#118524
1sig_005
#121053
0sig_005
#124232
1sig_000
#124248
0sig_000
#124250
1sig_002
#124261
0sig_002
#126228
1sig_003
#128756
0sig_003
#129274
1sig_007
#131804
0sig_007
#131806
1sig_006
#134341
0sig_006
#134343
1sig_004
#136870
0sig_004
#136872
1sig_000
#136887
0sig_000
#136889
1sig_002
#136900
0sig_002
#146071
1sig_000
#146087
0sig_000
#146089
1sig_002
#146100
0sig_002
#147403
1sig_005
#149931
0sig_005
#150448
1sig_003
#152976
0sig_003
#156155
1sig_000
#156171
0sig_000
#156173
1sig_002
#156185
0sig_002
#160149
1sig_004
#162682
0sig_004
#162684
1sig_007
#165212
0sig_007
#165214
1sig_006
#167746
0sig_006
#167748
1sig_000
#167763
0sig_000
#167765
1sig_002
#167776
0sig_002
#174285
1sig_003
#176815
0sig_003
#176817
1sig_005
#179350
0sig_005
#179352
1sig_000
#179367
0sig_000
#179369
1sig_002
#179380
0sig_002
#186548
1sig_004
#189082
0sig_004
#189083
1sig_000
#189099
0sig_000
#189101
1sig_002
#189113
0sig_002
#195617
1sig_007
#198148
0sig_007
#198150
1sig_006
#200682
0sig_006
#200684
1sig_003
#203212
0sig_003
#203213
1sig_000
#203229
0sig_000
#203231
1sig_002
#203242
0sig_002
#205085
1sig_005
#207613
0sig_005
#213456
1sig_004
#215983
0sig_004
#215984
1sig_000
#216000
0sig_000
#216002
1sig_002
#216013
0sig_002
#225178
1sig_003
#227705
0sig_003
#227707
1sig_000
#227723
0sig_000
#227725
1sig_002
#227736
0sig_002
#228248
1sig_007
#230775
0sig_007
#230777
1sig_006
#233308
0sig_006
#233310
1sig_005
#235838
0sig_005
#237683
1sig_000
#237699
0sig_000
#237700
1sig_002
#237712
0sig_002
#239680
1sig_004
#242209
0sig_004
#247384
1sig_000
#247399
0sig_000
#247401
1sig_002
#247413
0sig_002
#249381
1sig_003
#251909
0sig_003
#257086
1sig_000
#257101
0sig_000
#257103
1sig_002
#257115
0sig_002
#260413
1sig_007
#262945
0sig_007
#262947
1sig_006
#265476
0sig_006
#265478
1sig_005
#268012
0sig_005
#268014
1sig_004
#270542
0sig_004
#270544
1sig_000
#270559
0sig_000
#270561
1sig_002
#270572
0sig_002
#273085
1sig_003
#275613
0sig_003
#280124
1sig_000
#280139
0sig_000
#280141
1sig_002
#280152
0sig_002
#290108
1sig_000
#290124
0sig_000
#290125
1sig_002
#290137
0sig_002
#292104
1sig_007
#294639
0sig_007
#294640
1sig_006
#297171
0sig_006
#297173
1sig_005
#299700
0sig_005
#299702
1sig_004
#302235
0sig_004
#302237
1sig_003
#304764
0sig_003
#304766
1sig_000
#304781
0sig_000
#304783
1sig_002
#304794
0sig_002
#314626
1sig_000
#314642
0sig_000
#314644
1sig_002
#314655
0sig_002
#324611
1sig_007
#327148
0sig_007
#327150
1sig_000
#327165
0sig_000
#327167
1sig_002
#327178
0sig_002
#327180
1sig_006
#329707
0sig_006
#329708
1sig_005
#332237
0sig_005
#332239
1sig_004
#334766
0sig_004
#334768
1sig_003
#337301
0sig_003
#337303
1sig_000
#337318
0sig_000
#337320
1sig_002
#337331
0sig_002
#347166
1sig_000
#347181
0sig_000
#347183
1sig_002
#347195
0sig_002
#357150
1sig_007
#359684
0sig_007
#359685
1sig_006
#362213
0sig_006
#362215
1sig_000
#362230
0sig_000
#362232
1sig_002
#362243
0sig_002
#362245
1sig_005
#364772
0sig_005
#364774
1sig_004
#367303
0sig_004
#367304
1sig_003
#369832
0sig_003
#372343
1sig_000
#372358
0sig_000
#372360
1sig_002
#372371
0sig_002
#382327
1sig_000
#382342
0sig_000
#382344
1sig_002
#382356
0sig_002
#389648
1sig_007
#392190
0sig_007
#392192
1sig_006
#394719
0sig_006
#394721
1sig_005
#397249
0sig_005
#397251
1sig_004
#399778
0sig_004
#399780
1sig_003
#402308
0sig_003
#402310
1sig_000
#402325
0sig_000
#402327
1sig_002
#402338
0sig_002
#412170
1sig_000
#412186
0sig_000
#412188
1sig_002
#412199
0sig_002
#422154
1sig_007
#424688
0sig_007
#424690
1sig_006
#427218
0sig_006
#427220
1sig_000
#427235
0sig_000
#427237
1sig_002
#427248
0sig_002
#427249
1sig_005
#429777
0sig_005
#429778
1sig_004
#432307
0sig_004
#432309
1sig_003
#434837
0sig_003
#437346
1sig_000
#437362
0sig_000
#437364
1sig_002
#437375
0sig_002
#447331
1sig_000
#447346
0sig_000
#447348
1sig_002
#447360
0sig_002
#454652
1sig_007
#457194
0sig_007
#457196
1sig_006
#459723
0sig_006
#459725
1sig_005
#462253
0sig_005
#462255
1sig_004
#464781
0sig_004
#464783
1sig_003
#467312
0sig_003
#467313
1sig_000
#467329
0sig_000
#467330
1sig_002
#467342
0sig_002
#477174
1sig_000
#477190
0sig_000
#477192
1sig_002
#477203
0sig_002
#487158
1sig_007
#489692
0sig_007
#489694
1sig_006
#492222
0sig_006
#492224
1sig_000
#492239
0sig_000
#492241
1sig_002
#492252
0sig_002
#492254
1sig_005
#494781
0sig_005
#494783
1sig_004
#497311
0sig_004
#497313
1sig_003
#499841
0sig_003
#502351
1sig_000
#502366
0sig_000
#502368
1sig_002
#502379
0sig_002
#512334
1sig_000
#512350
0sig_000
#512352
1sig_002
#512364
0sig_002
#519656
1sig_007
#522199
0sig_007
#522200
1sig_006
#524727
0sig_006
#524729
1sig_005
#527257
0sig_005
#527259
1sig_004
#529786
0sig_004
#529788
1sig_003
#532317
0sig_003
#532319
1sig_000
#532334
0sig_000
#532336
1sig_002
#532347
0sig_002
#542179
1sig_000
#542194
0sig_000
#542196
1sig_002
#542208
0sig_002
#552162
1sig_007
#554696
0sig_007
#554698
1sig_006
#557226
0sig_006
#557228
1sig_000
#557243
0sig_000
#557245
1sig_002
#557256
0sig_002
#557258
1sig_005
#559785
0sig_005
#559787
1sig_004
#562315
0sig_004
#562317
1sig_003
#564845
0sig_003
#567355
1sig_000
#567370
0sig_000
#567372
1sig_002
#567383
0sig_002
#577339
1sig_000
#577355
0sig_000
#577357
1sig_002
#577369
0sig_002
#584660
1sig_007
#587203
0sig_007
#587204
1sig_006
#589731
0sig_006
#589733
1sig_005
#592261
0sig_005
#592263
1sig_004
#594790
0sig_004
#594792
1sig_003
#597320
0sig_003
#597322
1sig_000
#597337
0sig_000
#597339
1sig_002
#597350
0sig_002
#607183
1sig_000
#607198
0sig_000
#607200
1sig_002
#607212
0sig_002
#617167
1sig_007
#619700
0sig_007
#619702
1sig_006
#622230
0sig_006
#622232
1sig_000
#622247
0sig_000
#622249
1sig_002
#622260
0sig_002
#622262
1sig_005
#624789
0sig_005
#624791
1sig_004
#627320
0sig_004
#627322
1sig_003
#629849
0sig_003
#632359
1sig_000
#632374
0sig_000
#632376
1sig_002
#632388
0sig_002
#642343
1sig_000
#642359
0sig_000
#642361
1sig_002
#642373
0sig_002
#649664
1sig_007
#652206
0sig_007
#652208
1sig_006
#654735
0sig_006
#654737
1sig_005
#657265
0sig_005
#657267
1sig_004
#659794
0sig_004
#659796
1sig_003
#662324
0sig_003
#662326
1sig_000
#662341
0sig_000
#662343
1sig_002
#662354
0sig_002
#672187
1sig_000
#672202
0sig_000
#672204
1sig_002
#672216
0sig_002
#682171
1sig_007
#684705
0sig_007
#684707
1sig_006
#687235
0sig_006
#687237
1sig_000
#687252
0sig_000
#687254
1sig_002
#687264
0sig_002
#687266
1sig_005
#689793
0sig_005
#689795
1sig_004
#692324
0sig_004
#692326
1sig_003
#694853
0sig_003
#697363
1sig_000
#697379
0sig_000
#697380
1sig_002
#697392
0sig_002
#707347
1sig_000
#707363
0sig_000
#707365
1sig_002
#707377
0sig_002
#714669
1sig_007
#717211
0sig_007
#717213
1sig_006
#719739
0sig_006
#719741
1sig_005
#722269
0sig_005
#722271
1sig_004
#724798
0sig_004
#724800
1sig_003
#727328
0sig_003
#727330
1sig_000
#727345
0sig_000
#727347
1sig_002
#727358
0sig_002
#737191
1sig_000
#737207
0sig_000
#737208
1sig_002
#737220
0sig_002
#747175
1sig_007
#749709
0sig_007
#749711
1sig_006
#752238
0sig_006
#752240
1sig_000
#752255
0sig_000
#752257
1sig_002
#752268
0sig_002
#752270
1sig_005
#754797
0sig_005
#754799
1sig_004
#757328
0sig_004
#757329
1sig_003
#759857
0sig_003
#762367
1sig_000
#762383
0sig_000
#762384
1sig_002
#762396
0sig_002
#772351
1sig_000
#772367
0sig_000
#772369
1sig_002
#772381
0sig_002
#779673
1sig_007
#782215
0sig_007
#782217
1sig_006
#784744
0sig_006
#784745
1sig_005
#787273
0sig_005
#787275
1sig_004
#789802
0sig_004
#789804
1sig_003
#792332
0sig_003
#792334
1sig_000
#792349
0sig_000
#792351
1sig_002
#792362
0sig_002
#802195
1sig_000
#802211
0sig_000
#802213
1sig_002
#802224
0sig_002
#812179
1sig_007
#814713
0sig_007
#814715
1sig_006
#817243
0sig_006
#817245
1sig_000
#817260
0sig_000
#817262
1sig_002
#817273
0sig_002
#817274
1sig_005
#819802
0sig_005
#819804
1sig_004
#822332
0sig_004
#822334
1sig_003
#824862
0sig_003
#827372
1sig_000
#827387
0sig_000
#827389
1sig_002
#827400
0sig_002
#837356
1sig_000
#837372
0sig_000
#837373
1sig_002
#837385
0sig_002
#844677
1sig_007
#847219
0sig_007
#847221
1sig_006
#849748
0sig_006
#849750
1sig_005
#852278
0sig_005
#852280
1sig_004
#854807
0sig_004
#854809
1sig_003
#857337
0sig_003
#857339
1sig_000
#857354
0sig_000
#857356
1sig_002
#857367
0sig_002
#867199
1sig_000
#867215
0sig_000
#867217
1sig_002
#867228
0sig_002
#877183
1sig_007
#879717
0sig_007
#879719
1sig_006
#882247
0sig_006
#882249
1sig_000
#882264
0sig_000
#882266
1sig_002
#882277
0sig_002
#882278
1sig_005
#884805
0sig_005
#884807
1sig_004
#887336
0sig_004
#887338
1sig_003
#889865
0sig_003
#892376
1sig_000
#892391
0sig_000
#892393
1sig_002
#892404
0sig_002
#902360
1sig_000
#902376
0sig_000
#902377
1sig_002
#902389
0sig_002
#909681
1sig_007
#912223
0sig_007
#912225
1sig_006
#914752
0sig_006
#914754
1sig_005
#917282
0sig_005
#917284
1sig_004
#919811
0sig_004
#919812
1sig_003
#922341
0sig_003
#922343
1sig_000
#922358
0sig_000
#922360
1sig_002
#922371
0sig_002
#932204
1sig_000
#932219
0sig_000
#932221
1sig_002
#932232
0sig_002
#942188
1sig_007
#944721
0sig_007
#944723
1sig_006
#947251
0sig_006
#947253
1sig_000
#947268
0sig_000
#947270
1sig_002
#947281
0sig_002
#947283
1sig_005
#949810
0sig_005
#949812
1sig_004
#952341
0sig_004
#952342
1sig_003
#954870
0sig_003
#957380
1sig_000
#957395
0sig_000
#957397
1sig_002
#957408
0sig_002
#967364
1sig_000
#967380
0sig_000
#967382
1sig_002
#967394
0sig_002
#557245
1sig_002
#557256
0sig_002
#977230
1sig_006
#979756
0sig_006
#979758
1sig_005
#982286
0sig_005
#982288
1sig_004
#984815
0sig_004
#984817
1sig_003
#987346
0sig_003
#987347
1sig_000
#987363
0sig_000
#987364
1sig_002
#987376
0sig_002
#577357
1sig_002
#577369
0sig_002
#584660
1sig_007
#997237
0sig_002
#587204
1sig_006
#589731
0sig_006
#589733
1sig_005
#592261
0sig_005
#592263
1sig_004
#594790
0sig_004
#594792
1sig_003
#597320
0sig_003
#597322
1sig_000
#597337
0sig_000
#597339
1sig_002
#597350
0sig_002
#607183
1sig_000
#607198
0sig_000
#607200
1sig_002
#607212
0sig_002
#617167
1sig_007
#619700
0sig_007
#619702
1sig_006
#622230
0sig_006
#622232
1sig_000
#622247
0sig_000
#622249
1sig_002
#622260
0sig_002
#622262
1sig_005
#624789
0sig_005
#624791
1sig_004
#627320
0sig_004
#627322
1sig_003
#629849
0sig_003
#632359
1sig_000
#632374
0sig_000
#632376
1sig_002
#632388
0sig_002
#642343
1sig_000
#642359
0sig_000
#642361
1sig_002
#642373
0sig_002
#649664
1sig_007
#652206
0sig_007
#652208
1sig_006
#654735
0sig_006
#654737
1sig_005
#657265
0sig_005
#657267
1sig_004
#659794
0sig_004
#659796
1sig_003
#662324
0sig_003
#662326
1sig_000
#662341
0sig_000
#662343
1sig_002
#662354
0sig_002
#672187
1sig_000
#672202
0sig_000
#672204
1sig_002
#672216
0sig_002
#682171
1sig_007
#684705
0sig_007
#684707
1sig_006
#687235
0sig_006
#687237
1sig_000
#687252
0sig_000
#687254
1sig_002
#687264
0sig_002
#687266
1sig_005
#689793
0sig_005
#689795
1sig_004
#692324
0sig_004
#692326
1sig_003
#694853
0sig_003
#697363
1sig_000
#697379
0sig_000
#697380
1sig_002
#697392
0sig_002
#707347
1sig_000
#707363
0sig_000
#707365
1sig_002
#707377
0sig_002
#714669
1sig_007
#717211
0sig_007
#717213
1sig_006
#719739
0sig_006
#719741
1sig_005
#722269
0sig_005
#722271
1sig_004
#724798
0sig_004
#724800
1sig_003
#727328
0sig_003
#727330
1sig_000
#727345
0sig_000
#727347
1sig_002
#727358
0sig_002
#737191
1sig_000
#737207
0sig_000
#737208
1sig_002
#737220
0sig_002
#747175
1sig_007
#749709
0sig_007
#749711
1sig_006
#752238
0sig_006
#752240
1sig_000
#752255
0sig_000
#752257
1sig_002
#752268
0sig_002
#752270
1sig_005
#754797
0sig_005
#754799
1sig_004
#757328
0sig_004
#757329
1sig_003
#759857
0sig_003
#762367
1sig_000
#762383
0sig_000
#762384
1sig_002
#762396
0sig_002
#772351
1sig_000
#772367
0sig_000
#772369
1sig_002
#772381
0sig_002
#779673
1sig_007
#782215
0sig_007
#782217
1sig_006
#784744
0sig_006
#784745
1sig_005
#787273
0sig_005
#787275
1sig_004
#789802
0sig_004
#789804
1sig_003
#792332
0sig_003
#792334
1sig_000
#792349
0sig_000
#792351
1sig_002
#792362
0sig_002
#802195
1sig_000
#802211
0sig_000
#802213
1sig_002
#802224
0sig_002
#812179
1sig_007
#814713
0sig_007
#814715
1sig_006
#817243
0sig_006
#817245
1sig_000
#817260
0sig_000
#817262
1sig_002
#817273
0sig_002
#817274
1sig_005
#819802
0sig_005
#819804
1sig_004
#822332
0sig_004
#822334
1sig_003
#824862
0sig_003
#827372
1sig_000
#827387
0sig_000
#827389
1sig_002
#827400
0sig_002
#837356
1sig_000
#837372
0sig_000
#837373
1sig_002
#837385
0sig_002
#844677
1sig_007
#847219
0sig_007
#847221
1sig_006
#849748
0sig_006
#849750
1sig_005
#852278
0sig_005
#852280
1sig_004
#854807
0sig_004
#854809
1sig_003
#857337
0sig_003
#857339
1sig_000
#857354
0sig_000
#857356
1sig_002
#857367
0sig_002
#867199
1sig_000
#867215
0sig_000
#867217
1sig_002
#867228
0sig_002
#877183
1sig_007
#879717
0sig_007
#879719
1sig_006
#882247
0sig_006
#882249
1sig_000
#882264
0sig_000
#882266
1sig_002
#882277
0sig_002
#882278
1sig_005
#884805
0sig_005
#884807
1sig_004
#887336
0sig_004
#887338
1sig_003
#889865
0sig_003
#892376
1sig_000
#892391
0sig_000
#892393
1sig_002
#892404
0sig_002
#902360
1sig_000
#902376
0sig_000
#902377
1sig_002
#902389
0sig_002
#909681
1sig_007
#912223
0sig_007
#912225
1sig_006
#914752
0sig_006
#914754
1sig_005
#917282
0sig_005
#917284
1sig_004
#919811
0sig_004
#919812
1sig_003
#922341
0sig_003
#922343
1sig_000
#922358
0sig_000
#922360
1sig_002
#922371
0sig_002
#932204
1sig_000
#932219
0sig_000
#932221
1sig_002
#932232
0sig_002
#942188
1sig_007
#944721
0sig_007
#944723
1sig_006
#947251
0sig_006
#947253
1sig_000
#947268
0sig_000
#947270
1sig_002
#947281
0sig_002
#947283
1sig_005
#949810
0sig_005
#949812
1sig_004
#952341
0sig_004
#952342
1sig_003
#954870
0sig_003
#957380
1sig_000
#957395
0sig_000
#957397
1sig_002
#957408
0sig_002
#967364
1sig_000
#967380
0sig_000
#967382
1sig_002
#967394
0sig_002
#974685
1sig_007
#977228
0sig_007
#977230
1sig_006
#979756
0sig_006
#979758
1sig_005
#982286
0sig_005
#982288
1sig_004
#984815
0sig_004
#984817
1sig_003
#987346
0sig_003
#987347
1sig_000
#987363
0sig_000
#987364
1sig_002
#987376
0sig_002
#997208
1sig_000
#997223
0sig_000
#997225
1sig_002
#997237
0sig_002
#1007192
1sig_007
#1009725
0sig_007
#1009727
1sig_006
#1012255
0sig_006
#1012257
1sig_000
#1012272
0sig_000
#1012274
1sig_002
#1012285
0sig_002
#1012287
1sig_005
#1014814
0sig_005
#1014816
1sig_004
#1017344
0sig_004
#1017346
1sig_003
#1019874
0sig_003
#1022384
1sig_000
#1022399
0sig_000
#1022401
1sig_002
#1022412
0sig_002
#1032368
1sig_000
#1032384
0sig_000
#1032386
1sig_002
#1032398
0sig_002
#1039689
1sig_007
#1042231
0sig_007
#1042233
1sig_006
#1044760
0sig_006
#1044762
1sig_005
#1047290
0sig_005
#1047292
1sig_004
#1049819
0sig_004
#1049821
1sig_003
#1052349
0sig_003
#1052351
1sig_000
#1052366
0sig_000
#1052368
1sig_002
#1052379
0sig_002
#1062212
1sig_000
#1062227
0sig_000
#1062229
1sig_002
#1062241
0sig_002
#1072196
1sig_007
#1074729
0sig_007
#1074731
1sig_006
#1077259
0sig_006
#1077261
1sig_000
#1077276
0sig_000
#1077278
1sig_002
#1077289
0sig_002
#1077291
1sig_005
#1079818
0sig_005
#1079820
1sig_004
#1082349
0sig_004
#1082350
1sig_003
#1084878
0sig_003
#1087388
1sig_000
#1087403
0sig_000
#1087405
1sig_002
#1087416
0sig_002
#1097372
1sig_000
#1097388
0sig_000
#1097390
1sig_002
#1097402
0sig_002
#1104694
1sig_007
#1107236
0sig_007
#1107238
1sig_006
#1109764
0sig_006
#1109766
1sig_005
#1112294
0sig_005
#1112296
1sig_004
#1114823
0sig_004
#1114825
1sig_003
#1117353
0sig_003
#1117355
1sig_000
#1117370
0sig_000
#1117372
1sig_002
#1117383
0sig_002
#1127216
1sig_000
#1127231
0sig_000
#1127233
1sig_002
#1127245
0sig_002
#1137200
1sig_007
#1139734
0sig_007
#1139736
1sig_006
#1142264
0sig_006
#1142266
1sig_000
#1142281
0sig_000
#1142283
1sig_002
#1142294
0sig_002
#1142295
1sig_005
#1144823
0sig_005
#1144824
1sig_004
#1147353
0sig_004
#1147355
1sig_003
#1149882
0sig_003
#1152392
1sig_000
#1152408
0sig_000
#1152409
1sig_002
#1152421
0sig_002
#1162376
1sig_000
#1162392
0sig_000
#1162394
1sig_002
#1162406
0sig_002
#1169035
1sig_007
#1171571
0sig_007
#1171573
1sig_006
#1174106
0sig_006
#1174107
1sig_005
#1176634
0sig_005
#1176636
1sig_004
#1179164
0sig_004
#1179166
1sig_003
#1181693
0sig_003
#1181695
1sig_000
#1181710
0sig_000
#1181712
1sig_002
#1181723
0sig_002
#1191554
1sig_000
#1191570
0sig_000
#1191572
1sig_002
#1191583
0sig_002
#1201539
1sig_007
#1204076
0sig_007
#1204078
1sig_000
#1204093
0sig_000
#1204095
1sig_002
#1204106
0sig_002
#1204108
1sig_006
#1206635
0sig_006
#1206636
1sig_005
#1209165
0sig_005
#1209167
1sig_004
#1211694
0sig_004
#1211696
1sig_003
#1214229
0sig_003
#1214231
1sig_000
#1214246
0sig_000
#1214248
1sig_002
#1214259
0sig_002
#1224094
1sig_000
#1224110
0sig_000
#1224112
1sig_002
#1224123
0sig_002
#1234078
1sig_007
#1236612
0sig_007
#1236614
1sig_006
#1239142
0sig_006
#1239143
1sig_000
#1239159
0sig_000
#1239160
1sig_002
#1239171
0sig_002
#1239173
1sig_005
#1241700
0sig_005
#1241702
1sig_004
#1244231
0sig_004
#1244233
1sig_003
#1246760
0sig_003
#1249270
1sig_000
#1249286
0sig_000
#1249288
1sig_002
#1249299
0sig_002
#1259254
1sig_000
#1259270
0sig_000
#1259272
1sig_002
#1259284
0sig_002
#1266576
1sig_007
#1269118
0sig_007
#1269120
1sig_006
#1271647
0sig_006
#1271649
1sig_005
#1274177
0sig_005
#1274179
1sig_004
#1276706
0sig_004
#1276707
1sig_003
#1279236
0sig_003
#1279238
1sig_000
#1279253
0sig_000
#1279255
1sig_002
#1279266
0sig_002
#1289098
1sig_000
#1289114
0sig_000
#1289116
1sig_002
#1289127
0sig_002
#1299082
1sig_007
#1301616
0sig_007
#1301618
1sig_006
#1304146
0sig_006
#1304147
1sig_000
#1304163
0sig_000
#1304164
1sig_002
#1304175
0sig_002
#1304177
1sig_005
#1306704
0sig_005
#1306706
1sig_004
#1309235
0sig_004
#1309237
1sig_003
#1311764
0sig_003
#1314275
1sig_000
#1314290
0sig_000
#1314292
1sig_002
#1314303
0sig_002
#1324259
1sig_000
#1324274
0sig_000
#1324276
1sig_002
#1324288
0sig_002
#1331580
1sig_007
#1334122
0sig_007
#1334124
1sig_006
#1336651
0sig_006
#1336653
1sig_005
#1339181
0sig_005
#1339183
1sig_004
#1341709
0sig_004
#1341711
1sig_003
#1344240
0sig_003
#1344242
1sig_000
#1344257
0sig_000
#1344259
1sig_002
#1344270
0sig_002
#1354102
1sig_000
#1354118
0sig_000
#1354120
1sig_002
#1354131
0sig_002
#1364087
1sig_007
#1366620
0sig_007
#1366622
1sig_006
#1369150
0sig_006
#1369152
1sig_000
#1369167
0sig_000
#1369169
1sig_002
#1369180
0sig_002
#1369182
1sig_005
#1371709
0sig_005
#1371711
1sig_004
#1374239
0sig_004
#1374241
1sig_003
#1376769
0sig_003
#1379279
1sig_000
#1379294
0sig_000
#1379296
1sig_002
#1379307
0sig_002
#1389262
1sig_000
#1389278
0sig_000
#1389280
1sig_002
#1389292
0sig_002
#1396584
1sig_007
#1399127
0sig_007
#1399129
1sig_006
#1401655
0sig_006
#1401657
1sig_005
#1404185
0sig_005
#1404187
1sig_004
#1406714
0sig_004
#1406716
1sig_003
#1409244
0sig_003
#1409246
1sig_000
#1409261
0sig_000
#1409263
1sig_002
#1409274
0sig_002
#1419106
1sig_000
#1419122
0sig_000
#1419124
1sig_002
#1419135
0sig_002
#1429091
1sig_007
#1431624
0sig_007
#1431626
1sig_006
#1434154
0sig_006
#1434156
1sig_000
#1434171
0sig_000
#1434173
1sig_002
#1434184
0sig_002
#1434186
1sig_005
#1436713
0sig_005
#1436715
1sig_004
#1439243
0sig_004
#1439245
1sig_003
#1441773
0sig_003
#1444283
1sig_000
#1444298
0sig_000
#1444300
1sig_002
#1444311
0sig_002
#1454267
1sig_000
#1454283
0sig_000
#1454285
1sig_002
#1454297
0sig_002
#1461588
1sig_007
#1464131
0sig_007
#1464132
1sig_006
#1466659
0sig_006
#1466661
1sig_005
#1469189
0sig_005
#1469191
1sig_004
#1471718
0sig_004
#1471720
1sig_003
#1474248
0sig_003
#1474250
1sig_000
#1474265
0sig_000
#1474267
1sig_002
#1474278
0sig_002
#1484111
1sig_000
#1484126
0sig_000
#1484128
1sig_002
#1484140
0sig_002
#1494095
1sig_007
#1496629
0sig_007
#1496630
1sig_006
#1499159
0sig_006
#1499160
1sig_000
#1499175
0sig_000
#1499177
1sig_002
#1499188
0sig_002
#1499190
1sig_005
#1501717
0sig_005
#1501719
1sig_004
#1504248
0sig_004
#1504249
1sig_003
#1506777
0sig_003
#1509287
1sig_000
#1509302
0sig_000
#1509304
1sig_002
#1509315
0sig_002
#1519271
1sig_000
#1519287
0sig_000
#1519289
1sig_002
#1519301
0sig_002
#1526593
1sig_007
#1529135
0sig_007
#1529137
1sig_006
#1531663
0sig_006
#1531665
1sig_005
#1534193
0sig_005
#1534195
1sig_004
#1536722
0sig_004
#1536724
1sig_003
#1539253
0sig_003
#1539254
1sig_000
#1539270
0sig_000
#1539271
1sig_002
#1539283
0sig_002
#1549115
1sig_000
#1549130
0sig_000
#1549132
1sig_002
#1549144
0sig_002
#1559099
1sig_007
#1561633
0sig_007
#1561635
1sig_006
#1564162
0sig_006
#1564164
1sig_000
#1564179
0sig_000
#1564181
1sig_002
#1564192
0sig_002
#1564194
1sig_005
#1566721
0sig_005
#1566723
1sig_004
#1569252
0sig_004
#1569254
1sig_003
#1571782
0sig_003
#1574291
1sig_000
#1574306
0sig_000
#1574308
1sig_002
#1574320
0sig_002
#1584275
1sig_000
#1584291
0sig_000
#1584293
1sig_002
#1584305
0sig_002
#1591597
1sig_007
#1594139
0sig_007
#1594141
1sig_006
#1596668
0sig_006
#1596669
1sig_005
#1599197
0sig_005
#1599199
1sig_004
#1601726
0sig_004
#1601728
1sig_003
#1604256
0sig_003
#1604258
1sig_000
#1604273
0sig_000
#1604275
1sig_002
#1604286
0sig_002
#1614119
1sig_000
#1614134
0sig_000
#1614136
1sig_002
#1614148
0sig_002
#1624103
1sig_007
#1626637
0sig_007
#1626639
1sig_006
#1629167
0sig_006
#1629168
1sig_000
#1629184
0sig_000
#1629185
1sig_002
#1629196
0sig_002
#1629198
1sig_005
#1631725
0sig_005
#1631727
1sig_004
#1634256
0sig_004
#1634258
1sig_003
#1636785
0sig_003
#1639295
1sig_000
#1639311
0sig_000
#1639312
1sig_002
#1639324
0sig_002
#1649280
1sig_000
#1649295
0sig_000
#1649297
1sig_002
#1649309
0sig_002
#1656601
1sig_007
#1659143
0sig_007
#1659145
1sig_006
#1661672
0sig_006
#1661674
1sig_005
#1664202
0sig_005
#1664204
1sig_004
#1666731
0sig_004
#1666733
1sig_003
#1669261
0sig_003
#1669263
1sig_000
#1669278
0sig_000
#1669280
1sig_002
#1669291
0sig_002
#1679123
1sig_000
#1679139
0sig_000
#1679141
1sig_002
#1679152
0sig_002
#1689107
1sig_007
#1691641
0sig_007
#1691643
1sig_006
#1694171
0sig_006
#1694173
1sig_000
#1694188
0sig_000
#1694190
1sig_002
#1694201
0sig_002
#1694202
1sig_005
#1696730
0sig_005
#1696731
1sig_004
#1699260
0sig_004
#1699262
1sig_003
#1701789
0sig_003
#1704299
1sig_000
#1704315
0sig_000
#1704316
1sig_002
#1704328
0sig_002
#1714283
1sig_000
#1714299
0sig_000
#1714301
1sig_002
#1714313
0sig_002
#1721605
1sig_007
#1724147
0sig_007
#1724149
1sig_006
#1726676
0sig_006
#1726678
1sig_005
#1729206
0sig_005
#1729208
1sig_004
#1731734
0sig_004
#1731736
1sig_003
#1734265
0sig_003
#1734267
1sig_000
#1734282
0sig_000
#1734283
1sig_002
#1734295
0sig_002
#1744127
1sig_000
#1744143
0sig_000
#1744145
1sig_002
#1744156
0sig_002
#1754111
1sig_007
#1756645
0sig_007
#1756647
1sig_006
#1759175
0sig_006
#1759177
1sig_000
#1759192
0sig_000
#1759194
1sig_002
#1759205
0sig_002
#1759206
1sig_005
#1761734
0sig_005
#1761735
1sig_004
#1764264
0sig_004
#1764266
1sig_003
#1766794
0sig_003
#1769304
1sig_000
#1769319
0sig_000
#1769321
1sig_002
#1769332
0sig_002
#1779288
1sig_000
#1779304
0sig_000
#1779306
1sig_002
#1779318
0sig_002
#1786609
1sig_007
#1789151
0sig_007
#1789153
1sig_006
#1791680
0sig_006
#1791682
1sig_005
