traces/data8_final.vcd
$version
   VCD tracing
	Hepia 2013-2014
$end

$timescale
   1us
$end

$comment
$end

$scope module Collected traces $end
$var wire	 1  sig_000 sig_000 $end
$var wire	 1  sig_001 sig_001 $end
$var wire	 1  sig_002 sig_002 $end
$var wire	 1  sig_003 sig_003 $end
$var wire	 1  sig_004 sig_004 $end
$var wire	 1  sig_005 sig_005 $end
$var wire	 1  sig_006 sig_006 $end
$var wire	 1  sig_007 sig_007 $end
$upscope $end
$enddefinitions  $end

$dumpvars
0sig_000
0sig_001
0sig_002
0sig_003
0sig_004
0sig_005
0sig_006
0sig_007
$end


#1249
1sig_000
#5577
0sig_000
#5578
1sig_001
#5595
0sig_001
#5597
1sig_002
#6083
0sig_002
#6085
1sig_003
#7308
0sig_003
#7310
1sig_004
#8534
0sig_004
#8536
1sig_005
#9757
0sig_005
#9759
1sig_006
#10985
0sig_006
#20155
1sig_000
#24483
0sig_000
#24484
1sig_002
#24496
0sig_002
#29033
1sig_003
#31571
0sig_003
#31573
1sig_007
#34116
0sig_007
#34118
1sig_004
#36656
0sig_004
#36657
1sig_000
#40987
0sig_000
#40989
1sig_002
#41000
0sig_002
#41001
1sig_005
#43537
0sig_005
#43539
1sig_006
#46077
0sig_006
#55248
1sig_000
#59576
0sig_000
#59578
1sig_002
#59589
0sig_002
#59590
1sig_003
#62130
0sig_003
#62131
1sig_004
#64670
0sig_004
#64671
1sig_007
#67208
0sig_007
#73710
1sig_005
#76246
0sig_005
#76248
1sig_000
#80576
0sig_000
#80577
1sig_002
#80588
0sig_002
#80590
1sig_006
#83127
0sig_006
#88304
1sig_003
#90844
0sig_003
#90845
1sig_004
#93382
0sig_004
#93384
1sig_000
#97714
0sig_000
#97716
1sig_002
#97726
0sig_002
#97728
1sig_007
#100265
0sig_007
#106774
1sig_005
#109315
0sig_005
#109316
1sig_000
#113649
0sig_000
#113651
1sig_002
#113662
0sig_002
#113663
1sig_006
#116200
0sig_006
#116202
1sig_003
#118740
0sig_003
#118741
1sig_004
#121279
0sig_004
#129113
1sig_000
#133444
0sig_000
#133445
1sig_002
#133456
0sig_002
#133458
1sig_007
#135996
0sig_007
#135997
1sig_005
#138531
0sig_005
#143707
1sig_003
#146248
0sig_003
#146250
1sig_000
#150577
0sig_000
#150579
1sig_002
#150589
0sig_002
#150591
1sig_006
#153128
0sig_006
#153130
1sig_004
#155666
0sig_004
#162169
1sig_000
#166502
0sig_000
#166503
1sig_002
#166514
0sig_002
#166516
1sig_005
#169054
0sig_005
#169056
1sig_007
#171591
0sig_007
#171593
1sig_003
#174130
0sig_003
#180639
1sig_000
#184969
0sig_000
#184971
1sig_002
#184981
0sig_002
#184983
1sig_004
#187520
0sig_004
#187521
1sig_006
#190059
0sig_006
#195232
1sig_000
#199562
0sig_000
#199564
1sig_002
#199575
0sig_002
#199576
1sig_005
#202113
0sig_005
#202114
1sig_003
#204649
0sig_003
#204650
1sig_007
#207188
0sig_007
#213695
1sig_000
#218023
0sig_000
#218024
1sig_002
#218039
0sig_002
#218041
1sig_004
#220576
0sig_004
#220578
1sig_006
#223115
0sig_006
#228288
1sig_003
#230822
0sig_003
#230824
1sig_000
#235153
0sig_000
#235155
1sig_005
#237692
0sig_005
#237693
1sig_002
#237704
0sig_002
#237706
1sig_007
#240243
0sig_007
#246750
1sig_004
#249289
0sig_004
#249290
1sig_000
#253623
0sig_000
#253625
1sig_002
#253635
0sig_002
#253637
1sig_006
#256174
0sig_006
#256176
1sig_003
#258711
0sig_003
#265220
1sig_005
#267752
0sig_005
#267754
1sig_000
#272086
0sig_000
#272087
1sig_002
#272098
0sig_002
#272100
1sig_007
#274638
0sig_007
#274639
1sig_004
#277176
0sig_004
#283682
1sig_003
#286221
0sig_003
#286223
1sig_000
#290550
0sig_000
#290552
1sig_002
#290563
0sig_002
#290564
1sig_006
#293104
0sig_006
#293106
1sig_005
#295641
0sig_005
#302144
1sig_000
#306474
0sig_000
#306476
1sig_002
#306487
0sig_002
#306488
1sig_004
#309026
0sig_004
#309028
1sig_007
#311564
0sig_007
#311566
1sig_003
#314102
0sig_003
#320606
1sig_000
#324939
0sig_000
#324940
1sig_002
#324951
0sig_002
#324953
1sig_006
#327490
0sig_006
#327491
1sig_005
#330024
0sig_005
#335200
1sig_004
#337737
0sig_004
#337739
1sig_000
#342070
0sig_000
#342072
1sig_002
#342083
0sig_002
#342084
1sig_003
#344619
0sig_003
#344621
1sig_007
#347158
0sig_007
#353662
1sig_000
#357994
0sig_000
#357996
1sig_002
#358007
0sig_002
#358009
1sig_006
#360545
0sig_006
#360547
1sig_005
#363086
0sig_005
#363087
1sig_004
#365623
0sig_004
#372132
1sig_003
#374667
0sig_003
#374669
1sig_000
#378999
0sig_000
#379000
1sig_002
#379011
0sig_002
#379013
1sig_007
#381549
0sig_007
#388038
1sig_006
#390578
0sig_006
#390580
1sig_000
#394907
0sig_000
#394909
1sig_002
#394920
0sig_002
#394921
1sig_005
#397457
0sig_005
#397459
1sig_004
#399994
0sig_004
#399996
1sig_003
#402533
0sig_003
#410371
1sig_000
#414702
0sig_000
#414704
1sig_002
#414715
0sig_002
#414716
1sig_007
#417253
0sig_007
#421095
1sig_006
#423635
0sig_006
#423637
1sig_005
#426180
0sig_005
#426181
1sig_004
#428716
0sig_004
#428718
1sig_003
#431254
0sig_003
#431256
1sig_000
#435583
0sig_000
#435585
1sig_002
#435596
0sig_002
#445036
1sig_000
#449367
0sig_000
#449369
1sig_002
#449380
0sig_002
#449382
1sig_007
#451919
0sig_007
#451921
1sig_006
#454464
0sig_006
#454466
1sig_005
#456998
0sig_005
#457000
1sig_004
#459541
0sig_004
#459543
1sig_003
#462079
0sig_003
#462080
1sig_000
#466408
0sig_000
#466410
1sig_002
#466420
0sig_002
#478254
1sig_000
#482589
0sig_000
#482590
1sig_002
#482601
0sig_002
#482603
1sig_007
#485144
0sig_007
#485145
1sig_006
#487680
0sig_006
#487682
1sig_005
#490218
0sig_005
#490220
1sig_004
#492759
0sig_004
#492761
1sig_003
#495297
0sig_003
#495299
1sig_000
#499626
0sig_000
#499628
1sig_002
#499639
0sig_002
#511467
1sig_000
#515800
0sig_000
#515802
1sig_002
#515813
0sig_002
#515815
1sig_007
#518357
0sig_007
#518359
1sig_006
#520894
0sig_006
#520896
1sig_005
#523429
0sig_005
#523431
1sig_004
#525971
0sig_004
#525973
1sig_003
#528508
0sig_003
#528510
1sig_000
#532837
0sig_000
#532839
1sig_002
#532850
0sig_002
#544681
1sig_000
#549013
0sig_000
#549015
1sig_002
#549026
0sig_002
#549028
1sig_007
#551571
0sig_007
#551572
1sig_006
#554109
0sig_006
#554110
1sig_005
#556645
0sig_005
#556647
1sig_004
#559187
0sig_004
#559189
1sig_003
#561724
0sig_003
#561726
1sig_000
#566054
0sig_000
#566056
1sig_002
#566067
0sig_002
#577894
1sig_000
#582230
0sig_000
#582232
1sig_002
#582243
0sig_002
#582245
1sig_007
#584784
0sig_007
#584785
1sig_006
#587322
0sig_006
#587323
1sig_005
#589856
0sig_005
#589857
1sig_004
#592398
0sig_004
#592400
1sig_003
#594935
0sig_003
#594937
1sig_000
#599265
0sig_000
#599267
1sig_002
#599278
0sig_002
#611108
1sig_000
#615443
0sig_000
#615444
1sig_002
#615455
0sig_002
#615457
1sig_007
#617996
0sig_007
#617998
1sig_006
#620534
0sig_006
#620536
1sig_005
#623071
0sig_005
#623073
1sig_004
#625613
0sig_004
#625615
1sig_003
#628150
0sig_003
#628152
1sig_000
#632480
0sig_000
#632481
1sig_002
#632492
0sig_002
#644321
1sig_000
#648654
0sig_000
#648656
1sig_002
#648667
0sig_002
#648669
1sig_007
#651211
0sig_007
#651213
1sig_006
#653748
0sig_006
#653750
1sig_005
#656283
0sig_005
#656285
1sig_004
#658825
0sig_004
#658826
1sig_003
#661362
0sig_003
#661364
1sig_000
#665691
0sig_000
#665693
1sig_002
#665704
0sig_002
#677534
1sig_000
#681867
0sig_000
#681869
1sig_002
#681880
0sig_002
#681881
1sig_007
#684424
0sig_007
#684426
1sig_006
#686961
0sig_006
#686963
1sig_005
#689498
0sig_005
#689500
1sig_004
#692040
0sig_004
#692042
1sig_003
#694577
0sig_003
#694578
1sig_000
#698906
0sig_000
#698908
1sig_002
#698918
0sig_002
#710748
1sig_000
#715084
0sig_000
#715086
1sig_002
#715097
0sig_002
#715098
1sig_007
#717638
0sig_007
#717639
1sig_006
#720175
0sig_006
#720177
1sig_005
#722712
0sig_005
#722714
1sig_004
#725254
0sig_004
#725256
1sig_003
#727790
0sig_003
#727792
1sig_000
#732121
0sig_000
#732123
1sig_002
#732133
0sig_002
#743961
1sig_000
#748297
0sig_000
#748299
1sig_002
#748310
0sig_002
#748312
1sig_007
#750851
0sig_007
#750853
1sig_006
#753388
0sig_006
#753390
1sig_005
#755925
0sig_005
#755927
1sig_004
#758467
0sig_004
#758469
1sig_003
#761003
0sig_003
#761005
1sig_000
#765334
0sig_000
#765335
1sig_002
#765346
0sig_002
#777175
1sig_000
#781510
0sig_000
#781512
1sig_002
#781522
0sig_002
#781524
1sig_007
#784064
0sig_007
#784066
1sig_006
#786601
0sig_006
#786602
1sig_005
#789138
0sig_005
#789140
1sig_004
#791679
0sig_004
#791681
1sig_003
#794217
0sig_003
#794219
1sig_000
#798546
0sig_000
#798548
1sig_002
#798558
0sig_002
#810388
1sig_000
#814721
0sig_000
#814723
1sig_002
#814734
0sig_002
#814735
1sig_007
#817278
0sig_007
#817280
1sig_006
#819815
0sig_006
#819817
1sig_005
#822353
0sig_005
#822354
1sig_004
#824894
0sig_004
#824895
1sig_003
#827431
0sig_003
#827433
1sig_000
#831760
0sig_000
#831762
1sig_002
#831773
0sig_002
#843601
1sig_000
#847934
0sig_000
#847936
1sig_002
#847947
0sig_002
#847949
1sig_007
#850492
0sig_007
#850493
1sig_006
#853028
0sig_006
#853030
1sig_005
#855566
0sig_005
#855567
1sig_004
#858108
0sig_004
#858110
1sig_003
#860644
0sig_003
#860646
1sig_000
#864973
0sig_000
#864975
1sig_002
#864986
0sig_002
#876815
1sig_000
#881151
0sig_000
#881153
1sig_002
#881164
0sig_002
#881165
1sig_007
#883704
0sig_007
#883706
1sig_006
#886242
0sig_006
#886244
1sig_005
#888778
0sig_005
#888780
1sig_004
#891320
0sig_004
#891322
1sig_003
#893857
0sig_003
#893858
1sig_000
#898187
0sig_000
#898189
1sig_002
#898200
0sig_002
#910029
1sig_000
#914365
0sig_000
#914366
1sig_002
#914377
0sig_002
#914379
1sig_007
#916918
0sig_007
#916920
1sig_006
#919456
0sig_006
#919457
1sig_005
#921992
0sig_005
#921994
1sig_004
#924534
0sig_004
#924536
1sig_003
#927072
0sig_003
#927074
1sig_000
#931401
0sig_000
#931403
1sig_002
#931413
0sig_002
#943242
1sig_000
#958734
0sig_000
#958736
1sig_002
#958746
0sig_002
#958748
1sig_007
#961284
0sig_007
#961285
1sig_006
#963820
0sig_006
#963822
1sig_005
#966357
0sig_005
#966359
1sig_004
#968898
0sig_004
#968900
1sig_003
#971436
0sig_003
#971437
1sig_000
#975760
0sig_000
#975761
1sig_002
#975772
0sig_002
#975773
1sig_000
#975791
0sig_000
#975792
1sig_001
#976239
0sig_001
#990733
1sig_002
#990744
0sig_002
#990745
1sig_001
#991616
0sig_001
#991618
1sig_007
#994161
0sig_007
#994162
1sig_006
#996697
0sig_006
#996699
1sig_005
#999235
0sig_005
#999236
1sig_004
#1001776
0sig_004
#1001778
1sig_003
#1004314
0sig_003
#1004316
1sig_002
#1004326
0sig_002
#1004328
1sig_001
#1005193
0sig_001
#1017023
1sig_002
#1017036
0sig_002
#1017038
1sig_001
#1017903
0sig_001
#1024036
1sig_007
#1026578
0sig_007
#1026579
1sig_006
#1029119
0sig_006
#1029121
1sig_005
#1031655
0sig_005
#1031657
1sig_004
#1034193
0sig_004
#1034195
1sig_003
#1036729
0sig_003
#1036731
1sig_002
#1036741
0sig_002
#1036743
1sig_001
#1037609
0sig_001
#1046776
1sig_002
#1046787
0sig_002
#1048107
1sig_001
#1048973
0sig_001
#1056037
1sig_007
#1058583
0sig_007
#1058584
1sig_002
#1058595
0sig_002
#1058596
1sig_006
#1061132
0sig_006
#1061134
1sig_005
#1063668
0sig_005
#1063670
1sig_004
#1066206
0sig_004
#1066208
1sig_003
#1068745
0sig_003
#1068747
1sig_001
#1069612
0sig_001
#1069614
1sig_002
#1069624
0sig_002
#1080123
1sig_001
#1080987
0sig_001
#1080989
1sig_002
#1081001
0sig_002
#1088034
1sig_007
#1090582
0sig_007
#1090584
1sig_006
#1093120
0sig_006
#1093121
1sig_005
#1095656
0sig_005
#1095657
1sig_004
#1098193
0sig_004
#1098195
1sig_003
#1100727
0sig_003
#1100729
1sig_001
#1101594
0sig_001
#1101596
1sig_002
#1101607
0sig_002
#1111035
1sig_001
#1111899
0sig_001
#1111901
1sig_002
#1111912
0sig_002
#1120034
1sig_007
#1122582
0sig_007
#1122583
1sig_006
#1125119
0sig_006
#1125120
1sig_005
#1127655
0sig_005
#1127656
1sig_001
#1128521
0sig_001
#1128523
1sig_002
#1128534
0sig_002
#1128535
1sig_004
#1131071
0sig_004
#1131073
1sig_003
#1133609
0sig_003
#1142781
1sig_001
#1143646
0sig_001
#1143648
1sig_002
#1143659
0sig_002
#1152035
1sig_007
#1154579
0sig_007
#1154580
1sig_006
#1157120
0sig_006
#1157122
1sig_005
#1159656
0sig_005
#1159658
1sig_001
#1160523
0sig_001
#1160525
1sig_002
#1160536
0sig_002
#1160537
1sig_004
#1163073
0sig_004
#1163075
1sig_003
#1165611
0sig_003
#1174779
1sig_001
#1175645
0sig_001
#1175647
1sig_002
#1175658
0sig_002
#1184034
1sig_007
#1186578
0sig_007
#1186580
1sig_006
#1189120
0sig_006
#1189121
1sig_005
#1191656
0sig_005
#1191658
1sig_001
#1192523
0sig_001
#1192525
1sig_002
#1192535
0sig_002
#1192537
1sig_004
#1195073
0sig_004
#1195075
1sig_003
#1197610
0sig_003
#1206778
1sig_001
#1207643
0sig_001
#1207645
1sig_002
#1207656
0sig_002
#1216033
1sig_007
#1218577
0sig_007
#1218578
1sig_006
#1221118
0sig_006
#1221120
1sig_005
#1223654
0sig_005
#1223656
1sig_001
#1224521
0sig_001
#1224523
1sig_002
#1224533
0sig_002
#1224535
1sig_004
#1227071
0sig_004
#1227073
1sig_003
#1229609
0sig_003
#1238776
1sig_001
#1239642
0sig_001
#1239644
1sig_002
#1239655
0sig_002
#1248034
1sig_007
#1250578
0sig_007
#1250580
1sig_006
#1253120
0sig_006
#1253122
1sig_005
#1255656
0sig_005
#1255658
1sig_001
#1256523
0sig_001
#1256525
1sig_002
#1257490
0sig_002
#1257492
1sig_004
#1260027
0sig_004
#1260029
1sig_003
#1262566
0sig_003
#1271732
1sig_002
#1272698
0sig_002
#1272700
1sig_001
#1273566
0sig_001
#1280037
1sig_007
#1282577
0sig_007
#1282579
1sig_002
#1283549
0sig_002
#1283551
1sig_006
#1286089
0sig_006
#1286091
1sig_005
#1288625
0sig_005
#1288627
1sig_004
#1291165
0sig_004
#1291167
1sig_001
#1292033
0sig_001
#1292035
1sig_003
#1294570
0sig_003
#1294572
1sig_002
#1295538
0sig_002
#1306036
1sig_001
#1306900
0sig_001
#1306902
1sig_002
#1307869
0sig_002
#1312035
1sig_007
#1314574
0sig_007
#1314576
1sig_006
#1317121
0sig_006
#1317123
1sig_005
#1319657
0sig_005
#1319659
1sig_004
#1322194
0sig_004
#1322196
1sig_002
#1323162
0sig_002
#1323164
1sig_003
#1325699
0sig_003
#1325701
1sig_001
#1326566
0sig_001
#1335738
1sig_002
#1336706
0sig_002
#1336708
1sig_001
#1337574
0sig_001
#1344037
1sig_007
#1346579
0sig_007
#1346580
1sig_002
#1347551
0sig_002
#1347553
1sig_006
#1350088
0sig_006
#1350090
1sig_005
#1352624
0sig_005
#1352626
1sig_004
#1355164
0sig_004
#1355166
1sig_003
#1357701
0sig_003
#1357703
1sig_001
#1358568
0sig_001
#1358570
1sig_002
#1359536
0sig_002
#1370033
1sig_002
#1370998
0sig_002
#1371000
1sig_001
#1371866
0sig_001
#1376035
1sig_007
#1378577
0sig_007
#1378579
1sig_006
#1381121
0sig_006
#1381123
1sig_005
#1383657
0sig_005
#1383659
1sig_002
#1384625
0sig_002
#1384627
1sig_004
#1387162
0sig_004
#1387164
1sig_003
#1389699
0sig_003
#1389701
1sig_001
#1390567
0sig_001
#1399735
1sig_002
#1400704
0sig_002
#1400706
1sig_001
#1401572
0sig_001
#1408037
1sig_007
#1410576
0sig_007
#1410578
1sig_002
#1411551
0sig_002
#1411553
1sig_006
#1414088
0sig_006
#1414090
1sig_005
#1416624
0sig_005
#1416626
1sig_004
#1419164
0sig_004
#1419166
1sig_003
#1421701
0sig_003
#1421703
1sig_001
#1422568
0sig_001
#1422570
1sig_002
#1423536
0sig_002
#1434039
1sig_002
#1435004
0sig_002
#1435005
1sig_001
#1435872
0sig_001
#1440035
1sig_007
#1442576
0sig_007
#1442578
1sig_006
#1445121
0sig_006
#1445123
1sig_005
#1447657
0sig_005
#1447659
1sig_002
#1448625
0sig_002
#1448626
1sig_004
#1451162
0sig_004
#1451164
1sig_003
#1453699
0sig_003
#1453701
1sig_001
#1454566
0sig_001
#1463733
1sig_002
#1463744
0sig_002
#1465064
1sig_001
#1465929
0sig_001
#1472034
1sig_007
#1474576
0sig_007
#1474577
1sig_006
#1477120
0sig_006
#1477122
1sig_005
#1479656
0sig_005
#1479658
1sig_002
#1479668
0sig_002
#1479670
1sig_004
#1482206
0sig_004
#1482207
1sig_003
#1484743
0sig_003
#1484744
1sig_001
#1485610
0sig_001
#1494775
1sig_002
#1494786
0sig_002
#1496106
1sig_001
#1496971
0sig_001
#1504036
1sig_007
#1506581
0sig_007
#1506583
1sig_002
#1506594
0sig_002
#1506595
1sig_006
#1509131
0sig_006
#1509133
1sig_005
#1511667
0sig_005
#1511669
1sig_004
#1514205
0sig_004
#1514206
1sig_003
#1516744
0sig_003
#1516746
1sig_001
#1517611
0sig_001
#1517613
1sig_002
#1517624
0sig_002
#1528122
1sig_001
#1528986
0sig_001
#1528988
1sig_002
#1528999
0sig_002
#1536033
1sig_007
#1538581
0sig_007
#1538583
1sig_006
#1541118
0sig_006
#1541120
1sig_005
#1543654
0sig_005
#1543656
1sig_004
#1546192
0sig_004
#1546193
1sig_003
#1548728
0sig_003
#1548730
1sig_001
#1549595
0sig_001
#1549597
1sig_002
#1549608
0sig_002
#1559036
1sig_001
#1559901
0sig_001
#1559902
1sig_002
#1559914
0sig_002
#1568035
1sig_007
#1570583
0sig_007
#1570585
1sig_006
#1573120
0sig_006
#1573122
1sig_005
#1575656
0sig_005
#1575658
1sig_001
#1576523
0sig_001
#1576525
1sig_002
#1576535
0sig_002
#1576537
1sig_004
#1579073
0sig_004
#1579075
1sig_003
#1581611
0sig_003
#1590779
1sig_001
#1591645
0sig_001
#1591646
1sig_002
#1591658
0sig_002
#1600034
1sig_007
#1602578
0sig_007
#1602579
1sig_006
#1605119
0sig_006
#1605121
1sig_005
#1607655
0sig_005
#1607657
1sig_001
#1608522
0sig_001
#1608524
1sig_002
#1608534
0sig_002
#1608536
1sig_004
#1611072
0sig_004
#1611074
1sig_003
#1613610
0sig_003
#1622778
1sig_001
#1623643
0sig_001
#1623645
1sig_002
#1623656
0sig_002
#1632033
1sig_007
#1634577
0sig_007
#1634578
1sig_006
#1637119
0sig_006
#1637120
1sig_005
#1639651
0sig_005
#1639652
1sig_001
#1640517
0sig_001
#1640519
1sig_002
#1640530
0sig_002
#1640531
1sig_004
#1643067
0sig_004
#1643069
1sig_003
#1645602
0sig_003
#1654768
1sig_001
#1655634
0sig_001
#1655636
1sig_002
#1655647
0sig_002
#1664035
1sig_007
#1666579
0sig_007
#1666580
1sig_006
#1669120
0sig_006
#1669122
1sig_005
#1671656
0sig_005
#1671658
1sig_001
#1672523
0sig_001
#1672525
1sig_002
#1672535
0sig_002
#1672537
1sig_004
#1675073
0sig_004
#1675075
1sig_003
#1677610
0sig_003
#1686775
1sig_001
#1687641
0sig_001
#1687643
1sig_002
#1687654
0sig_002
#1696033
1sig_007
#1698577
0sig_007
#1698578
1sig_006
#1701118
0sig_006
#1701120
1sig_005
#1703654
0sig_005
#1703656
1sig_001
#1704521
0sig_001
#1704523
1sig_002
#1704533
0sig_002
#1704535
1sig_004
#1707071
0sig_004
#1707073
1sig_003
#1709608
0sig_003
#1718774
1sig_001
#1719640
0sig_001
#1719641
1sig_002
#1719653
0sig_002
#1728035
1sig_007
#1730578
0sig_007
#1730580
1sig_006
#1733120
0sig_006
#1733122
1sig_005
#1735656
0sig_005
#1735658
1sig_001
#1736523
0sig_001
#1736525
1sig_002
#1736535
0sig_002
#1736537
1sig_004
#1739073
0sig_004
#1739075
1sig_003
#1741610
0sig_003
#1750781
1sig_001
#1751646
0sig_001
#1751648
1sig_002
#1751659
0sig_002
#1760033
1sig_007
#1762577
0sig_007
#1762578
1sig_006
#1765118
0sig_006
#1765120
1sig_005
#1767654
0sig_005
#1767656
1sig_001
#1768521
0sig_001
#1768523
1sig_002
#1768533
0sig_002
#1768535
1sig_004
#1771071
0sig_004
#1771073
1sig_003
#1773608
0sig_003
#1782780
1sig_001
#1783645
0sig_001
#1783647
1sig_002
#1783658
0sig_002
#1792034
1sig_007
#1794578
0sig_007
#1794580
1sig_006
#1797120
0sig_006
#1797122
1sig_005
#1799656
0sig_005
#1799658
1sig_001
#1800523
0sig_001
#1800525
1sig_002
#1800535
0sig_002
#1800537
1sig_004
#1803073
0sig_004
#1803075
1sig_003
#1805610
0sig_003
#1814779
1sig_001
#1815644
0sig_001
#1815646
1sig_002
#1815657
0sig_002
#1824033
1sig_007
#1826577
0sig_007
#1826579
1sig_006
#1829119
0sig_006
#1829121
1sig_005
#1831655
0sig_005
#1831657
1sig_001
#1832522
0sig_001
#1832523
1sig_002
#1832534
0sig_002
#1832535
1sig_004
#1835072
0sig_004
#1835073
1sig_003
#1837608
0sig_003
#1846777
1sig_001
#1847643
0sig_001
#1847645
1sig_002
#1847656
0sig_002
#1856035
1sig_007
#1858579
0sig_007
#1858580
1sig_006
#1861120
0sig_006
#1861122
1sig_005
#1863656
0sig_005
#1863658
1sig_001
#1864523
0sig_001
#1864525
1sig_002
#1864535
0sig_002
#1864537
1sig_004
#1867073
0sig_004
#1867075
1sig_003
#1869610
0sig_003
#1878776
1sig_001
#1879641
0sig_001
#1879643
1sig_002
#1879654
0sig_002
#1888034
1sig_007
#1890577
0sig_007
#1890579
1sig_006
#1893119
0sig_006
#1893121
1sig_005
#1895655
0sig_005
#1895657
1sig_001
#1896522
0sig_001
#1896523
1sig_002
#1896534
0sig_002
#1896536
1sig_004
#1899072
0sig_004
#1899073
1sig_003
#1901609
0sig_003
#1910774
1sig_001
#1911640
0sig_001
#1911642
1sig_002
#1911653
0sig_002
#1920035
1sig_007
#1922579
0sig_007
#1922581
1sig_006
#1925121
0sig_006
#1925123
1sig_005
#1927657
0sig_005
#1927659
1sig_001
#1928524
0sig_001
#1928526
1sig_002
#1928536
0sig_002
#1928538
1sig_004
#1931074
0sig_004
#1931075
1sig_003
#1933611
0sig_003
#1942782
1sig_001
#1943647
0sig_001
#1943649
1sig_002
#1943660
0sig_002
#1952034
1sig_007
#1954577
0sig_007
#1954579
1sig_006
#1957119
0sig_006
#1957121
1sig_005
#1959655
0sig_005
#1959657
1sig_001
#1960522
0sig_001
#1960523
1sig_002
#1960534
0sig_002
#1960536
1sig_004
#1963072
0sig_004
#1963073
1sig_003
#1965609
0sig_003
#1974781
1sig_001
#1975646
0sig_001
#1975648
1sig_002
#1975659
0sig_002
#1984035
1sig_007
#1986579
0sig_007
#1986581
1sig_006
#1989121
0sig_006
#1989123
1sig_005
#1991657
0sig_005
#1991659
1sig_001
#1992524
0sig_001
#1992525
1sig_002
#1992536
0sig_002
#1992538
1sig_004
#1995074
0sig_004
#1995075
1sig_003
#1997611
0sig_003
#2006779
1sig_001
#2007645
0sig_001
#2007646
1sig_002
#2008612
0sig_002
#2016036
1sig_007
#2018577
0sig_007
#2018579
1sig_002
#2019549
0sig_002
#2019551
1sig_006
#2022086
0sig_006
#2022088
1sig_005
#2024622
0sig_005
#2024624
1sig_001
#2025489
0sig_001
#2025491
1sig_004
#2028028
0sig_004
#2028030
1sig_003
#2030566
0sig_003
#2030567
1sig_002
#2031533
0sig_002
#2042032
1sig_001
#2042897
0sig_001
#2042899
1sig_002
#2043865
0sig_002
#2048033
1sig_007
#2050573
0sig_007
#2050575
1sig_006
#2053120
0sig_006
#2053121
1sig_005
#2055656
0sig_005
#2055657
1sig_004
#2058193
0sig_004
#2058195
1sig_002
#2059160
0sig_002
#2059162
1sig_003
#2061696
0sig_003
#2061698
1sig_001
#2062564
0sig_001
#2071733
1sig_002
#2072701
0sig_002
#2072703
1sig_001
#2073569
0sig_001
#2080035
1sig_007
#2082577
0sig_007
#2082579
1sig_002
#2083548
0sig_002
#2083550
1sig_006
#2086085
0sig_006
#2086087
1sig_005
#2088622
0sig_005
#2088623
1sig_004
#2091162
0sig_004
#2091163
1sig_003
#2093698
0sig_003
#2093700
1sig_001
#2094565
0sig_001
#2094567
1sig_002
#2095532
0sig_002
#2106028
1sig_002
#2106994
0sig_002
#2106995
1sig_001
#2107862
0sig_001
#2112034
1sig_007
#2114575
0sig_007
#2114577
1sig_006
#2117119
0sig_006
#2117121
1sig_005
#2119655
0sig_005
#2119657
1sig_002
#2120622
0sig_002
#2120624
1sig_004
#2123160
0sig_004
#2123162
1sig_003
#2125696
0sig_003
#2125698
1sig_001
#2126564
0sig_001
#2135731
1sig_002
#2136699
0sig_002
#2136700
1sig_001
#2137566
0sig_001
#2144036
1sig_007
#2146575
0sig_007
#2146577
1sig_002
#2147549
0sig_002
#2147550
1sig_006
#2150086
0sig_006
#2150088
1sig_005
#2152622
0sig_005
#2152624
1sig_004
#2155162
0sig_004
#2155164
1sig_003
#2157698
0sig_003
#2157700
1sig_001
#2158565
0sig_001
#2158567
1sig_002
#2159532
0sig_002
#2170034
1sig_002
#2170999
0sig_002
#2171000
1sig_001
#2171867
0sig_001
#2176034
1sig_007
#2178575
0sig_007
#2178577
1sig_006
#2181119
0sig_006
#2181121
1sig_005
#2183655
0sig_005
#2183657
1sig_002
#2184622
0sig_002
#2184624
1sig_004
#2187160
0sig_004
#2187162
1sig_003
#2189696
0sig_003
#2189698
1sig_001
#2190564
0sig_001
#2199728
1sig_002
#2200696
0sig_002
#2200698
1sig_001
#2201564
0sig_001
#2208036
1sig_007
#2210575
0sig_007
#2210577
1sig_002
#2211549
0sig_002
#2211551
1sig_006
#2214086
0sig_006
#2214088
1sig_005
#2216622
0sig_005
#2216624
1sig_004
#2219163
0sig_004
#2219164
1sig_003
#2221699
0sig_003
#2221701
1sig_001
#2222566
0sig_001
#2222567
1sig_002
#2223533
0sig_002
#2234032
1sig_002
#2234997
0sig_002
#2234999
1sig_001
#2235865
0sig_001
#2240034
1sig_007
#2242575
0sig_007
#2242577
1sig_006
#2245120
0sig_006
#2245121
1sig_005
#2247656
0sig_005
#2247658
1sig_002
#2248623
0sig_002
#2248624
1sig_004
#2251160
0sig_004
#2251162
1sig_003
#2253697
0sig_003
#2253698
1sig_001
#2254564
0sig_001
#2263734
1sig_002
#2264702
0sig_002
#2264704
1sig_001
#2265570
0sig_001
#2272036
1sig_007
#2274575
0sig_007
#2274577
1sig_002
#2275549
0sig_002
#2275550
1sig_006
#2278086
0sig_006
#2278088
1sig_005
#2280622
0sig_005
#2280624
1sig_004
#2283162
0sig_004
#2283164
1sig_003
#2285698
0sig_003
#2285700
1sig_001
#2286565
0sig_001
#2286567
1sig_002
#2287532
0sig_002
#2298030
1sig_002
#2298995
0sig_002
#2298996
1sig_001
#2299863
0sig_001
#2304034
1sig_007
#2306576
0sig_007
#2306577
1sig_006
#2309120
0sig_006
#2309122
1sig_005
#2311656
0sig_005
#2311658
1sig_002
#2312623
0sig_002
#2312625
1sig_004
#2315161
0sig_004
#2315162
1sig_003
#2317697
0sig_003
#2317699
1sig_001
#2318565
0sig_001
#2327731
1sig_002
#2328699
0sig_002
#2328701
1sig_001
#2329567
0sig_001
#2336036
1sig_007
#2338575
0sig_007
#2338577
1sig_002
#2338588
0sig_002
#2338590
1sig_006
#2341132
0sig_006
#2341134
1sig_005
#2343669
0sig_005
#2343670
1sig_004
#2346206
0sig_004
#2346208
1sig_003
#2348745
0sig_003
#2348747
1sig_001
#2349612
0sig_001
#2349614
1sig_002
#2349624
0sig_002
#2360122
1sig_001
#2360986
0sig_001
#2360988
1sig_002
#2360999
0sig_002
#2368035
1sig_007
#2370583
0sig_007
#2370585
1sig_006
#2373121
0sig_006
#2373122
1sig_005
#2375657
0sig_005
#2375659
1sig_004
#2378194
0sig_004
#2378196
1sig_003
#2380731
0sig_003
#2380732
1sig_001
#2381597
0sig_001
#2381599
1sig_002
#2382564
0sig_002
#2391729
1sig_002
#2392694
0sig_002
#2392696
1sig_001
#2393562
0sig_001
#2400037
1sig_007
#2402581
0sig_007
#2402583
1sig_002
#2403551
0sig_002
#2403552
1sig_006
#2406088
0sig_006
#2406090
1sig_005
#2408624
0sig_005
#2408626
1sig_004
#2411164
0sig_004
#2411166
1sig_003
#2413701
0sig_003
#2413703
1sig_001
#2414568
0sig_001
#2414569
1sig_002
#2415535
0sig_002
#2426032
1sig_002
#2426997
0sig_002
#2426998
1sig_001
#2427865
0sig_001
#2432035
1sig_007
#2434577
0sig_007
#2434578
1sig_006
#2437121
0sig_006
#2437123
1sig_005
#2439657
0sig_005
#2439659
1sig_002
#2440624
0sig_002
#2440626
1sig_004
#2443162
0sig_004
#2443163
1sig_003
#2445694
0sig_003
