traces/data6_without_ghosts.vcd
$version
   VCD tracing
	Hepia 2013-2014
$end

$timescale
   1us
$end

$comment
$end

$scope module Collected traces $end
$var wire	 1  sig_000 sig_000 $end
$var wire	 1  sig_001 sig_001 $end
$var wire	 1  sig_002 sig_002 $end
$upscope $end
$enddefinitions  $end

$dumpvars
0sig_000
0sig_001
0sig_002
$end


#485
1sig_000
#501
0sig_000
#502
1sig_001
#520
0sig_001
#485
1sig_000
#501
0sig_000
#502
1sig_001
#520
0sig_001
#10356
1sig_002
#10367
0sig_002
#10368
1sig_000
#10384
0sig_000
#20340
1sig_002
#20351
0sig_002
#20353
1sig_000
#20369
0sig_000
#30324
1sig_002
#30335
0sig_002
#30336
1sig_000
#30352
0sig_000
#40308
1sig_002
#40319
0sig_002
#40320
1sig_000
#40336
0sig_000
#50292
1sig_002
#50303
0sig_002
#50305
1sig_000
#50321
0sig_000
#60276
1sig_002
#60287
0sig_002
#60288
1sig_000
#60304
0sig_000
#70260
1sig_002
#70271
0sig_002
#70272
1sig_000
#70288
0sig_000
#80244
1sig_002
#80255
0sig_002
#80256
1sig_000
#80272
0sig_000
#90228
1sig_002
#90239
0sig_002
#90241
1sig_000
#90257
0sig_000
#100212
1sig_002
#100223
0sig_002
#100224
1sig_000
#100240
0sig_000
#110196
1sig_002
#110207
0sig_002
#110208
1sig_000
#110224
0sig_000
#120180
1sig_002
#120191
0sig_002
#120192
1sig_000
#120208
0sig_000
#130164
1sig_002
#130175
0sig_002
#130177
1sig_000
#130192
0sig_000
#140148
1sig_002
#140159
0sig_002
#140161
1sig_000
#140177
0sig_000
#150132
1sig_002
#150143
0sig_002
#150144
1sig_000
#150160
0sig_000
#160116
1sig_002
#160127
0sig_002
#160129
1sig_000
#160145
0sig_000
#170100
1sig_002
#170111
0sig_002
#170113
1sig_000
#170129
0sig_000
#180084
1sig_002
#180095
0sig_002
#180096
1sig_000
#180112
0sig_000
#190068
1sig_002
#190079
0sig_002
#190081
1sig_000
#190097
0sig_000
#200052
1sig_002
#200063
0sig_002
#200064
1sig_000
#200080
0sig_000
#210037
1sig_002
#210047
0sig_002
#210049
1sig_000
#210065
0sig_000
#220686
1sig_002
#220696
0sig_002
#220698
1sig_000
#220714
0sig_000
#230670
1sig_002
#230680
0sig_002
#230682
1sig_000
#230698
0sig_000
#485
1sig_000
#501
0sig_000
#502
1sig_001
#520
0sig_001
#10356
1sig_002
#10367
0sig_002
#10368
1sig_000
#10384
0sig_000
#20340
1sig_002
#20351
0sig_002
#20353
1sig_000
#20369
0sig_000
#30324
1sig_002
#30335
0sig_002
#30336
1sig_000
#30352
0sig_000
#40308
1sig_002
#40319
0sig_002
#40320
1sig_000
#40336
0sig_000
#50292
1sig_002
#50303
0sig_002
#50305
1sig_000
#50321
0sig_000
#60276
1sig_002
#60287
0sig_002
#60288
1sig_000
#60304
0sig_000
#70260
1sig_002
#70271
0sig_002
#70272
1sig_000
#70288
0sig_000
#80244
1sig_002
#80255
0sig_002
#80256
1sig_000
#80272
0sig_000
#90228
1sig_002
#90239
0sig_002
#90241
1sig_000
#90257
0sig_000
#100212
1sig_002
#100223
0sig_002
#100224
1sig_000
#100240
0sig_000
#110196
1sig_002
#110207
0sig_002
#110208
1sig_000
#110224
0sig_000
#120180
1sig_002
#120191
0sig_002
#120192
1sig_000
#120208
0sig_000
#130164
1sig_002
#130175
0sig_002
#130177
1sig_000
#130192
0sig_000
#140148
1sig_002
#140159
0sig_002
#140161
1sig_000
#140177
0sig_000
#150132
1sig_002
#150143
0sig_002
#150144
1sig_000
#150160
0sig_000
#160116
1sig_002
#160127
0sig_002
#160129
1sig_000
#160145
0sig_000
#170100
1sig_002
#170111
0sig_002
#170113
1sig_000
#170129
0sig_000
#180084
1sig_002
#180095
0sig_002
#180096
1sig_000
#180112
0sig_000
#190068
1sig_002
#190079
0sig_002
#190081
1sig_000
#190097
0sig_000
#200052
1sig_002
#200063
0sig_002
#200064
1sig_000
#200080
0sig_000
#210037
1sig_002
#210047
0sig_002
#210049
1sig_000
#210065
0sig_000
#220686
1sig_002
#220696
0sig_002
#220698
1sig_000
#220714
0sig_000
#230670
1sig_002
#230680
0sig_002
#230682
1sig_000
#230698
0sig_000
#240654
1sig_002
#240664
0sig_002
#240666
1sig_000
#240682
0sig_000
#250638
1sig_002
#250649
0sig_002
#250650
1sig_000
#250666
0sig_000
#260622
1sig_002
#260632
0sig_002
#260634
1sig_000
#260650
0sig_000
#270606
1sig_002
#270616
0sig_002
#270618
1sig_000
#270634
0sig_000
#280590
1sig_002
#280600
0sig_002
#280602
1sig_000
#280618
0sig_000
#290574
1sig_002
#290584
0sig_002
#290586
1sig_000
#290602
0sig_000
#300558
1sig_002
#300568
0sig_002
#300570
1sig_000
#300586
0sig_000
#310542
1sig_002
#310552
0sig_002
#310554
1sig_000
#310570
0sig_000
#320526
1sig_002
#320537
0sig_002
#320538
1sig_000
#320554
0sig_000
#330510
1sig_002
#330521
0sig_002
#330522
1sig_000
#330538
0sig_000
#340494
1sig_002
#340504
0sig_002
#340506
1sig_000
#340522
0sig_000
#350478
1sig_002
#350488
0sig_002
#350490
1sig_000
#350506
0sig_000
#360462
1sig_002
#360473
0sig_002
#360474
1sig_000
#360490
0sig_000
#370446
1sig_002
#370456
0sig_002
#370458
1sig_000
#370474
0sig_000
#380430
1sig_002
#380440
0sig_002
#380442
1sig_000
#380458
0sig_000
#390414
1sig_002
#390424
0sig_002
#390426
1sig_000
#390442
0sig_000
#400398
1sig_002
#400408
0sig_002
#400410
1sig_000
#400426
0sig_000
#410382
1sig_002
#410392
0sig_002
#410394
1sig_000
#410410
0sig_000
#420366
1sig_002
#420376
0sig_002
#420378
1sig_000
#420394
0sig_000
#430350
1sig_002
#430361
0sig_002
#430362
1sig_000
#430378
0sig_000
#440334
1sig_002
#440344
0sig_002
#440346
1sig_000
#440362
0sig_000
#450318
1sig_002
#450328
0sig_002
#450330
1sig_000
#450346
0sig_000
#460302
1sig_002
#460313
0sig_002
#460314
1sig_000
#460330
0sig_000
#485
1sig_000
#501
0sig_000
#502
1sig_001
#520
0sig_001
#10356
1sig_002
#10367
0sig_002
#10368
1sig_000
#10384
0sig_000
#20340
1sig_002
#20351
0sig_002
#20353
1sig_000
#20369
0sig_000
#30324
1sig_002
#30335
0sig_002
#30336
1sig_000
#30352
0sig_000
#40308
1sig_002
#40319
0sig_002
#40320
1sig_000
#40336
0sig_000
#50292
1sig_002
#50303
0sig_002
#50305
1sig_000
#50321
0sig_000
#60276
1sig_002
#60287
0sig_002
#60288
1sig_000
#60304
0sig_000
#70260
1sig_002
#70271
0sig_002
#70272
1sig_000
#70288
0sig_000
#80244
1sig_002
#80255
0sig_002
#80256
1sig_000
#80272
0sig_000
#90228
1sig_002
#90239
0sig_002
#90241
1sig_000
#90257
0sig_000
#100212
1sig_002
#100223
0sig_002
#100224
1sig_000
#100240
0sig_000
#110196
1sig_002
#110207
0sig_002
#110208
1sig_000
#110224
0sig_000
#120180
1sig_002
#120191
0sig_002
#120192
1sig_000
#120208
0sig_000
#130164
1sig_002
#130175
0sig_002
#130177
1sig_000
#130192
0sig_000
#140148
1sig_002
#140159
0sig_002
#140161
1sig_000
#140177
0sig_000
#150132
1sig_002
#150143
0sig_002
#150144
1sig_000
#150160
0sig_000
#160116
1sig_002
#160127
0sig_002
#160129
1sig_000
#160145
0sig_000
#170100
1sig_002
#170111
0sig_002
#170113
1sig_000
#170129
0sig_000
#180084
1sig_002
#180095
0sig_002
#180096
1sig_000
#180112
0sig_000
#190068
1sig_002
#190079
0sig_002
#190081
1sig_000
#190097
0sig_000
#200052
1sig_002
#200063
0sig_002
#200064
1sig_000
#200080
0sig_000
#210037
1sig_002
#210047
0sig_002
#210049
1sig_000
#210065
0sig_000
#220686
1sig_002
#220696
0sig_002
#220698
1sig_000
#220714
0sig_000
#230670
1sig_002
#230680
0sig_002
#230682
1sig_000
#230698
0sig_000
#240654
1sig_002
#240664
0sig_002
#240666
1sig_000
#240682
0sig_000
#250638
1sig_002
#250649
0sig_002
#250650
1sig_000
#250666
0sig_000
#260622
1sig_002
#260632
0sig_002
#260634
1sig_000
#260650
0sig_000
#270606
1sig_002
#270616
0sig_002
#270618
1sig_000
#270634
0sig_000
#280590
1sig_002
#280600
0sig_002
#280602
1sig_000
#280618
0sig_000
#290574
1sig_002
#290584
0sig_002
#290586
1sig_000
#290602
0sig_000
#300558
1sig_002
#300568
0sig_002
#300570
1sig_000
#300586
0sig_000
#310542
1sig_002
#310552
0sig_002
#310554
1sig_000
#310570
0sig_000
#320526
1sig_002
#320537
0sig_002
#320538
1sig_000
#320554
0sig_000
#330510
1sig_002
#330521
0sig_002
#330522
1sig_000
#330538
0sig_000
#340494
1sig_002
#340504
0sig_002
#340506
1sig_000
#340522
0sig_000
#350478
1sig_002
#350488
0sig_002
#350490
1sig_000
#350506
0sig_000
#360462
1sig_002
#360473
0sig_002
#360474
1sig_000
#360490
0sig_000
#370446
1sig_002
#370456
0sig_002
#370458
1sig_000
#370474
0sig_000
#380430
1sig_002
#380440
0sig_002
#380442
1sig_000
#380458
0sig_000
#390414
1sig_002
#390424
0sig_002
#390426
1sig_000
#390442
0sig_000
#400398
1sig_002
#400408
0sig_002
#400410
1sig_000
#400426
0sig_000
#410382
1sig_002
#410392
0sig_002
#410394
1sig_000
#410410
0sig_000
#420366
1sig_002
#420376
0sig_002
#420378
1sig_000
#420394
0sig_000
#430350
1sig_002
#430361
0sig_002
#430362
1sig_000
#430378
0sig_000
#440334
1sig_002
#440344
0sig_002
#440346
1sig_000
#440362
0sig_000
#450318
1sig_002
#450328
0sig_002
#450330
1sig_000
#450346
0sig_000
#460302
1sig_002
#460313
0sig_002
#460314
1sig_000
#460330
0sig_000
#470286
1sig_002
#470296
0sig_002
#470298
1sig_000
#470314
0sig_000
#480270
1sig_002
#480280
0sig_002
#480282
1sig_000
#480298
0sig_000
#490254
1sig_002
#490264
0sig_002
#490266
1sig_000
#490282
0sig_000
#500238
1sig_002
#500248
0sig_002
#500250
1sig_000
#500266
0sig_000
#510222
1sig_002
#510232
0sig_002
#510234
1sig_000
#510250
0sig_000
#520206
1sig_002
#520216
0sig_002
#520218
1sig_000
#520234
0sig_000
#530190
1sig_002
#530200
0sig_002
#530202
1sig_000
#530218
0sig_000
#540174
1sig_002
#540184
0sig_002
#540186
1sig_000
#540202
0sig_000
#550158
1sig_002
#550168
0sig_002
#550170
1sig_000
#550186
0sig_000
#560142
1sig_002
#560152
0sig_002
#560154
1sig_000
#560170
0sig_000
#570126
1sig_002
#570137
0sig_002
#570138
1sig_000
#570154
0sig_000
#580110
1sig_002
#580120
0sig_002
#580122
1sig_000
#580138
0sig_000
#590094
1sig_002
#590104
0sig_002
#590106
1sig_000
#590122
0sig_000
#600078
1sig_002
#600089
0sig_002
#600090
1sig_000
#600106
0sig_000
#610062
1sig_002
#610072
0sig_002
#610074
1sig_000
#610090
0sig_000
#620046
1sig_002
#620056
0sig_002
#620058
1sig_000
#620074
0sig_000
#630035
1sig_002
#630046
0sig_002
#630048
1sig_000
#630064
0sig_000
#640679
1sig_002
#640690
0sig_002
#640692
1sig_000
#640708
0sig_000
#650664
1sig_002
#650674
0sig_002
#650676
1sig_000
#650692
0sig_000
#660647
1sig_002
#660658
0sig_002
#660659
1sig_000
#660675
0sig_000
#670631
1sig_002
#670642
0sig_002
#670644
1sig_000
#670660
0sig_000
#680616
1sig_002
#680626
0sig_002
#680628
1sig_000
#680644
0sig_000
#690600
1sig_002
#690610
0sig_002
#690612
1sig_000
#690628
0sig_000
#60276
1sig_002
#60287
0sig_002
#60288
1sig_000
#60304
0sig_000
#70260
1sig_002
#70271
0sig_002
#70272
1sig_000
#70288
0sig_000
#80244
1sig_002
#80255
0sig_002
#80256
1sig_000
#80272
0sig_000
#90228
1sig_002
#90239
0sig_002
#90241
1sig_000
#90257
0sig_000
#100212
1sig_002
#100223
0sig_002
#100224
1sig_000
#100240
0sig_000
#110196
1sig_002
#110207
0sig_002
#110208
1sig_000
#110224
0sig_000
#120180
1sig_002
#120191
0sig_002
#120192
1sig_000
#120208
0sig_000
#130164
1sig_002
#130175
0sig_002
#130177
1sig_000
#130192
0sig_000
#140148
1sig_002
#140159
0sig_002
#140161
1sig_000
#140177
0sig_000
#150132
1sig_002
#150143
0sig_002
#150144
1sig_000
#150160
0sig_000
#160116
1sig_002
#160127
0sig_002
#160129
1sig_000
#160145
0sig_000
#170100
1sig_002
#170111
0sig_002
#170113
1sig_000
#170129
0sig_000
#180084
1sig_002
#180095
0sig_002
#180096
1sig_000
#180112
0sig_000
#190068
1sig_002
#190079
0sig_002
#190081
1sig_000
#190097
0sig_000
#200052
1sig_002
#200063
0sig_002
#200064
1sig_000
#200080
0sig_000
#210037
1sig_002
#210047
0sig_002
#210049
1sig_000
#210065
0sig_000
#220686
1sig_002
#220696
0sig_002
#220698
1sig_000
#220714
0sig_000
#230670
1sig_002
#230680
0sig_002
#230682
1sig_000
#230698
0sig_000
#240654
1sig_002
#240664
0sig_002
#240666
1sig_000
#240682
0sig_000
#250638
1sig_002
#250649
0sig_002
#250650
1sig_000
#250666
0sig_000
#260622
1sig_002
#260632
0sig_002
#260634
1sig_000
#260650
0sig_000
#270606
1sig_002
#270616
0sig_002
#270618
1sig_000
#270634
0sig_000
#280590
1sig_002
#280600
0sig_002
#280602
1sig_000
#280618
0sig_000
#290574
1sig_002
#290584
0sig_002
#290586
1sig_000
#290602
0sig_000
#300558
1sig_002
#300568
0sig_002
#300570
1sig_000
#300586
0sig_000
#310542
1sig_002
#310552
0sig_002
#310554
1sig_000
#310570
0sig_000
#320526
1sig_002
#320537
0sig_002
#320538
1sig_000
#320554
0sig_000
#330510
1sig_002
#330521
0sig_002
#330522
1sig_000
#330538
0sig_000
#340494
1sig_002
#340504
0sig_002
#340506
1sig_000
#340522
0sig_000
#350478
1sig_002
#350488
0sig_002
#350490
1sig_000
#350506
0sig_000
#360462
1sig_002
#360473
0sig_002
#360474
1sig_000
#360490
0sig_000
#370446
1sig_002
#370456
0sig_002
#370458
1sig_000
#370474
0sig_000
#380430
1sig_002
#380440
0sig_002
#380442
1sig_000
#380458
0sig_000
#390414
1sig_002
#390424
0sig_002
#390426
1sig_000
#390442
0sig_000
#400398
1sig_002
#400408
0sig_002
#400410
1sig_000
#400426
0sig_000
#410382
1sig_002
#410392
0sig_002
#410394
1sig_000
#410410
0sig_000
#420366
1sig_002
#420376
0sig_002
#420378
1sig_000
#420394
0sig_000
#430350
1sig_002
#430361
0sig_002
#430362
1sig_000
#430378
0sig_000
#440334
1sig_002
#440344
0sig_002
#440346
1sig_000
#440362
0sig_000
#450318
1sig_002
#450328
0sig_002
#450330
1sig_000
#450346
0sig_000
#460302
1sig_002
#460313
0sig_002
#460314
1sig_000
#460330
0sig_000
#470286
1sig_002
#470296
0sig_002
#470298
1sig_000
#470314
0sig_000
#480270
1sig_002
#480280
0sig_002
#480282
1sig_000
#480298
0sig_000
#490254
1sig_002
#490264
0sig_002
#490266
1sig_000
#490282
0sig_000
#500238
1sig_002
#500248
0sig_002
#500250
1sig_000
#500266
0sig_000
#510222
1sig_002
#510232
0sig_002
#510234
1sig_000
#510250
0sig_000
#520206
1sig_002
#520216
0sig_002
#520218
1sig_000
#520234
0sig_000
#530190
1sig_002
#530200
0sig_002
#530202
1sig_000
#530218
0sig_000
#540174
1sig_002
#540184
0sig_002
#540186
1sig_000
#540202
0sig_000
#550158
1sig_002
#550168
0sig_002
#550170
1sig_000
#550186
0sig_000
#560142
1sig_002
#560152
0sig_002
#560154
1sig_000
#560170
0sig_000
#570126
1sig_002
#570137
0sig_002
#570138
1sig_000
#570154
0sig_000
#580110
1sig_002
#580120
0sig_002
#580122
1sig_000
#580138
0sig_000
#590094
1sig_002
#590104
0sig_002
#590106
1sig_000
#590122
0sig_000
#600078
1sig_002
#600089
0sig_002
#600090
1sig_000
#600106
0sig_000
#610062
1sig_002
#610072
0sig_002
#610074
1sig_000
#610090
0sig_000
#620046
1sig_002
#620056
0sig_002
#620058
1sig_000
#620074
0sig_000
#630035
1sig_002
#630046
0sig_002
#630048
1sig_000
#630064
0sig_000
#640679
1sig_002
#640690
0sig_002
#640692
1sig_000
#640708
0sig_000
#650664
1sig_002
#650674
0sig_002
#650676
1sig_000
#650692
0sig_000
#660647
1sig_002
#660658
0sig_002
#660659
1sig_000
#660675
0sig_000
#670631
1sig_002
#670642
0sig_002
#670644
1sig_000
#670660
0sig_000
#680616
1sig_002
#680626
0sig_002
#680628
1sig_000
#680644
0sig_000
#690600
1sig_002
#690610
0sig_002
#690612
1sig_000
#690628
0sig_000
#700583
1sig_002
#700594
0sig_002
#700596
1sig_000
#700612
0sig_000
#710567
1sig_002
#710578
0sig_002
#710580
1sig_000
#710596
0sig_000
#720552
1sig_002
#720562
0sig_002
#720564
1sig_000
#720580
0sig_000
#730535
1sig_002
#730546
0sig_002
#730548
1sig_000
#730564
0sig_000
#740519
1sig_002
#740530
0sig_002
#740531
1sig_000
#740547
0sig_000
#750503
1sig_002
#750514
0sig_002
#750516
1sig_000
#750532
0sig_000
#760488
1sig_002
#760498
0sig_002
#760500
1sig_000
#760516
0sig_000
#770471
1sig_002
#770482
0sig_002
#770484
1sig_000
#770499
0sig_000
#780455
1sig_002
#780466
0sig_002
#780468
1sig_000
#780484
0sig_000
#790439
1sig_002
#790450
0sig_002
#790452
1sig_000
#790467
0sig_000
#800423
1sig_002
#800434
0sig_002
#800436
1sig_000
#800452
0sig_000
#810407
1sig_002
#810418
0sig_002
#810420
1sig_000
#810436
0sig_000
#820392
1sig_002
#820402
0sig_002
#820404
1sig_000
#820420
0sig_000
#830375
1sig_002
#830386
0sig_002
#830388
1sig_000
#830404
0sig_000
#840359
1sig_002
#840370
0sig_002
#840372
1sig_000
#840388
0sig_000
#850343
1sig_002
#850354
0sig_002
#850356
1sig_000
#850372
0sig_000
#860328
1sig_002
#860338
0sig_002
#860340
1sig_000
#860356
0sig_000
#870311
1sig_002
#870322
0sig_002
#870324
1sig_000
#870339
0sig_000
#880295
1sig_002
#880306
0sig_002
#880308
1sig_000
#880324
0sig_000
#890280
1sig_002
#890290
0sig_002
#890292
1sig_000
#890308
0sig_000
#900264
1sig_002
#900274
0sig_002
#900276
1sig_000
#900292
0sig_000
#910247
1sig_002
#910258
0sig_002
#910260
1sig_000
#910275
0sig_000
#920231
1sig_002
#920242
0sig_002
#920244
1sig_000
#920260
0sig_000
#290574
1sig_002
#930226
0sig_002
#930228
1sig_000
#930244
0sig_000
#300558
1sig_002
#300568
0sig_002
#300570
1sig_000
#300586
0sig_000
#310542
1sig_002
#310552
0sig_002
#310554
1sig_000
#310570
0sig_000
#320526
1sig_002
#320537
0sig_002
#320538
1sig_000
#320554
0sig_000
#330510
1sig_002
#330521
0sig_002
#330522
1sig_000
#330538
0sig_000
#340494
1sig_002
#340504
0sig_002
#340506
1sig_000
#340522
0sig_000
#350478
1sig_002
#350488
0sig_002
#350490
1sig_000
#350506
0sig_000
#360462
1sig_002
#360473
0sig_002
#360474
1sig_000
#360490
0sig_000
#370446
1sig_002
#370456
0sig_002
#370458
1sig_000
#370474
0sig_000
#380430
1sig_002
#380440
0sig_002
#380442
1sig_000
#380458
0sig_000
#390414
1sig_002
#390424
0sig_002
#390426
1sig_000
#390442
0sig_000
#400398
1sig_002
#400408
0sig_002
#400410
1sig_000
#400426
0sig_000
#410382
1sig_002
#410392
0sig_002
#410394
1sig_000
#410410
0sig_000
#420366
1sig_002
#420376
0sig_002
#420378
1sig_000
#420394
0sig_000
#430350
1sig_002
#430361
0sig_002
#430362
1sig_000
#430378
0sig_000
#440334
1sig_002
#440344
0sig_002
#440346
1sig_000
#440362
0sig_000
#450318
1sig_002
#450328
0sig_002
#450330
1sig_000
#450346
0sig_000
#460302
1sig_002
#460313
0sig_002
#460314
1sig_000
#460330
0sig_000
#470286
1sig_002
#470296
0sig_002
#470298
1sig_000
#470314
0sig_000
#480270
1sig_002
#480280
0sig_002
#480282
1sig_000
#480298
0sig_000
#490254
1sig_002
#490264
0sig_002
#490266
1sig_000
#490282
0sig_000
#500238
1sig_002
#500248
0sig_002
#500250
1sig_000
#500266
0sig_000
#510222
1sig_002
#510232
0sig_002
#510234
1sig_000
#510250
0sig_000
#520206
1sig_002
#520216
0sig_002
#520218
1sig_000
#520234
0sig_000
#530190
1sig_002
#530200
0sig_002
#530202
1sig_000
#530218
0sig_000
#540174
1sig_002
#540184
0sig_002
#540186
1sig_000
#540202
0sig_000
#550158
1sig_002
#550168
0sig_002
#550170
1sig_000
#550186
0sig_000
#560142
1sig_002
#560152
0sig_002
#560154
1sig_000
#560170
0sig_000
#570126
1sig_002
#570137
0sig_002
#570138
1sig_000
#570154
0sig_000
#580110
1sig_002
#580120
0sig_002
#580122
1sig_000
#580138
0sig_000
#590094
1sig_002
#590104
0sig_002
#590106
1sig_000
#590122
0sig_000
#600078
1sig_002
#600089
0sig_002
#600090
1sig_000
#600106
0sig_000
#610062
1sig_002
#610072
0sig_002
#610074
1sig_000
#610090
0sig_000
#620046
1sig_002
#620056
0sig_002
#620058
1sig_000
#620074
0sig_000
#630035
1sig_002
#630046
0sig_002
#630048
1sig_000
#630064
0sig_000
#640679
1sig_002
#640690
0sig_002
#640692
1sig_000
#640708
0sig_000
#650664
1sig_002
#650674
0sig_002
#650676
1sig_000
#650692
0sig_000
#660647
1sig_002
#660658
0sig_002
#660659
1sig_000
#660675
0sig_000
#670631
1sig_002
#670642
0sig_002
#670644
1sig_000
#670660
0sig_000
#680616
1sig_002
#680626
0sig_002
#680628
1sig_000
#680644
0sig_000
#690600
1sig_002
#690610
0sig_002
#690612
1sig_000
#690628
0sig_000
#700583
1sig_002
#700594
0sig_002
#700596
1sig_000
#700612
0sig_000
#710567
1sig_002
#710578
0sig_002
#710580
1sig_000
#710596
0sig_000
#720552
1sig_002
#720562
0sig_002
#720564
1sig_000
#720580
0sig_000
#730535
1sig_002
#730546
0sig_002
#730548
1sig_000
#730564
0sig_000
#740519
1sig_002
#740530
0sig_002
#740531
1sig_000
#740547
0sig_000
#750503
1sig_002
#750514
0sig_002
#750516
1sig_000
#750532
0sig_000
#760488
1sig_002
#760498
0sig_002
#760500
1sig_000
#760516
0sig_000
#770471
1sig_002
#770482
0sig_002
#770484
1sig_000
#770499
0sig_000
#780455
1sig_002
#780466
0sig_002
#780468
1sig_000
#780484
0sig_000
#790439
1sig_002
#790450
0sig_002
#790452
1sig_000
#790467
0sig_000
#800423
1sig_002
#800434
0sig_002
#800436
1sig_000
#800452
0sig_000
#810407
1sig_002
#810418
0sig_002
#810420
1sig_000
#810436
0sig_000
#820392
1sig_002
#820402
0sig_002
#820404
1sig_000
#820420
0sig_000
#830375
1sig_002
#830386
0sig_002
#830388
1sig_000
#830404
0sig_000
#840359
1sig_002
#840370
0sig_002
#840372
1sig_000
#840388
0sig_000
#850343
1sig_002
#850354
0sig_002
#850356
1sig_000
#850372
0sig_000
#860328
1sig_002
#860338
0sig_002
#860340
1sig_000
#860356
0sig_000
#870311
1sig_002
#870322
0sig_002
#870324
1sig_000
#870339
0sig_000
#880295
1sig_002
#880306
0sig_002
#880308
1sig_000
#880324
0sig_000
#890280
1sig_002
#890290
0sig_002
#890292
1sig_000
#890308
0sig_000
#900264
1sig_002
#900274
0sig_002
#900276
1sig_000
#900292
0sig_000
#910247
1sig_002
#910258
0sig_002
#910260
1sig_000
#910275
0sig_000
#920231
1sig_002
#920242
0sig_002
#920244
1sig_000
#920260
0sig_000
#930216
1sig_002
#930226
0sig_002
#930228
1sig_000
#930244
0sig_000
#940199
1sig_002
#940210
0sig_002
#940212
1sig_000
#940228
0sig_000
#950184
1sig_002
#950194
0sig_002
#950196
1sig_000
#950212
0sig_000
#960167
1sig_002
#960178
0sig_002
#960180
1sig_000
#960196
0sig_000
#970152
1sig_002
#970162
0sig_002
#970164
1sig_000
#970180
0sig_000
#980135
1sig_002
#980146
0sig_002
#980147
1sig_000
#980163
0sig_000
#990119
1sig_002
#990130
0sig_002
#990132
1sig_000
#990148
0sig_000
#1000104
1sig_002
#1000114
0sig_002
#1000116
1sig_000
#1000132
0sig_000
#1010087
1sig_002
#1010098
0sig_002
#1010099
1sig_000
#1010115
0sig_000
#1020071
1sig_002
#1020082
0sig_002
#1020084
1sig_000
#1020100
0sig_000
#1030056
1sig_002
#1030066
0sig_002
#1030068
1sig_000
#1030084
0sig_000
#1040039
1sig_002
#1040050
0sig_002
#1040052
1sig_000
#1040067
0sig_000
#1050689
1sig_002
#1050700
0sig_002
#1050701
1sig_000
#1050717
0sig_000
#1060673
1sig_002
#1060684
0sig_002
#1060685
1sig_000
#1060701
0sig_000
#1070657
1sig_002
#1070667
0sig_002
#1070669
1sig_000
#1070685
0sig_000
#1080641
1sig_002
#1080652
0sig_002
#1080653
1sig_000
#1080669
0sig_000
#1090625
1sig_002
#1090636
0sig_002
#1090637
1sig_000
#1090653
0sig_000
#1100609
1sig_002
#1100620
0sig_002
#1100621
1sig_000
#1100637
0sig_000
#1110593
1sig_002
#1110604
0sig_002
#1110605
1sig_000
#1110621
0sig_000
#1120577
1sig_002
#1120588
0sig_002
#1120589
1sig_000
#1120605
0sig_000
#1130561
1sig_002
#1130571
0sig_002
#1130573
1sig_000
#1130589
0sig_000
#1140545
1sig_002
#1140556
0sig_002
#1140557
1sig_000
#1140573
0sig_000
#1150529
1sig_002
#1150540
0sig_002
#1150541
1sig_000
#1150557
0sig_000
#1160513
1sig_002
#1160524
0sig_002
#1160525
1sig_000
#1160541
0sig_000
#530190
1sig_002
#530200
0sig_002
#530202
1sig_000
#530218
0sig_000
#540174
1sig_002
#540184
0sig_002
#540186
1sig_000
#540202
0sig_000
#550158
1sig_002
#550168
0sig_002
#550170
1sig_000
#550186
0sig_000
#560142
1sig_002
#560152
0sig_002
#560154
1sig_000
#560170
0sig_000
#570126
1sig_002
#570137
0sig_002
#570138
1sig_000
#570154
0sig_000
#580110
1sig_002
#580120
0sig_002
#580122
1sig_000
#580138
0sig_000
#590094
1sig_002
#590104
0sig_002
#590106
1sig_000
#590122
0sig_000
#600078
1sig_002
#600089
0sig_002
#600090
1sig_000
#600106
0sig_000
#610062
1sig_002
#610072
0sig_002
#610074
1sig_000
#610090
0sig_000
#620046
1sig_002
#620056
0sig_002
#620058
1sig_000
#620074
0sig_000
#630035
1sig_002
#630046
0sig_002
#630048
1sig_000
#630064
0sig_000
#640679
1sig_002
#640690
0sig_002
#640692
1sig_000
#640708
0sig_000
#650664
1sig_002
#650674
0sig_002
#650676
1sig_000
#650692
0sig_000
#660647
1sig_002
#660658
0sig_002
#660659
1sig_000
#660675
0sig_000
#670631
1sig_002
#670642
0sig_002
#670644
1sig_000
#670660
0sig_000
#680616
1sig_002
#680626
0sig_002
#680628
1sig_000
#680644
0sig_000
#690600
1sig_002
#690610
0sig_002
#690612
1sig_000
#690628
0sig_000
#700583
1sig_002
#700594
0sig_002
#700596
1sig_000
#700612
0sig_000
#710567
1sig_002
#710578
0sig_002
#710580
1sig_000
#710596
0sig_000
#720552
1sig_002
#720562
0sig_002
#720564
1sig_000
#720580
0sig_000
#730535
1sig_002
#730546
0sig_002
#730548
1sig_000
#730564
0sig_000
#740519
1sig_002
#740530
0sig_002
#740531
1sig_000
#740547
0sig_000
#750503
1sig_002
#750514
0sig_002
#750516
1sig_000
#750532
0sig_000
#760488
1sig_002
#760498
0sig_002
#760500
1sig_000
#760516
0sig_000
#770471
1sig_002
#770482
0sig_002
#770484
1sig_000
#770499
0sig_000
#780455
1sig_002
#780466
0sig_002
#780468
1sig_000
#780484
0sig_000
#790439
1sig_002
#790450
0sig_002
#790452
1sig_000
#790467
0sig_000
#800423
1sig_002
#800434
0sig_002
#800436
1sig_000
#800452
0sig_000
#810407
1sig_002
#810418
0sig_002
#810420
1sig_000
#810436
0sig_000
#820392
1sig_002
#820402
0sig_002
#820404
1sig_000
#820420
0sig_000
#830375
1sig_002
#830386
0sig_002
#830388
1sig_000
#830404
0sig_000
#840359
1sig_002
#840370
0sig_002
#840372
1sig_000
#840388
0sig_000
#850343
1sig_002
#850354
0sig_002
#850356
1sig_000
#850372
0sig_000
#860328
1sig_002
#860338
0sig_002
#860340
1sig_000
#860356
0sig_000
#870311
1sig_002
#870322
0sig_002
#870324
1sig_000
#870339
0sig_000
#880295
1sig_002
#880306
0sig_002
#880308
1sig_000
#880324
0sig_000
#890280
1sig_002
#890290
0sig_002
#890292
1sig_000
#890308
0sig_000
#900264
1sig_002
#900274
0sig_002
#900276
1sig_000
#900292
0sig_000
#910247
1sig_002
#910258
0sig_002
#910260
1sig_000
#910275
0sig_000
#920231
1sig_002
#920242
0sig_002
#920244
1sig_000
#920260
0sig_000
#930216
1sig_002
#930226
0sig_002
#930228
1sig_000
#930244
0sig_000
#940199
1sig_002
#940210
0sig_002
#940212
1sig_000
#940228
0sig_000
#950184
1sig_002
#950194
0sig_002
#950196
1sig_000
#950212
0sig_000
#960167
1sig_002
#960178
0sig_002
#960180
1sig_000
#960196
0sig_000
#970152
1sig_002
#970162
0sig_002
#970164
1sig_000
#970180
0sig_000
#980135
1sig_002
#980146
0sig_002
#980147
1sig_000
#980163
0sig_000
#990119
1sig_002
#990130
0sig_002
#990132
1sig_000
#990148
0sig_000
#1000104
1sig_002
#1000114
0sig_002
#1000116
1sig_000
#1000132
0sig_000
#1010087
1sig_002
#1010098
0sig_002
#1010099
1sig_000
#1010115
0sig_000
#1020071
1sig_002
#1020082
0sig_002
#1020084
1sig_000
#1020100
0sig_000
#1030056
1sig_002
#1030066
0sig_002
#1030068
1sig_000
#1030084
0sig_000
#1040039
1sig_002
#1040050
0sig_002
