traces/data1_ms.vcd
$version
   VCD tracing
	Hepia 2013-2014
$end

$timescale
   1ms
$end

$comment
$end

$scope module Collected traces $end
$var wire	 1  sig_000 sig_000 $end
$var wire	 1  sig_001 sig_001 $end
$var wire	 1  sig_002 sig_002 $end
$var wire	 1  sig_003 sig_003 $end
$var wire	 1  sig_004 sig_004 $end
$var wire	 1  sig_005 sig_005 $end
$var wire	 1  sig_006 sig_006 $end
$var wire	 1  sig_007 sig_007 $end
$upscope $end
$enddefinitions  $end

$dumpvars
0sig_000
0sig_001
0sig_002
0sig_003
0sig_004
0sig_005
0sig_006
0sig_007
$end


#148855
1sig_000
#148859
0sig_000
#148859
1sig_001
#148859
0sig_001
#148859
1sig_002
#148859
0sig_002
#148859
1sig_003
#148860
0sig_003
#148860
1sig_004
#148862
0sig_004
#148862
1sig_005
#148863
0sig_005
#148863
1sig_006
#148864
0sig_006
#148869
1sig_000
#148873
0sig_000
#148873
1sig_002
#148873
0sig_002
#148882
1sig_003
#148884
0sig_003
#148884
1sig_000
#148888
0sig_000
#148888
1sig_002
#148888
0sig_002
#148888
1sig_007
#148890
0sig_007
#148890
1sig_004
#148893
0sig_004
#148893
1sig_005
#148895
0sig_005
#148895
1sig_006
#148897
0sig_006
#148898
1sig_000
#148902
0sig_000
#148902
1sig_002
#148902
0sig_002
#148906
1sig_003
#148908
0sig_003
#148912
1sig_000
#148916
0sig_000
#148916
1sig_002
#148916
0sig_002
#148917
1sig_004
#148919
0sig_004
#148920
1sig_007
#148922
0sig_007
#148922
1sig_005
#148924
0sig_005
#148925
1sig_006
#148927
0sig_006
#148927
1sig_000
#148931
0sig_000
#148931
1sig_002
#148931
0sig_002
#148931
1sig_003
#148933
0sig_003
#148941
1sig_000
#148945
0sig_000
#148945
1sig_002
#148945
0sig_002
#148945
1sig_004
#148947
0sig_004
#148950
1sig_005
#148952
0sig_005
#148952
1sig_007
#148954
0sig_007
#148955
1sig_006
#148957
0sig_006
#148957
1sig_003
#148959
0sig_003
#148959
1sig_000
#148963
0sig_000
#148963
1sig_002
#148963
0sig_002
#148971
1sig_004
#148973
0sig_004
#148973
1sig_000
#148977
0sig_000
#148977
1sig_002
#148977
0sig_002
#148978
1sig_005
#148980
0sig_005
#148981
1sig_003
#148983
0sig_003
#148984
1sig_007
#148986
0sig_007
#148986
1sig_006
#148988
0sig_006
#148988
1sig_000
#148992
0sig_000
#148992
1sig_002
#148992
0sig_002
#148997
1sig_004
#148999
0sig_004
#149002
1sig_000
#149006
0sig_000
#149006
1sig_002
#149006
0sig_002
#149006
1sig_003
#149008
0sig_003
#149008
1sig_005
#149010
0sig_005
#149016
1sig_007
#149018
0sig_007
#149018
1sig_006
#149020
0sig_006
#149020
1sig_000
#149024
0sig_000
#149024
1sig_002
#149024
0sig_002
#149024
1sig_004
#149027
0sig_004
#149030
1sig_003
#149032
0sig_003
#149034
1sig_000
#149038
0sig_000
#149038
1sig_002
#149038
0sig_002
#149038
1sig_005
#149040
0sig_005
#149048
1sig_007
#149050
0sig_007
#149050
1sig_006
#149052
0sig_006
#149052
1sig_000
#149056
0sig_000
#149056
1sig_002
#149056
0sig_002
#149056
1sig_004
#149059
0sig_004
#149059
1sig_003
#149061
0sig_003
#149066
1sig_005
#149068
0sig_005
#149068
1sig_000
#149072
0sig_000
#149072
1sig_002
#149072
0sig_002
#149080
1sig_007
#149082
0sig_007
#149082
1sig_006
#149084
0sig_006
#149084
1sig_000
#149088
0sig_000
#149088
1sig_002
#149088
0sig_002
#149088
1sig_004
#149091
0sig_004
#149091
1sig_003
#149093
0sig_003
#149094
1sig_005
#149096
0sig_005
#149098
1sig_000
#149102
0sig_000
#149102
1sig_002
#149102
0sig_002
#149112
1sig_007
#149114
0sig_007
#149114
1sig_006
#149116
0sig_006
#149116
1sig_000
#149120
0sig_000
#149120
1sig_002
#149120
0sig_002
#149120
1sig_004
#149123
0sig_004
#149123
1sig_003
#149125
0sig_003
#149125
1sig_005
#149127
0sig_005
#149130
1sig_000
#149134
0sig_000
#149134
1sig_002
#149134
0sig_002
#149144
1sig_007
#149146
0sig_007
#149146
1sig_006
#149148
0sig_006
#149148
1sig_000
#149152
0sig_000
#149152
1sig_002
#149152
0sig_002
#149152
1sig_004
#149155
0sig_004
#149155
1sig_003
#149157
0sig_003
#149157
1sig_005
#149159
0sig_005
#149162
1sig_000
#149166
0sig_000
#149166
1sig_002
#149166
0sig_002
#149176
1sig_007
#149178
0sig_007
#149178
1sig_006
#149180
0sig_006
#149180
1sig_000
#149184
0sig_000
#149184
1sig_002
#149184
0sig_002
#149184
1sig_004
#149187
0sig_004
#149187
1sig_003
#149189
0sig_003
#149189
1sig_005
#149191
0sig_005
#149194
1sig_000
#149198
0sig_000
#149198
1sig_002
#149198
0sig_002
#149208
1sig_007
#149210
0sig_007
#149210
1sig_006
#149212
0sig_006
#149212
1sig_000
#149216
0sig_000
#149216
1sig_002
#149216
0sig_002
#149216
1sig_004
#149219
0sig_004
#149219
1sig_003
#149221
0sig_003
#149221
1sig_005
#149223
0sig_005
#149226
1sig_000
#149230
0sig_000
#149230
1sig_002
#149230
0sig_002
#149240
1sig_007
#149242
0sig_007
#149242
1sig_006
#149244
0sig_006
#149244
1sig_000
#149248
0sig_000
#149248
1sig_002
#149248
0sig_002
#149248
1sig_004
#149251
0sig_004
#149251
1sig_003
#149253
0sig_003
#149253
1sig_005
#149255
0sig_005
#149258
1sig_000
#149262
0sig_000
#149262
1sig_002
#149262
0sig_002
#149272
1sig_007
#149274
0sig_007
#149274
1sig_006
#149276
0sig_006
#149276
1sig_000
#149280
0sig_000
#149280
1sig_002
#149280
0sig_002
#149280
1sig_004
#149283
0sig_004
#149283
1sig_003
#149285
0sig_003
#149285
1sig_005
#149287
0sig_005
#149290
1sig_000
#149294
0sig_000
#149294
1sig_002
#149294
0sig_002
#149304
1sig_007
#149306
0sig_007
#149306
1sig_006
#149308
0sig_006
#149308
1sig_000
#149312
0sig_000
#149312
1sig_002
#149312
0sig_002
#149312
1sig_004
#149315
0sig_004
#149315
1sig_003
#149317
0sig_003
#149317
1sig_005
#149319
0sig_005
#149322
1sig_000
#149326
0sig_000
#149326
1sig_002
#149326
0sig_002
#149336
1sig_007
#149338
0sig_007
#149338
1sig_006
#149340
0sig_006
#149340
1sig_000
#149344
0sig_000
#149344
1sig_002
#149344
0sig_002
#149344
1sig_004
#149347
0sig_004
#149347
1sig_003
#149349
0sig_003
#149349
1sig_005
#149351
0sig_005
#149354
1sig_000
#149358
0sig_000
#149358
1sig_002
#149358
0sig_002
#149368
1sig_007
#149370
0sig_007
#149370
1sig_006
#149372
0sig_006
#149372
1sig_000
#149376
0sig_000
#149376
1sig_002
#149376
0sig_002
#149376
1sig_004
#149379
0sig_004
#149379
1sig_003
#149381
0sig_003
#149381
1sig_005
#149383
0sig_005
#149386
1sig_000
#149390
0sig_000
#149390
1sig_002
#149390
0sig_002
#149400
1sig_007
#149402
0sig_007
#149402
1sig_006
#149404
0sig_006
#149404
1sig_000
#149408
0sig_000
#149408
1sig_002
#149408
0sig_002
#149408
1sig_004
#149411
0sig_004
#149411
1sig_003
#149413
0sig_003
#149413
1sig_005
#149415
0sig_005
#149418
1sig_000
#149422
0sig_000
#149422
1sig_002
#149422
0sig_002
#149432
1sig_007
#149434
0sig_007
#149434
1sig_006
#149436
0sig_006
#149436
1sig_000
#149440
0sig_000
#149440
1sig_002
#149440
0sig_002
#149440
1sig_004
#149443
0sig_004
#149443
1sig_003
#149445
0sig_003
#149445
1sig_005
#149447
0sig_005
#149450
1sig_000
#149454
0sig_000
#149454
1sig_002
#149454
0sig_002
#149464
1sig_007
#149466
0sig_007
#149466
1sig_006
#149468
0sig_006
#149468
1sig_000
#149472
0sig_000
#149472
1sig_002
#149472
0sig_002
#149472
1sig_004
#149475
0sig_004
#149475
1sig_003
#149477
0sig_003
#149477
1sig_005
#149479
0sig_005
#149482
1sig_000
#149486
0sig_000
#149486
1sig_002
#149486
0sig_002
#149496
1sig_007
#149498
0sig_007
#149498
1sig_006
#149500
0sig_006
#149500
1sig_000
#149504
0sig_000
#149504
1sig_002
#149504
0sig_002
#149504
1sig_004
#149507
0sig_004
#149507
1sig_003
#149509
0sig_003
#149509
1sig_005
#149511
0sig_005
#149514
1sig_000
#149518
0sig_000
#149518
1sig_002
#149518
0sig_002
#149528
1sig_007
#149530
0sig_007
#149530
1sig_006
#149532
0sig_006
#149532
1sig_000
#149536
0sig_000
#149536
1sig_002
#149536
0sig_002
#149536
1sig_004
#149539
0sig_004
#149539
1sig_003
#149541
0sig_003
#149541
1sig_005
#149543
0sig_005
#149546
1sig_000
#149550
0sig_000
#149550
1sig_002
#149550
0sig_002
#149560
1sig_007
#149562
0sig_007
#149562
1sig_006
#149564
0sig_006
#149564
1sig_000
#149568
0sig_000
#149568
1sig_002
#149568
0sig_002
#149568
1sig_004
#149571
0sig_004
#149571
1sig_003
#149573
0sig_003
#149573
1sig_005
#149575
0sig_005
#149578
1sig_000
#149582
0sig_000
#149582
1sig_002
#149582
0sig_002
#149592
1sig_007
#149594
0sig_007
#149594
1sig_006
#149596
0sig_006
#149596
1sig_000
#149600
0sig_000
#149600
1sig_002
#149600
0sig_002
#149600
1sig_004
#149603
0sig_004
#149603
1sig_003
#149605
0sig_003
#149605
1sig_005
#149607
0sig_005
#149610
1sig_000
#149614
0sig_000
#149614
1sig_002
#149614
0sig_002
#149624
1sig_007
#149626
0sig_007
#149626
1sig_006
#149628
0sig_006
#149628
1sig_000
#149632
0sig_000
#149632
1sig_002
#149632
0sig_002
#149632
1sig_004
#149635
0sig_004
#149635
1sig_003
#149637
0sig_003
#149637
1sig_005
#149639
0sig_005
#149642
1sig_000
#149646
0sig_000
#149646
1sig_002
#149646
0sig_002
#149656
1sig_007
#149658
0sig_007
#149658
1sig_006
#149660
0sig_006
#149660
1sig_000
#149664
0sig_000
#149664
1sig_002
#149664
0sig_002
#149664
1sig_004
#149667
0sig_004
#149667
1sig_003
#149669
0sig_003
#149669
1sig_005
#149671
0sig_005
#149674
1sig_000
#149678
0sig_000
#149678
1sig_002
#149678
0sig_002
#149688
1sig_007
#149690
0sig_007
#149690
1sig_006
#149692
0sig_006
#149692
1sig_000
#149696
0sig_000
#149696
1sig_002
#149696
0sig_002
#149696
1sig_004
#149699
0sig_004
#149699
1sig_003
#149701
0sig_003
#149701
1sig_005
#149703
0sig_005
#149706
1sig_000
#149710
0sig_000
#149710
1sig_002
#149710
0sig_002
#149720
1sig_007
#149722
0sig_007
#149722
1sig_006
#149724
0sig_006
#149724
1sig_000
#149728
0sig_000
#149728
1sig_002
#149728
0sig_002
#149728
1sig_004
#149731
0sig_004
#149731
1sig_003
#149733
0sig_003
#149733
1sig_005
#149735
0sig_005
#149738
1sig_000
#149742
0sig_000
#149742
1sig_002
#149742
0sig_002
#149752
1sig_007
#149754
0sig_007
#149754
1sig_006
#149756
0sig_006
#149756
1sig_000
#149760
0sig_000
#149760
1sig_002
#149760
0sig_002
#149760
1sig_004
#149763
0sig_004
#149763
1sig_003
#149765
0sig_003
#149765
1sig_005
#149767
0sig_005
#149770
1sig_000
#149774
0sig_000
#149774
1sig_002
#149774
0sig_002
#149784
1sig_007
#149786
0sig_007
#149786
1sig_006
#149788
0sig_006
#149788
1sig_000
#149792
0sig_000
#149792
1sig_002
#149792
0sig_002
#149792
1sig_004
#149795
0sig_004
#149795
1sig_003
#149797
0sig_003
#149797
1sig_005
#149799
0sig_005
#149802
1sig_000
#149806
0sig_000
#149806
1sig_002
#149806
0sig_002
#149816
1sig_007
#149818
0sig_007
#149818
1sig_006
#149820
0sig_006
#149820
1sig_000
#149824
0sig_000
#149824
1sig_002
#149824
0sig_002
#149824
1sig_004
#149827
0sig_004
#149827
1sig_003
#149829
0sig_003
#149829
1sig_005
#149831
0sig_005
#149834
1sig_000
#149838
0sig_000
#149838
1sig_002
#149838
0sig_002
#149848
1sig_007
#149850
0sig_007
#149850
1sig_006
#149852
0sig_006
#149852
1sig_000
#149856
0sig_000
#149856
1sig_002
#149856
0sig_002
#149856
1sig_004
#149859
0sig_004
#149859
1sig_003
#149861
0sig_003
#149861
1sig_005
#149863
0sig_005
#149866
1sig_000
#149870
0sig_000
#149870
1sig_002
#149870
0sig_002
#149880
1sig_007
#149882
0sig_007
#149882
1sig_006
#149884
0sig_006
#149884
1sig_000
#149888
0sig_000
#149888
1sig_002
#149888
0sig_002
#149888
1sig_004
#149891
0sig_004
#149891
1sig_003
#149893
0sig_003
#149893
1sig_005
#149895
0sig_005
#149898
1sig_000
#149902
0sig_000
#149902
1sig_002
#149902
0sig_002
#149912
1sig_007
#149914
0sig_007
#149914
1sig_006
#149916
0sig_006
#149916
1sig_000
#149920
0sig_000
#149920
1sig_002
#149920
0sig_002
#149920
1sig_004
#149923
0sig_004
#149923
1sig_003
#149925
0sig_003
#149925
1sig_005
#149927
0sig_005
#149930
1sig_000
#149934
0sig_000
#149934
1sig_002
#149934
0sig_002
#149944
1sig_007
#149946
0sig_007
#149946
1sig_006
#149948
0sig_006
#149948
1sig_000
#149952
0sig_000
#149952
1sig_002
#149952
0sig_002
#149952
1sig_004
#149955
0sig_004
#149955
1sig_003
#149957
0sig_003
#149957
1sig_005
#149959
0sig_005
#149962
1sig_000
#149966
0sig_000
#149966
1sig_002
#149966
0sig_002
#149976
1sig_007
#149978
0sig_007
#149978
1sig_006
#149980
0sig_006
#149980
1sig_000
#149984
0sig_000
#149984
1sig_002
#149984
0sig_002
#149984
1sig_004
#149987
0sig_004
#149987
1sig_003
#149989
0sig_003
#149989
1sig_005
#149991
0sig_005
#149994
1sig_000
#149998
0sig_000
#149998
1sig_002
#149998
0sig_002
#150008
1sig_007
#150010
0sig_007
#150010
1sig_006
#150012
0sig_006
#150012
1sig_000
#150016
0sig_000
#150016
1sig_002
#150016
0sig_002
#150016
1sig_004
#150019
0sig_004
#150019
1sig_003
#150021
0sig_003
#150021
1sig_005
#150023
0sig_005
#150026
1sig_000
#150030
0sig_000
#150030
1sig_002
#150030
0sig_002
#150040
1sig_007
#150042
0sig_007
#150042
1sig_006
#150044
0sig_006
#150044
1sig_000
#150048
0sig_000
#150048
1sig_002
#150048
0sig_002
#150048
1sig_004
#150051
0sig_004
#150051
1sig_003
#150053
0sig_003
#150053
1sig_005
#150055
0sig_005
#150058
1sig_000
#150062
0sig_000
#150062
1sig_002
#150062
0sig_002
#150072
1sig_007
#150074
0sig_007
#150074
1sig_006
#150076
0sig_006
#150076
1sig_000
#150080
0sig_000
#150080
1sig_002
#150080
0sig_002
#150080
1sig_004
#150083
0sig_004
#150083
1sig_003
#150085
0sig_003
#150085
1sig_005
#150087
0sig_005
#150090
1sig_000
#150094
0sig_000
#150094
1sig_002
#150094
0sig_002
#150104
1sig_007
#150106
0sig_007
#150106
1sig_006
#150108
0sig_006
#150108
1sig_000
#150112
0sig_000
#150112
1sig_002
#150112
0sig_002
#150112
1sig_004
#150115
0sig_004
#150115
1sig_003
#150117
0sig_003
#150117
1sig_005
#150119
0sig_005
#150122
1sig_000
#150126
0sig_000
#150126
1sig_002
#150126
0sig_002
#150136
1sig_007
#150138
0sig_007
#150138
1sig_006
#150140
0sig_006
#150140
1sig_000
#150144
0sig_000
#150144
1sig_002
#150144
0sig_002
#150144
1sig_004
#150147
0sig_004
#150147
1sig_003
#150149
0sig_003
#150149
1sig_005
#150151
0sig_005
#150154
1sig_000
#150158
0sig_000
#150158
1sig_002
#150158
0sig_002
#150168
1sig_007
#150170
0sig_007
#150170
1sig_006
#150172
0sig_006
#150172
1sig_000
#150176
0sig_000
#150176
1sig_002
#150176
0sig_002
#150176
1sig_004
#150179
0sig_004
#150179
1sig_003
#150181
0sig_003
#150181
1sig_005
#150183
0sig_005
#150186
1sig_000
#150190
0sig_000
#150190
1sig_002
#150190
0sig_002
#150200
1sig_007
#150202
0sig_007
#150202
1sig_006
#150204
0sig_006
#150204
1sig_000
#150208
0sig_000
#150208
1sig_002
#150208
0sig_002
#150208
1sig_004
#150211
0sig_004
#150211
1sig_003
#150213
0sig_003
#150213
1sig_005
#150215
0sig_005
#150218
1sig_000
#150222
0sig_000
#150222
1sig_002
#150222
0sig_002
#150232
1sig_007
#150234
0sig_007
#150234
1sig_006
#150236
0sig_006
#150236
1sig_000
#150240
0sig_000
#150240
1sig_002
#150240
0sig_002
#150240
1sig_004
#150243
0sig_004
#150243
1sig_003
#150245
0sig_003
#150245
1sig_005
#150247
0sig_005
#150250
1sig_000
#150254
0sig_000
#150254
1sig_002
#150254
0sig_002
#150264
1sig_007
#150266
0sig_007
#150266
1sig_006
#150268
0sig_006
#150268
1sig_000
#150272
0sig_000
#150272
1sig_002
#150272
0sig_002
#150272
1sig_004
#150275
0sig_004
#150275
1sig_003
#150277
0sig_003
#150277
1sig_005
#150279
0sig_005
#150282
1sig_000
#150286
0sig_000
#150286
1sig_002
#150286
0sig_002
#150296
1sig_007
#150298
0sig_007
#150298
1sig_006
#150300
0sig_006
#150300
1sig_000
#150304
0sig_000
#150304
1sig_002
#150304
0sig_002
#150304
1sig_004
#150307
0sig_004
#150307
1sig_003
#150309
0sig_003
#150309
1sig_005
#150311
0sig_005
#150314
1sig_000
#150318
0sig_000
#150318
1sig_002
#150318
0sig_002
#150328
1sig_007
#150330
0sig_007
#150330
1sig_006
#150332
0sig_006
#150332
1sig_000
#150336
0sig_000
#150336
1sig_002
#150336
0sig_002
#150336
1sig_004
#150339
0sig_004
#150339
1sig_003
#150341
0sig_003
#150341
1sig_005
#150343
0sig_005
#150346
1sig_000
#150350
0sig_000
#150350
1sig_002
#150350
0sig_002
#150360
1sig_007
#150362
0sig_007
#150362
1sig_006
#150364
0sig_006
#150364
1sig_000
#150368
0sig_000
#150368
1sig_002
#150368
0sig_002
#150368
1sig_004
#150371
0sig_004
#150371
1sig_003
#150373
0sig_003
#150373
1sig_005
#150375
0sig_005
#150378
1sig_000
#150382
0sig_000
#150382
1sig_002
#150382
0sig_002
#150392
1sig_007
#150394
0sig_007
#150394
1sig_006
#150396
0sig_006
#150396
1sig_000
#150400
0sig_000
#150400
1sig_002
#150400
0sig_002
#150400
1sig_004
#150403
0sig_004
#150403
1sig_003
#150405
0sig_003
#150405
1sig_005
#150407
0sig_005
#150410
1sig_000
#150414
0sig_000
#150414
1sig_002
#150414
0sig_002
#150424
1sig_007
#150426
0sig_007
#150426
1sig_006
#150428
0sig_006
#150428
1sig_000
#150432
0sig_000
#150432
1sig_002
#150432
0sig_002
#150432
1sig_004
#150435
0sig_004
#150435
1sig_003
#150437
0sig_003
#150437
1sig_005
#150439
0sig_005
#150442
1sig_000
#150446
0sig_000
#150446
1sig_002
#150446
0sig_002
#150456
1sig_007
#150458
0sig_007
#150458
1sig_006
#150460
0sig_006
#150460
1sig_000
#150464
0sig_000
#150464
1sig_002
#150464
0sig_002
#150464
1sig_004
#150467
0sig_004
#150467
1sig_003
#150469
0sig_003
#150469
1sig_005
#150471
0sig_005
#150474
1sig_000
#150478
0sig_000
#150478
1sig_002
#150478
0sig_002
#150488
1sig_007
#150490
0sig_007
#150490
1sig_006
#150492
0sig_006
#150492
1sig_000
#150496
0sig_000
#150496
1sig_002
#150496
0sig_002
#150496
1sig_004
#150499
0sig_004
#150499
1sig_003
#150501
0sig_003
#150501
1sig_005
#150503
0sig_005
#150506
1sig_000
#150510
0sig_000
#150510
1sig_002
#150510
0sig_002
#150520
1sig_007
#150522
0sig_007
#150522
1sig_006
#150524
0sig_006
#150524
1sig_000
#150528
0sig_000
#150528
1sig_002
#150528
0sig_002
#150528
1sig_004
#150531
0sig_004
#150531
1sig_003
#150533
0sig_003
#150533
1sig_005
#150535
0sig_005
#150538
1sig_000
#150542
0sig_000
#150542
1sig_002
#150542
0sig_002
#150552
1sig_007
#150554
0sig_007
#150554
1sig_006
#150556
0sig_006
#150556
1sig_000
#150560
0sig_000
#150560
1sig_002
#150560
0sig_002
#150560
1sig_004
#150563
0sig_004
#150563
1sig_003
#150565
0sig_003
#150565
1sig_005
#150567
0sig_005
#150570
1sig_000
#150574
0sig_000
#150574
1sig_002
#150574
0sig_002
#150584
1sig_007
#150586
0sig_007
#150586
1sig_006
#150588
0sig_006
#150588
1sig_000
#150592
0sig_000
#150592
1sig_002
#150592
0sig_002
#150592
1sig_004
#150595
0sig_004
#150595
1sig_003
#150597
0sig_003
#150597
1sig_005
#150599
0sig_005
#150602
1sig_000
#150606
0sig_000
#150606
1sig_002
#150606
0sig_002
#150616
1sig_007
#150618
0sig_007
#150618
1sig_006
#150620
0sig_006
#150620
1sig_000
#150624
0sig_000
#150624
1sig_002
#150624
0sig_002
#150624
1sig_004
#150627
0sig_004
#150627
1sig_003
#150629
0sig_003
#150629
1sig_005
#150631
0sig_005
#150634
1sig_000
#150638
0sig_000
#150638
1sig_002
#150638
0sig_002
#150648
1sig_007
#150650
0sig_007
#150650
1sig_006
#150652
0sig_006
#150652
1sig_000
#150656
0sig_000
#150656
1sig_002
#150656
0sig_002
#150656
1sig_004
#150659
0sig_004
#150659
1sig_003
#150661
0sig_003
#150661
1sig_005
#150663
0sig_005
#150666
1sig_000
#150670
0sig_000
#150670
1sig_002
#150670
0sig_002
#150680
1sig_007
#150682
0sig_007
#150682
1sig_006
#150684
0sig_006
#150684
1sig_000
#150688
0sig_000
#150688
1sig_002
#150688
0sig_002
#150688
1sig_004
#150691
0sig_004
#150691
1sig_003
#150693
0sig_003
#150693
1sig_005
#150695
0sig_005
#150698
1sig_000
#150702
0sig_000
#150702
1sig_002
#150702
0sig_002
#150712
1sig_007
#150714
0sig_007
#150714
1sig_006
#150716
0sig_006
#150716
1sig_000
#150720
0sig_000
#150720
1sig_002
#150720
0sig_002
#150720
1sig_004
#150723
0sig_004
#150723
1sig_003
#150725
0sig_003
#150725
1sig_005
#150727
0sig_005
#150730
1sig_000
#150734
0sig_000
#150734
1sig_002
#150734
0sig_002
#150744
1sig_007
#150746
0sig_007
#150746
1sig_006
#150748
0sig_006
#150748
1sig_000
#150752
0sig_000
#150752
1sig_002
#150752
0sig_002
#150752
1sig_004
#150755
0sig_004
#150755
1sig_003
#150757
0sig_003
#150757
1sig_005
#150759
0sig_005
#150762
1sig_000
#150766
0sig_000
#150766
1sig_002
#150766
0sig_002
#150776
1sig_007
#150778
0sig_007
#150778
1sig_006
#150780
0sig_006
#150780
1sig_000
#150784
0sig_000
#150784
1sig_002
#150784
0sig_002
#150784
1sig_004
#150787
0sig_004
#150787
1sig_003
#150789
0sig_003
#150789
1sig_005
#150791
0sig_005
#150794
1sig_000
#150798
0sig_000
#150798
1sig_002
#150798
0sig_002
#150808
1sig_007
#150810
0sig_007
#150810
1sig_006
#150812
0sig_006
#150812
1sig_000
#150816
0sig_000
#150816
1sig_002
#150816
0sig_002
#150816
1sig_004
#150819
0sig_004
#150819
1sig_003
#150821
0sig_003
#150821
1sig_005
#150823
0sig_005
#150826
1sig_000
#150830
0sig_000
#150830
1sig_002
#150830
0sig_002
#150840
1sig_007
#150842
0sig_007
#150842
1sig_006
#150844
0sig_006
#150844
1sig_000
#150848
0sig_000
#150848
1sig_002
#150848
0sig_002
#150848
1sig_004
#150851
0sig_004
#150851
1sig_003
#150853
0sig_003
#150853
1sig_005
#150855
0sig_005
#150858
1sig_000
#150862
0sig_000
#150862
1sig_002
#150862
0sig_002
#150872
1sig_007
#150874
0sig_007
#150874
1sig_006
#150876
0sig_006
#150876
1sig_000
#150880
0sig_000
#150880
1sig_002
#150880
0sig_002
#150880
1sig_004
#150883
0sig_004
#150883
1sig_003
#150885
0sig_003
#150885
1sig_005
#150887
0sig_005
#150890
1sig_000
#150894
0sig_000
#150894
1sig_002
#150894
0sig_002
#150904
1sig_007
#150906
0sig_007
#150906
1sig_006
#150908
0sig_006
#150908
1sig_000
#150912
0sig_000
#150912
1sig_002
#150912
0sig_002
#150912
1sig_004
#150915
0sig_004
#150915
1sig_003
#150917
0sig_003
#150917
1sig_005
#150919
0sig_005
#150922
1sig_000
#150926
0sig_000
#150926
1sig_002
#150926
0sig_002
#150936
1sig_007
#150938
0sig_007
#150938
1sig_006
#150940
0sig_006
#150940
1sig_000
#150944
0sig_000
#150944
1sig_002
#150944
0sig_002
#150944
1sig_004
#150947
0sig_004
#150947
1sig_003
#150949
0sig_003
#150949
1sig_005
#150951
0sig_005
#150954
1sig_000
#150958
0sig_000
#150958
1sig_002
#150958
0sig_002
#150968
1sig_007
#150970
0sig_007
#150970
1sig_006
#150972
0sig_006
#150972
1sig_000
#150976
0sig_000
#150976
1sig_002
#150976
0sig_002
#150976
1sig_004
#150979
0sig_004
#150979
1sig_003
#150981
0sig_003
#150981
1sig_005
#150983
0sig_005
#150986
1sig_000
#150990
0sig_000
#150990
1sig_002
#150990
0sig_002
#151000
1sig_007
#151002
0sig_007
#151002
1sig_006
#151004
0sig_006
#151004
1sig_000
#151008
0sig_000
#151008
1sig_002
#151008
0sig_002
#151008
1sig_004
#151011
0sig_004
#151011
1sig_003
#151013
0sig_003
#151013
1sig_005
#151015
0sig_005
#151018
1sig_000
#151022
0sig_000
#151022
1sig_002
#151022
0sig_002
#151032
1sig_007
#151034
0sig_007
#151034
1sig_006
#151036
0sig_006
#151036
1sig_000
#151040
0sig_000
#151040
1sig_002
#151040
0sig_002
#151040
1sig_004
#151043
0sig_004
#151043
1sig_003
#151045
0sig_003
#151045
1sig_005
#151047
0sig_005
#151050
1sig_000
#151054
0sig_000
#151054
1sig_002
#151054
0sig_002
#151064
1sig_007
#151066
0sig_007
#151066
1sig_006
#151068
0sig_006
#151068
1sig_000
#151072
0sig_000
#151072
1sig_002
#151072
0sig_002
#151072
1sig_004
#151075
0sig_004
#151075
1sig_003
#151077
0sig_003
#151077
1sig_005
#151079
0sig_005
#151082
1sig_000
#151086
0sig_000
#151086
1sig_002
#151086
0sig_002
#151096
1sig_007
#151098
0sig_007
#151098
1sig_006
#151100
0sig_006
#151100
1sig_000
#151104
0sig_000
#151104
1sig_002
#151104
0sig_002
#151104
1sig_004
#151107
0sig_004
#151107
1sig_003
#151109
0sig_003
#151109
1sig_005
#151111
0sig_005
#151114
1sig_000
#151118
0sig_000
#151118
1sig_002
#151118
0sig_002
#151128
1sig_007
#151130
0sig_007
#151130
1sig_006
#151132
0sig_006
#151132
1sig_000
#151136
0sig_000
#151136
1sig_002
#151136
0sig_002
#151136
1sig_004
#151139
0sig_004
#151139
1sig_003
#151141
0sig_003
#151141
1sig_005
#151143
0sig_005
#151146
1sig_000
#151150
0sig_000
#151150
1sig_002
#151150
0sig_002
#151160
1sig_007
#151162
0sig_007
#151162
1sig_006
#151164
0sig_006
#151164
1sig_000
#151168
0sig_000
#151168
1sig_002
#151168
0sig_002
#151168
1sig_004
#151171
0sig_004
#151171
1sig_003
#151173
0sig_003
#151173
1sig_005
#151175
0sig_005
#151178
1sig_000
#151182
0sig_000
#151182
1sig_002
#151182
0sig_002
#151192
1sig_007
#151194
0sig_007
#151194
1sig_006
#151196
0sig_006
#151196
1sig_000
#151200
0sig_000
#151200
1sig_002
#151200
0sig_002
#151200
1sig_004
#151203
0sig_004
#151203
1sig_003
#151205
0sig_003
#151205
1sig_005
#151207
0sig_005
#151210
1sig_000
#151214
0sig_000
#151214
1sig_002
#151214
0sig_002
#151224
1sig_007
#151226
0sig_007
#151226
1sig_006
#151228
0sig_006
#151228
1sig_000
#151232
0sig_000
#151232
1sig_002
#151232
0sig_002
#151232
1sig_004
#151235
0sig_004
#151235
1sig_003
#151237
0sig_003
#151237
1sig_005
#151239
0sig_005
#151242
1sig_000
#151246
0sig_000
#151246
1sig_002
#151246
0sig_002
#151256
1sig_007
#151258
0sig_007
#151258
1sig_006
#151260
0sig_006
#151260
1sig_000
#151264
0sig_000
#151264
1sig_002
#151264
0sig_002
#151264
1sig_004
#151267
0sig_004
#151267
1sig_003
#151269
0sig_003
#151269
1sig_005
#151271
0sig_005
#151274
1sig_000
#151278
0sig_000
#151278
1sig_002
#151278
0sig_002
#151288
1sig_007
#151290
0sig_007
#151290
1sig_006
#151292
0sig_006
#151292
1sig_000
#151296
0sig_000
#151296
1sig_002
#151296
0sig_002
#151296
1sig_004
#151299
0sig_004
#151299
1sig_003
#151301
0sig_003
#151301
1sig_005
#151303
0sig_005
#151306
1sig_000
#151310
0sig_000
#151310
1sig_002
#151310
0sig_002
#151320
1sig_007
#151322
0sig_007
#151322
1sig_006
#151324
0sig_006
#151324
1sig_000
#151328
0sig_000
#151328
1sig_002
#151328
0sig_002
#151328
1sig_004
#151331
0sig_004
#151331
1sig_003
#151333
0sig_003
#151333
1sig_005
#151335
0sig_005
#151338
1sig_000
#151342
0sig_000
#151342
1sig_002
#151342
0sig_002
#151352
1sig_007
#151354
0sig_007
#151354
1sig_006
#151356
0sig_006
#151356
1sig_000
#151360
0sig_000
#151360
1sig_002
#151360
0sig_002
#151360
1sig_004
#151363
0sig_004
#151363
1sig_003
#151365
0sig_003
#151365
1sig_005
#151367
0sig_005
#151370
1sig_000
#151374
0sig_000
#151374
1sig_002
#151374
0sig_002
#151384
1sig_007
#151386
0sig_007
#151386
1sig_006
#151388
0sig_006
#151388
1sig_000
#151392
0sig_000
#151392
1sig_002
#151392
0sig_002
#151392
1sig_004
#151395
0sig_004
#151395
1sig_003
#151397
0sig_003
#151397
1sig_005
#151399
0sig_005
#151402
1sig_000
#151406
0sig_000
#151406
1sig_002
#151406
0sig_002
#151416
1sig_007
#151418
0sig_007
#151418
1sig_006
#151420
0sig_006
#151420
1sig_000
#151424
0sig_000
#151424
1sig_002
#151424
0sig_002
#151424
1sig_004
#151427
0sig_004
#151427
1sig_003
#151429
0sig_003
#151429
1sig_005
#151431
0sig_005
#151434
1sig_000
#151438
0sig_000
