traces/data4_error.vcd
$version
   VCD tracing
	Hepia 2013-2014
$end

$timescale
   1us
$end

$comment
$end

$scope module Collected traces $end
$var wire	 1  sig_000 sig_000 $end
$var wire	 1  sig_001 sig_001 $end
$var wire	 1  sig_002 sig_002 $end
$var wire	 1  sig_003 sig_003 $end
$var wire	 1  sig_004 sig_004 $end
$var wire	 1  sig_005 sig_005 $end
$var wire	 1  sig_006 sig_006 $end
$var wire	 1  sig_007 sig_007 $end
$upscope $end
$enddefinitions  $end

$dumpvars
0sig_000
0sig_001
0sig_002
0sig_003
0sig_004
0sig_005
0sig_006
0sig_007
$end


#1144
1sig_000
#5190
0sig_000
#5191
1sig_001
#5208
0sig_001
#5209
1sig_002
#5663
0sig_002
#5665
1sig_003
#6783
0sig_003
#6784
1sig_004
#7902
0sig_004
#7904
1sig_005
#9022
0sig_005
#9023
1sig_006
#10143
0sig_006
#15316
1sig_000
#19363
0sig_000
#19364
1sig_002
#19375
0sig_002
#34950
1sig_002
#34961
0sig_002
#34962
1sig_007
#37308
0sig_007
#37309
1sig_004
#39655
0sig_004
#39657
1sig_005
#42001
0sig_005
#42002
1sig_006
#44352
0sig_006
#44353
1sig_000
#48400
0sig_000
#48401
1sig_002
#48412
0sig_002
#52257
1sig_003
#54602
0sig_003
#58447
1sig_000
#62494
0sig_000
#62495
1sig_002
#62507
0sig_002
#63689
1sig_004
#66035
0sig_004
#67216
1sig_007
#69560
0sig_007
#69562
1sig_005
#71906
0sig_005
#72416
1sig_006
#74760
0sig_006
#74762
1sig_000
#78811
0sig_000
#78812
1sig_002
#78823
0sig_002
#78824
1sig_003
#81170
0sig_003
#88341
1sig_000
#92390
0sig_000
#92391
1sig_002
#92402
0sig_002
#92404
1sig_004
#94748
0sig_004
#97260
1sig_005
#99606
0sig_005
#99608
1sig_007
#101952
0sig_007
#102468
1sig_006
#104815
0sig_006
#104816
1sig_000
#108862
0sig_000
#108864
1sig_002
#108875
0sig_002
#108876
1sig_003
#111222
0sig_003
#118393
1sig_004
#120737
0sig_004
#120738
1sig_000
#124785
0sig_000
#124787
1sig_002
#124798
0sig_002
#125315
1sig_005
#127659
0sig_005
#131505
1sig_007
#133854
0sig_007
#133855
1sig_006
#136205
0sig_006
#136207
1sig_003
#138550
0sig_003
#138552
1sig_000
#142598
0sig_000
#142600
1sig_002
#142611
0sig_002
#144459
1sig_004
#146804
0sig_004
#152646
1sig_000
#156696
0sig_000
#156697
1sig_002
#156708
0sig_002
#156710
1sig_005
#159055
0sig_005
#160234
1sig_003
#162578
0sig_003
#163096
1sig_007
#165443
0sig_007
#165444
1sig_006
#167793
0sig_006
#167794
1sig_000
#171843
0sig_000
#171845
1sig_002
#171855
0sig_002
#171857
1sig_004
#174202
0sig_004
#181375
1sig_000
#185427
0sig_000
#185428
1sig_002
#185439
0sig_002
#185440
1sig_003
#187784
0sig_003
#187786
1sig_005
#190131
0sig_005
#195303
1sig_007
#197647
0sig_007
#197648
1sig_006
#199994
0sig_006
#199996
1sig_000
#204044
0sig_000
#204045
1sig_002
#204056
0sig_002
#204057
1sig_004
#206402
0sig_004
#209580
1sig_003
#211925
0sig_003
#214439
1sig_000
#218488
0sig_000
#218489
1sig_002
#218500
0sig_002
#218502
1sig_005
#220846
0sig_005
#227352
1sig_007
#229700
0sig_007
#229701
1sig_006
#232049
0sig_006
#232050
1sig_000
#236099
0sig_000
#236100
1sig_002
#236111
0sig_002
#236113
1sig_004
#238456
0sig_004
#238458
1sig_003
#240802
0sig_003
#246637
1sig_005
#248981
0sig_005
#248982
1sig_000
#253031
0sig_000
#253032
1sig_002
#253044
0sig_002
#259550
1sig_007
#261896
0sig_007
#261898
1sig_006
#264252
0sig_006
#264253
1sig_004
#266597
0sig_004
#266599
1sig_003
#268942
0sig_003
#268944
1sig_000
#272990
0sig_000
#272992
1sig_002
#273003
0sig_002
#274185
1sig_005
#276529
0sig_005
#282372
1sig_000
#286418
0sig_000
#286420
1sig_002
#286431
0sig_002
#290276
1sig_004
#292624
0sig_004
#292626
1sig_003
#294970
0sig_003
#294971
1sig_007
#297321
0sig_007
#297322
1sig_006
#299666
0sig_006
#299667
1sig_000
#303716
0sig_000
#303718
1sig_002
#303728
0sig_002
#303730
1sig_005
#306076
0sig_005
#313247
1sig_000
#317298
0sig_000
#317300
1sig_002
#317311
0sig_002
#317312
1sig_004
#319656
0sig_004
#319658
1sig_003
#322002
0sig_003
#327175
1sig_007
#329518
0sig_007
#329520
1sig_006
#331864
0sig_006
#331865
1sig_000
#335914
0sig_000
#335916
1sig_002
#335926
0sig_002
#335928
1sig_005
#338274
0sig_005
#343449
1sig_004
#345797
0sig_004
#345798
1sig_003
#348144
0sig_003
#348145
1sig_000
#352191
0sig_000
#352193
1sig_002
#352204
0sig_002
#359373
1sig_007
#361717
0sig_007
#361719
1sig_006
#364071
0sig_006
#364073
1sig_000
#368119
0sig_000
#368120
1sig_002
#368131
0sig_002
#368133
1sig_005
#370482
0sig_005
#370483
1sig_004
#372827
0sig_004
#372829
1sig_003
#375174
0sig_003
#378351
1sig_000
#382398
0sig_000
#382399
1sig_002
#382410
0sig_002
#391580
1sig_007
#393931
0sig_007
#393932
1sig_006
#396282
0sig_006
#396283
1sig_000
#400332
0sig_000
#400334
1sig_002
#400344
0sig_002
#400346
1sig_005
#402690
0sig_005
#402691
1sig_004
#405036
0sig_004
#405038
1sig_003
#407382
0sig_003
#410558
1sig_000
#414604
0sig_000
#414606
1sig_002
#414617
0sig_002
#423121
1sig_007
#425472
0sig_007
#425473
1sig_006
#427817
0sig_006
#427819
1sig_000
#431872
0sig_000
#431874
1sig_002
#431884
0sig_002
#431886
1sig_005
#434231
0sig_005
#434232
1sig_004
#436576
0sig_004
#436578
1sig_003
#438922
0sig_003
#441434
1sig_000
#445480
0sig_000
#445481
1sig_002
#445492
0sig_002
#455328
1sig_007
#457671
0sig_007
#457673
1sig_006
#460017
0sig_006
#460018
1sig_000
#464072
0sig_000
#464074
1sig_002
#464084
0sig_002
#464086
1sig_005
#466430
0sig_005
#466431
1sig_004
#468775
0sig_004
#468777
1sig_003
#471122
0sig_003
#474297
1sig_000
#478344
0sig_000
#478345
1sig_002
#478357
0sig_002
#487526
1sig_007
#489875
0sig_007
#489876
1sig_006
#492226
0sig_006
#492227
1sig_000
#496276
0sig_000
#496277
1sig_002
#496288
0sig_002
#496289
1sig_005
#498633
0sig_005
#498635
1sig_004
#500979
0sig_004
#500980
1sig_003
#503326
0sig_003
#506504
1sig_000
#510551
0sig_000
#510552
1sig_002
#510563
0sig_002
#519067
1sig_007
#521418
0sig_007
#521419
1sig_006
#523763
0sig_006
#523765
1sig_000
#527818
0sig_000
#527819
1sig_002
#527830
0sig_002
#527831
1sig_005
#530177
0sig_005
#530178
1sig_004
#532522
0sig_004
#532524
1sig_003
#534868
0sig_003
#537380
1sig_000
#541426
0sig_000
#541427
1sig_002
#541439
0sig_002
#551274
1sig_007
#553618
0sig_007
#553619
1sig_006
#555963
0sig_006
#555965
1sig_000
#560018
0sig_000
#560019
1sig_002
#560031
0sig_002
#560032
1sig_005
#562376
0sig_005
#562378
1sig_004
#564722
0sig_004
#564723
1sig_003
#567069
0sig_003
#569578
1sig_000
#573624
0sig_000
#573626
1sig_002
#573637
0sig_002
#583472
1sig_007
#585816
0sig_007
#585818
1sig_006
#588167
0sig_006
#588168
1sig_000
#592217
0sig_000
#592219
1sig_002
#592229
0sig_002
#592231
1sig_005
#594575
0sig_005
#594576
1sig_004
#596920
0sig_004
#596921
1sig_003
#599267
0sig_003
#602442
1sig_000
#606489
0sig_000
#606490
1sig_002
#606501
0sig_002
#615671
1sig_007
#618022
0sig_007
#618023
1sig_006
#620373
0sig_006
#620374
1sig_000
#624422
0sig_000
#624424
1sig_002
#624434
0sig_002
#624436
1sig_005
#626780
0sig_005
#626781
1sig_004
#629127
0sig_004
#629128
1sig_003
#631472
0sig_003
#634649
1sig_000
#638695
0sig_000
#638696
1sig_002
#638708
0sig_002
#647212
1sig_007
#649563
0sig_007
#649564
1sig_006
#651908
0sig_006
#651909
1sig_000
#655963
0sig_000
#655964
1sig_002
#655975
0sig_002
#655976
1sig_005
#658322
0sig_005
#658323
1sig_004
#660667
0sig_004
#660668
1sig_003
#663013
0sig_003
#665524
1sig_000
#669571
0sig_000
#669573
1sig_002
#669584
0sig_002
#679419
1sig_007
#681763
0sig_007
#681764
1sig_006
#684115
0sig_006
#684117
1sig_000
#688163
0sig_000
#688164
1sig_002
#688175
0sig_002
#688176
1sig_005
#690520
0sig_005
#690522
1sig_004
#692866
0sig_004
#692867
1sig_003
#695213
0sig_003
#698388
1sig_000
#702435
0sig_000
#702437
1sig_002
#702448
0sig_002
#711617
1sig_007
#713968
0sig_007
#713969
1sig_006
#716318
0sig_006
#716320
1sig_000
#720369
0sig_000
#720370
1sig_002
#720381
0sig_002
#720382
1sig_005
#722726
0sig_005
#722727
1sig_004
#725073
0sig_004
#725074
1sig_003
#727419
0sig_003
#730595
1sig_000
#734641
0sig_000
#734643
1sig_002
#734654
0sig_002
#743158
1sig_007
#745509
0sig_007
#745510
1sig_006
#747854
0sig_006
#747855
1sig_000
#751909
0sig_000
#751910
1sig_002
#751921
0sig_002
#751922
1sig_005
#754267
0sig_005
#754269
1sig_004
#756613
0sig_004
#756614
1sig_003
#758959
0sig_003
#761470
1sig_000
#765517
0sig_000
#765518
1sig_002
#765530
0sig_002
#775365
1sig_007
#777709
0sig_007
#777710
1sig_006
#780062
0sig_006
#780063
1sig_000
#784110
0sig_000
#784111
1sig_002
#784122
0sig_002
#784123
1sig_005
#786467
0sig_005
#786468
1sig_004
#788812
0sig_004
#788814
1sig_003
#791160
0sig_003
#794335
1sig_000
#808817
0sig_000
#808818
1sig_002
#808830
0sig_002
#808831
1sig_007
#811177
0sig_007
#811178
1sig_006
#813529
0sig_006
#813531
1sig_005
#815875
0sig_005
#815876
1sig_004
#818226
0sig_004
#818227
1sig_003
#820571
0sig_003
#820572
1sig_000
#824613
0sig_000
#824614
1sig_002
#824625
0sig_002
#824626
1sig_000
#824643
0sig_000
#824645
1sig_001
#825074
0sig_001
#834237
1sig_002
#834249
0sig_002
#835568
1sig_001
#836400
0sig_001
#841575
1sig_007
#843924
0sig_007
#843925
1sig_006
#846275
0sig_006
#846276
1sig_005
#848620
0sig_005
#848622
1sig_004
#850965
0sig_004
#850967
1sig_003
#853312
0sig_003
#853313
1sig_002
#853324
0sig_002
#853325
1sig_001
#854156
0sig_001
#863324
1sig_002
#863335
0sig_002
#864655
1sig_001
#865486
0sig_001
#873325
1sig_007
#875679
0sig_007
#875680
1sig_002
#875691
0sig_002
#875692
1sig_006
#878037
0sig_006
#878039
1sig_005
#880382
0sig_005
#880384
1sig_004
#882728
0sig_004
#882729
1sig_003
#885076
0sig_003
#885078
1sig_001
#885907
0sig_001
#885908
1sig_002
#885919
0sig_002
#895090
1sig_001
#895919
0sig_001
#895920
1sig_002
#895931
0sig_002
#457673
1sig_006
#460017
0sig_006
#907452
1sig_001
#908282
0sig_001
#908284
1sig_002
#908294
0sig_002
#908296
1sig_006
#910640
0sig_006
#910641
1sig_005
#912985
0sig_005
#912986
1sig_004
#915332
0sig_004
#915333
1sig_003
#917678
0sig_003
#918194
1sig_001
#919023
0sig_001
#919024
1sig_002
#919036
0sig_002
#928203
1sig_001
#929037
0sig_001
#929039
1sig_002
#929050
0sig_002
#496277
1sig_002
#496288
0sig_002
#496289
1sig_005
#498633
0sig_005
#498635
1sig_004
#500979
0sig_004
#500980
1sig_003
#503326
0sig_003
#945436
1sig_004
#947780
0sig_004
#947781
1sig_003
#950126
0sig_003
#950128
1sig_002
#950139
0sig_002
#521419
1sig_006
#523763
0sig_006
#523765
1sig_000
#527818
0sig_000
#527819
1sig_002
#527830
0sig_002
#527831
1sig_005
#530177
0sig_005
#530178
1sig_004
#532522
0sig_004
#532524
1sig_003
#534868
0sig_003
#537380
1sig_000
#541426
0sig_000
#541427
1sig_002
#541439
0sig_002
#551274
1sig_007
#553618
0sig_007
#553619
1sig_006
#555963
0sig_006
#555965
1sig_000
#560018
0sig_000
#560019
1sig_002
#560031
0sig_002
#560032
1sig_005
#562376
0sig_005
#562378
1sig_004
#564722
0sig_004
#564723
1sig_003
#567069
0sig_003
#569578
1sig_000
#573624
0sig_000
#573626
1sig_002
#573637
0sig_002
#583472
1sig_007
#585816
0sig_007
#585818
1sig_006
#588167
0sig_006
#588168
1sig_000
#592217
0sig_000
#592219
1sig_002
#592229
0sig_002
#592231
1sig_005
#594575
0sig_005
#594576
1sig_004
#596920
0sig_004
#596921
1sig_003
#599267
0sig_003
#602442
1sig_000
#606489
0sig_000
#606490
1sig_002
#606501
0sig_002
#615671
1sig_007
#618022
0sig_007
#618023
1sig_006
#620373
0sig_006
#620374
1sig_000
#624422
0sig_000
#624424
1sig_002
#624434
0sig_002
#624436
1sig_005
#626780
0sig_005
#626781
1sig_004
#629127
0sig_004
#629128
1sig_003
#631472
0sig_003
#634649
1sig_000
#638695
0sig_000
#638696
1sig_002
#638708
0sig_002
#647212
1sig_007
#649563
0sig_007
#649564
1sig_006
#651908
0sig_006
#651909
1sig_000
#655963
0sig_000
#655964
1sig_002
#655975
0sig_002
#655976
1sig_005
#658322
0sig_005
#658323
1sig_004
#660667
0sig_004
#660668
1sig_003
#663013
0sig_003
#665524
1sig_000
#669571
0sig_000
#669573
1sig_002
#669584
0sig_002
#679419
1sig_007
#681763
0sig_007
#681764
1sig_006
#684115
0sig_006
#684117
1sig_000
#688163
0sig_000
#688164
1sig_002
#688175
0sig_002
#688176
1sig_005
#690520
0sig_005
#690522
1sig_004
#692866
0sig_004
#692867
1sig_003
#695213
0sig_003
#698388
1sig_000
#702435
0sig_000
#702437
1sig_002
#702448
0sig_002
#711617
1sig_007
#713968
0sig_007
#713969
1sig_006
#716318
0sig_006
#716320
1sig_000
#720369
0sig_000
#720370
1sig_002
#720381
0sig_002
#720382
1sig_005
#722726
0sig_005
#722727
1sig_004
#725073
0sig_004
#725074
1sig_003
#727419
0sig_003
#730595
1sig_000
#734641
0sig_000
#734643
1sig_002
#734654
0sig_002
#743158
1sig_007
#745509
0sig_007
#745510
1sig_006
#747854
0sig_006
#747855
1sig_000
#751909
0sig_000
#751910
1sig_002
#751921
0sig_002
#751922
1sig_005
#754267
0sig_005
#754269
1sig_004
#756613
0sig_004
#756614
1sig_003
#758959
0sig_003
#761470
1sig_000
#765517
0sig_000
#765518
1sig_002
#765530
0sig_002
#775365
1sig_007
#777709
0sig_007
#777710
1sig_006
#780062
0sig_006
#780063
1sig_000
#784110
0sig_000
#784111
1sig_002
#784122
0sig_002
#784123
1sig_005
#786467
0sig_005
#786468
1sig_004
#788812
0sig_004
#788814
1sig_003
#791160
0sig_003
#794335
1sig_000
#808817
0sig_000
#808818
1sig_002
#808830
0sig_002
#808831
1sig_007
#811177
0sig_007
#811178
1sig_006
#813529
0sig_006
#813531
1sig_005
#815875
0sig_005
#815876
1sig_004
#818226
0sig_004
#818227
1sig_003
#820571
0sig_003
#820572
1sig_000
#824613
0sig_000
#824614
1sig_002
#824625
0sig_002
#824626
1sig_000
#824643
0sig_000
#824645
1sig_001
#825074
0sig_001
#834237
1sig_002
#834249
0sig_002
#835568
1sig_001
#836400
0sig_001
#841575
1sig_007
#843924
0sig_007
#843925
1sig_006
#846275
0sig_006
#846276
1sig_005
#848620
0sig_005
#848622
1sig_004
#850965
0sig_004
#850967
1sig_003
#853312
0sig_003
#853313
1sig_002
#853324
0sig_002
#853325
1sig_001
#854156
0sig_001
#863324
1sig_002
#863335
0sig_002
#864655
1sig_001
#865486
0sig_001
#873325
1sig_007
#875679
0sig_007
#875680
1sig_002
#875691
0sig_002
#875692
1sig_006
#878037
0sig_006
#878039
1sig_005
#880382
0sig_005
#880384
1sig_004
#882728
0sig_004
#882729
1sig_003
#885076
0sig_003
#885078
1sig_001
#885907
0sig_001
#885908
1sig_002
#885919
0sig_002
#895090
1sig_001
#895919
0sig_001
#895920
1sig_002
#895931
0sig_002
#905098
1sig_007
#907451
0sig_007
#907452
1sig_001
#908282
0sig_001
#908284
1sig_002
#908294
0sig_002
#908296
1sig_006
#910640
0sig_006
#910641
1sig_005
#912985
0sig_005
#912986
1sig_004
#915332
0sig_004
#915333
1sig_003
#917678
0sig_003
#918194
1sig_001
#919023
0sig_001
#919024
1sig_002
#919036
0sig_002
#928203
1sig_001
#929037
0sig_001
#929039
1sig_002
#929050
0sig_002
#937555
1sig_007
#939912
0sig_007
#939913
1sig_006
#942258
0sig_006
#942259
1sig_005
#944603
0sig_005
#944604
1sig_001
#945434
0sig_001
#945436
1sig_004
#947780
0sig_004
#947781
1sig_003
#950126
0sig_003
#950128
1sig_002
#950139
0sig_002
#955310
1sig_001
#956140
0sig_001
#960651
1sig_002
#960663
0sig_002
#966642
1sig_001
#967472
0sig_001
#969321
1sig_007
#971674
0sig_007
#971675
1sig_006
#974021
0sig_006
#974023
1sig_005
#976368
0sig_005
#976369
1sig_002
#976380
0sig_002
#976381
1sig_004
#978728
0sig_004
#978729
1sig_003
#981075
0sig_003
#981076
1sig_001
#981906
0sig_001
#986410
1sig_002
#986421
0sig_002
#991069
1sig_001
#991899
0sig_001
#996402
1sig_002
#996414
0sig_002
#1001062
1sig_007
#1003412
0sig_007
#1003414
1sig_006
#1005757
0sig_006
#1005759
1sig_001
#1006592
0sig_001
#1006593
1sig_005
#1008937
0sig_005
#1008938
1sig_004
#1011283
0sig_004
#1011285
1sig_003
#1013629
0sig_003
#1013630
1sig_002
#1013641
0sig_002
#1016154
1sig_001
#1016983
0sig_001
#1023484
1sig_002
#1023495
0sig_002
#1026146
1sig_001
#1026977
0sig_001
#1033485
1sig_007
#1035836
0sig_007
#1035837
1sig_006
#1038184
0sig_006
#1038185
1sig_002
#1038196
0sig_002
#1038197
1sig_005
#1040541
0sig_005
#1040543
1sig_004
#1042887
0sig_004
#1042888
1sig_003
#1045233
0sig_003
#1045235
1sig_001
#1046066
0sig_001
#1048577
1sig_002
#1048588
0sig_002
#1056564
1sig_001
#1057395
0sig_001
#1058578
1sig_002
#1058589
0sig_002
#1065234
1sig_007
#1067589
0sig_007
#1067590
1sig_006
#1069936
0sig_006
#1069938
1sig_005
#1072283
0sig_005
#1072284
1sig_004
#1074628
0sig_004
#1074629
1sig_003
#1076973
0sig_003
#1076975
1sig_001
#1077805
0sig_001
#1077806
1sig_002
#1077817
0sig_002
#1087648
1sig_001
#1088479
0sig_001
#1088480
1sig_002
#1088492
0sig_002
#1097657
1sig_007
#1100011
0sig_007
#1100012
1sig_006
#1102357
0sig_006
#1102359
1sig_005
#1104702
0sig_005
#1104703
1sig_004
#1107048
0sig_004
#1107050
1sig_003
#1109394
0sig_003
#1109395
1sig_001
#1110225
0sig_001
#1110226
1sig_002
#1110237
0sig_002
#1120071
1sig_001
#1120900
0sig_001
#1120901
1sig_002
#1120913
0sig_002
#1129414
1sig_007
#1131771
0sig_007
#1131772
1sig_006
#1134117
0sig_006
#1134118
1sig_005
#1136462
0sig_005
#1136464
1sig_001
#1137294
0sig_001
#1137295
1sig_002
#1137306
0sig_002
#1137307
1sig_004
#1139651
0sig_004
#1139653
1sig_003
#1141997
0sig_003
#1147169
1sig_001
#1147998
0sig_001
#1147999
1sig_002
#1148010
0sig_002
#1157178
1sig_001
#1158008
0sig_001
#1158009
1sig_002
#1158021
0sig_002
#1161197
1sig_007
#1163550
0sig_007
#1163551
1sig_006
#1165895
0sig_006
#1165896
1sig_005
#1168246
0sig_005
#1168247
1sig_004
#1170591
0sig_004
#1170593
1sig_003
#1172936
0sig_003
#1172938
1sig_001
#1179277
0sig_001
#1179278
1sig_002
#1179289
0sig_002
#1189119
1sig_001
#1189947
0sig_001
#1189948
1sig_002
#1189960
0sig_002
#1193137
1sig_007
#1194379
0sig_007
#1194380
1sig_006
#1196724
0sig_006
#1196726
1sig_005
#1199075
0sig_005
#1199077
1sig_004
#1201420
0sig_004
#1201422
1sig_003
#1203766
0sig_003
#1203768
1sig_001
#1204597
0sig_001
#1204598
1sig_002
#1204609
0sig_002
#1214445
1sig_007
#1214455
0sig_007
#1214456
1sig_001
#1215286
0sig_001
#1215287
1sig_002
#1215299
0sig_002
#1224462
1sig_006
#1226816
0sig_006
#1226818
1sig_005
#1229162
0sig_005
#1229164
1sig_004
#1231507
0sig_004
#1231509
1sig_003
#1233853
0sig_003
#1233854
1sig_001
#1234686
0sig_001
#1234687
1sig_002
#1234698
0sig_002
#1234699
1sig_007
#1234710
0sig_007
#1244546
1sig_001
#1245376
0sig_001
#1245377
1sig_002
#1245389
0sig_002
#1254555
1sig_006
#1256910
0sig_006
#1256911
1sig_007
#1256921
0sig_007
#1256922
1sig_005
#1259267
0sig_005
#1259269
1sig_004
#1261612
0sig_004
#1261614
1sig_003
#1263958
0sig_003
#1263959
1sig_001
#1264788
0sig_001
#1264790
1sig_002
#1264800
0sig_002
#1274631
1sig_001
#1275461
0sig_001
#1275462
1sig_002
#1275474
0sig_002
#1276653
1sig_007
#1276664
0sig_007
#1284640
1sig_006
#1286995
0sig_006
#1286996
1sig_005
#1289341
0sig_005
#1289343
1sig_004
#1291686
0sig_004
#1291688
1sig_003
#1294034
0sig_003
#1294035
1sig_001
#1294863
0sig_001
#1294864
1sig_002
#1294876
0sig_002
#1296056
1sig_007
#1296067
0sig_007
#1304043
1sig_001
#1304870
0sig_001
#1304872
1sig_002
#1304883
0sig_002
#1314052
1sig_006
#1316404
0sig_006
#1316406
1sig_001
#1317235
0sig_001
#1317236
1sig_002
#1317247
0sig_002
#1317248
1sig_005
#1319592
0sig_005
#1319593
1sig_004
#1321937
0sig_004
#1321939
1sig_003
#1324284
0sig_003
#1324286
1sig_007
#1324296
0sig_007
#1327472
1sig_001
#1328301
0sig_001
#1328302
1sig_002
#1328313
0sig_002
#1338146
1sig_001
#1338974
0sig_001
#1338976
1sig_002
#1338988
0sig_002
#1344162
1sig_006
#1346512
0sig_006
#1346514
1sig_007
#1346524
0sig_007
#1346526
1sig_005
#1348874
0sig_005
#1348875
1sig_004
#1351220
0sig_004
#1351222
1sig_003
#1353566
0sig_003
#1353567
1sig_001
#1354396
0sig_001
#1354397
1sig_002
#1354408
0sig_002
#1364238
1sig_001
#1365067
0sig_001
#1365068
1sig_002
#1365080
0sig_002
#1366260
1sig_007
#1366271
0sig_007
#1374247
1sig_006
#1376600
0sig_006
#1376601
1sig_005
#1378945
0sig_005
#1378946
1sig_004
#1381291
0sig_004
#1381293
1sig_003
#1383636
0sig_003
#1383638
1sig_001
#1384467
0sig_001
#1384469
1sig_002
#1384480
0sig_002
#1386328
1sig_007
#1386339
0sig_007
#1394315
1sig_001
#1395144
0sig_001
#1395145
1sig_002
#1395157
0sig_002
#1404324
1sig_006
#1406679
0sig_006
#1406680
1sig_005
#1409024
0sig_005
#1409025
1sig_004
#1411370
0sig_004
#1411371
1sig_003
#1413715
0sig_003
#1413717
1sig_001
#1414545
0sig_001
#1414547
1sig_002
#1414557
0sig_002
#1414559
1sig_007
#1414570
0sig_007
#1424400
1sig_001
#1425229
0sig_001
#1425231
1sig_002
#1425242
0sig_002
#1434409
1sig_006
#1436761
0sig_006
#1436762
1sig_005
#1439107
0sig_005
#1439108
1sig_007
#1439118
0sig_007
#1439120
1sig_004
#1441464
0sig_004
#1441465
1sig_003
#1443809
0sig_003
#1443810
1sig_001
#1444639
0sig_001
#1444641
1sig_002
#1444651
0sig_002
#1454485
1sig_001
#1455314
0sig_001
#1455316
1sig_002
#1455327
0sig_002
#1459169
1sig_007
#1459180
0sig_007
#1464494
1sig_006
#1466849
0sig_006
#1466850
1sig_005
#1469195
0sig_005
#1469196
1sig_004
#1471540
0sig_004
#1471541
1sig_003
#1473885
0sig_003
#1473887
1sig_001
#1474716
0sig_001
#1474717
1sig_002
#1474728
0sig_002
#1479237
1sig_007
#1479248
0sig_007
#1484562
1sig_001
#1485391
0sig_001
#1485393
1sig_002
#1485404
0sig_002
#1494571
1sig_006
#1496925
0sig_006
#1496927
1sig_005
#1499274
0sig_005
#1499275
1sig_004
#1501619
0sig_004
#1501620
1sig_003
#1503964
0sig_003
#1503965
1sig_001
#1504794
0sig_001
#1504796
1sig_002
#1504806
0sig_002
#1504808
1sig_007
#1504818
0sig_007
#1514647
1sig_001
#1515476
0sig_001
#1515478
1sig_002
#1515489
0sig_002
#1524656
1sig_006
#1527010
0sig_006
#1527011
1sig_007
#1527021
0sig_007
#1527023
1sig_005
#1529368
0sig_005
#1529369
1sig_004
#1531713
0sig_004
#1531714
1sig_003
#1534060
0sig_003
#1534061
1sig_001
#1534889
0sig_001
#1534890
1sig_002
#1534901
0sig_002
#1544066
1sig_001
#1544894
0sig_001
#1544895
1sig_002
#1544907
0sig_002
#1546088
1sig_007
#1546099
0sig_007
#1554075
1sig_006
#1556426
0sig_006
#1556427
1sig_001
#1557256
0sig_001
#1557258
1sig_002
#1557269
0sig_002
#1557270
1sig_005
#1559614
0sig_005
#1559615
1sig_004
#1561959
0sig_004
#1561961
1sig_003
#1564307
0sig_003
#1566156
1sig_007
#1566167
0sig_007
#1567487
1sig_001
#1568315
0sig_001
#1568317
1sig_002
#1568328
0sig_002
#1578162
1sig_001
#1578990
0sig_001
#1578991
1sig_002
#1579003
0sig_002
#1584177
1sig_006
#1586530
0sig_006
#1586532
1sig_005
#1588880
0sig_005
#1588881
1sig_004
#1591226
0sig_004
#1591227
1sig_003
#1593571
0sig_003
#1593573
1sig_007
#1593583
0sig_007
#1593584
1sig_001
#1594413
0sig_001
#1594414
1sig_002
#1594425
0sig_002
#1604262
1sig_001
#1605091
0sig_001
#1605093
1sig_002
#1605104
0sig_002
#1613605
1sig_007
#1613616
0sig_007
#1614271
1sig_006
#1616623
0sig_006
#1616624
1sig_005
#1618968
0sig_005
#1618969
1sig_004
#1621314
0sig_004
#1621315
1sig_003
#1623659
0sig_003
#1623661
1sig_001
#1624490
0sig_001
#1624491
1sig_002
#1624502
0sig_002
#1633673
1sig_007
#1633684
0sig_007
#1634338
1sig_001
#1635168
0sig_001
#1635169
1sig_002
#1635180
0sig_002
#1644347
1sig_006
#1646700
0sig_006
#1646701
1sig_005
#1649046
0sig_005
#1649048
1sig_004
#1651391
0sig_004
#1651393
1sig_003
#1653739
0sig_003
#1653741
1sig_001
#1654569
0sig_001
#1654571
1sig_002
#1654581
0sig_002
#1654583
1sig_007
#1654593
0sig_007
#1664424
1sig_001
#1665254
0sig_001
#1665255
1sig_002
#1665267
0sig_002
#1674432
1sig_006
#1676787
0sig_006
#1676788
1sig_007
#1676798
0sig_007
#1676800
1sig_005
#1679144
0sig_005
#1679146
1sig_004
#1681490
0sig_004
#1681491
1sig_003
#1683835
0sig_003
#1683836
1sig_001
#1690169
0sig_001
#1690170
1sig_002
#1690181
0sig_002
#1696689
1sig_007
#1696700
0sig_007
#1700682
1sig_001
#1701510
0sig_001
#1701511
1sig_002
#1701523
0sig_002
#1704035
1sig_006
#1706385
0sig_006
#1706387
1sig_005
#1708731
0sig_005
#1708732
1sig_004
#1711082
0sig_004
#1711083
1sig_003
#1712318
0sig_003
#1712319
1sig_001
#1713147
0sig_001
#1713148
1sig_002
#1713159
0sig_002
#1716332
1sig_007
#1716343
0sig_007
#1723653
1sig_001
#1724481
0sig_001
#1724483
1sig_002
#1724494
0sig_002
#1732331
1sig_003
#1732343
0sig_003
#1734328
1sig_006
#1736677
0sig_006
#1736678
1sig_005
#1739021
0sig_005
#1739023
1sig_001
#1739851
0sig_001
#1739852
1sig_002
#1739863
0sig_002
#1739864
1sig_004
#1742209
0sig_004
#1742211
1sig_007
#1742221
0sig_007
#1749387
1sig_001
#1750215
0sig_001
#1750216
1sig_002
#1750227
0sig_002
#1752075
1sig_003
#1752086
0sig_003
#1760062
1sig_001
#1760889
0sig_001
#1760890
1sig_002
#1760901
0sig_002
#1762084
1sig_007
#1762095
0sig_007
#1764080
1sig_006
#1766427
0sig_006
#1766428
1sig_005
#1768772
0sig_005
#1768774
1sig_004
#1771124
0sig_004
#1771125
1sig_001
#1771952
0sig_001
#1771953
1sig_002
#1771965
0sig_002
#1772475
1sig_003
#1772486
0sig_003
#1781128
1sig_001
#1781955
0sig_001
#1781956
1sig_002
#1781967
0sig_002
#1782484
1sig_007
#1782495
0sig_007
#1791137
1sig_001
#1791964
0sig_001
#1791966
1sig_002
#1791977
0sig_002
#1792493
1sig_003
#1792504
0sig_003
#1794490
1sig_006
#1796836
0sig_006
#1796838
1sig_005
#1799183
0sig_005
#1799184
1sig_004
#1801533
0sig_004
#1801534
1sig_001
#1802364
0sig_001
#1802366
1sig_002
#1802377
0sig_002
#1802378
1sig_007
#1802389
0sig_007
#1812220
1sig_003
#1812230
0sig_003
#1812232
1sig_001
#1813060
0sig_001
#1813061
1sig_002
#1813072
0sig_002
#1822237
1sig_007
#1822248
0sig_007
#1823569
1sig_001
#1824399
0sig_001
#1824400
1sig_002
#1824411
0sig_002
#1824413
1sig_006
#1826761
0sig_006
#1826763
1sig_005
#1829108
0sig_005
#1829110
1sig_004
#1831454
0sig_004
#1832637
1sig_003
#1832648
0sig_003
#1834634
1sig_001
#1840965
0sig_001
#1840967
1sig_002
#1840978
0sig_002
#1842155
1sig_007
#1842167
0sig_007
#1469196
1sig_004
#1850968
0sig_001
#1850970
1sig_002
#1850981
0sig_002
#1852164
1sig_003
#1852175
0sig_003
#1854161
1sig_006
#1856510
0sig_006
#1856511
1sig_005
#1858855
0sig_005
#1858856
1sig_004
#1860097
0sig_004
#1860099
1sig_001
#1860924
0sig_001
#1860925
1sig_002
#1860936
0sig_002
#1862115
1sig_007
#1862126
0sig_007
#1499275
1sig_004
#1501619
0sig_004
#1870929
1sig_002
