traces/data3_idlehook.vcd
$version
   VCD tracing
	Hepia 2013-2014
$end

$timescale
   1us
$end

$comment
$end

$scope module Collected traces $end
$var wire	 1  sig_000 sig_000 $end
$var wire	 1  sig_001 sig_001 $end
$var wire	 1  sig_002 sig_002 $end
$var wire	 1  sig_003 sig_003 $end
$var wire	 1  sig_004 sig_004 $end
$var wire	 1  sig_005 sig_005 $end
$var wire	 1  sig_006 sig_006 $end
$var wire	 1  sig_007 sig_007 $end
$upscope $end
$enddefinitions  $end

$dumpvars
0sig_000
0sig_001
0sig_002
0sig_003
0sig_004
0sig_005
0sig_006
0sig_007
$end


#1241
1sig_000
#5570
0sig_000
#5571
1sig_001
#5588
0sig_001
#5590
1sig_002
#6076
0sig_002
#6078
1sig_003
#7293
0sig_003
#7295
1sig_004
#8510
0sig_004
#8512
1sig_005
#9728
0sig_005
#9729
1sig_006
#10946
0sig_006
#15459
1sig_000
#19792
0sig_000
#19794
1sig_002
#19805
0sig_002
#36505
1sig_002
#36516
0sig_002
#36518
1sig_007
#39048
0sig_007
#39050
1sig_004
#41576
0sig_004
#41578
1sig_005
#44106
0sig_005
#44108
1sig_006
#46640
0sig_006
#46641
1sig_000
#50970
0sig_000
#50971
1sig_002
#50983
0sig_002
#54155
1sig_003
#56684
0sig_003
#60529
1sig_000
#64859
0sig_000
#64861
1sig_002
#64872
0sig_002
#65388
1sig_004
#67916
0sig_004
#69098
1sig_007
#71629
0sig_007
#71631
1sig_005
#74166
0sig_005
#74167
1sig_006
#76694
0sig_006
#76695
1sig_000
#81027
0sig_000
#81028
1sig_002
#81040
0sig_002
#81042
1sig_003
#83569
0sig_003
#90073
1sig_000
#94408
0sig_000
#94410
1sig_004
#96937
0sig_004
#96938
1sig_002
#96950
0sig_002
#100123
1sig_005
#102654
0sig_005
#102656
1sig_007
#105191
0sig_007
#105193
1sig_006
#107722
0sig_006
#107723
1sig_000
#112054
0sig_000
#112055
1sig_003
#114583
0sig_003
#114584
1sig_002
#114595
0sig_002
#120433
1sig_004
#122963
0sig_004
#122965
1sig_000
#127298
0sig_000
#127300
1sig_002
#127311
0sig_002
#128495
1sig_005
#131023
0sig_005
#135533
1sig_007
#138069
0sig_007
#138071
1sig_006
#140598
0sig_006
#140599
1sig_003
#143127
0sig_003
#143129
1sig_000
#147460
0sig_000
#147462
1sig_002
#147472
0sig_002
#147474
1sig_004
#150001
0sig_004
#156508
1sig_005
#159042
0sig_005
#159044
1sig_000
#163373
0sig_000
#163374
1sig_002
#163386
0sig_002
#165227
1sig_003
#167756
0sig_003
#168273
1sig_007
#170801
0sig_007
#170803
1sig_006
#173338
0sig_006
#173339
1sig_004
#175866
0sig_004
#175867
1sig_000
#180198
0sig_000
#180199
1sig_002
#180210
0sig_002
#185387
1sig_005
#187916
0sig_005
#189098
1sig_003
#191630
0sig_003
#191632
1sig_000
#195961
0sig_000
#195963
1sig_002
#195974
0sig_002
#199148
1sig_004
#201681
0sig_004
#201683
1sig_007
#204211
0sig_007
#204213
1sig_006
#206745
0sig_006
#206746
1sig_000
#211077
0sig_000
#211078
1sig_002
#211089
0sig_002
#213600
1sig_005
#216130
0sig_005
#216131
1sig_003
#218659
0sig_003
#221171
1sig_000
#225504
0sig_000
#225506
1sig_002
#225517
0sig_002
#225518
1sig_004
#228047
0sig_004
#234550
1sig_007
#237084
0sig_007
#237085
1sig_006
#239612
0sig_006
#239614
1sig_000
#243948
0sig_000
#243950
1sig_002
#243961
0sig_002
#243962
1sig_003
#246490
0sig_003
#246492
1sig_005
#249019
0sig_005
#252196
1sig_004
#254729
0sig_004
#254731
1sig_000
#259061
0sig_000
#259063
1sig_002
#259074
0sig_002
#267572
1sig_007
#270108
0sig_007
#270110
1sig_006
#272636
0sig_006
#272638
1sig_003
#275168
0sig_003
#275170
1sig_000
#279501
0sig_000
#279502
1sig_002
#279513
0sig_002
#279515
1sig_005
#282043
0sig_005
#282045
1sig_004
#284572
0sig_004
#289079
1sig_000
#293409
0sig_000
#293411
1sig_002
#293422
0sig_002
#297266
1sig_003
#299795
0sig_003
#300311
1sig_007
#302839
0sig_007
#302841
1sig_006
#305374
0sig_006
#305375
1sig_000
#309709
0sig_000
#309710
1sig_002
#309721
0sig_002
#309722
1sig_005
#312251
0sig_005
#312252
1sig_004
#314780
0sig_004
#319289
1sig_000
#323622
0sig_000
#323623
1sig_002
#323634
0sig_002
#323636
1sig_003
#326165
0sig_003
#332667
1sig_007
#335203
0sig_007
#335205
1sig_006
#337732
0sig_006
#337733
1sig_000
#342068
0sig_000
#342070
1sig_002
#342081
0sig_002
#342082
1sig_005
#344609
0sig_005
#344611
1sig_004
#347139
0sig_004
#348317
1sig_003
#350846
0sig_003
#352694
1sig_000
#357024
0sig_000
#357025
1sig_002
#357038
0sig_002
#365540
1sig_007
#368074
0sig_007
#368076
1sig_006
#370605
0sig_006
#370607
1sig_000
#374941
0sig_000
#374942
1sig_002
#374953
0sig_002
#374954
1sig_005
#377482
0sig_005
#377484
1sig_004
#380011
0sig_004
#380013
1sig_003
#382542
0sig_003
#384385
1sig_000
#388715
0sig_000
#388717
1sig_002
#388728
0sig_002
#398562
1sig_007
#401091
0sig_007
#401093
1sig_006
#403624
0sig_006
#403625
1sig_000
#407957
0sig_000
#407958
1sig_002
#407969
0sig_002
#407971
1sig_005
#410499
0sig_005
#410500
1sig_004
#413027
0sig_004
#413029
1sig_003
#415557
0sig_003
#417407
1sig_000
#421737
0sig_000
#421738
1sig_002
#421750
0sig_002
#431584
1sig_007
#434113
0sig_007
#434115
1sig_006
#436646
0sig_006
#436647
1sig_000
#440979
0sig_000
#440980
1sig_002
#440991
0sig_002
#440993
1sig_005
#443521
0sig_005
#443522
1sig_004
#446051
0sig_004
#446052
1sig_003
#448580
0sig_003
#450429
1sig_000
#454759
0sig_000
#454761
1sig_002
#454772
0sig_002
#464606
1sig_007
#467135
0sig_007
#467137
1sig_006
#469666
0sig_006
#469668
1sig_000
#474001
0sig_000
#474003
1sig_002
#474014
0sig_002
#474015
1sig_005
#476543
0sig_005
#476545
1sig_004
#479073
0sig_004
#479075
1sig_003
#481602
0sig_003
#483451
1sig_000
#487781
0sig_000
#487783
1sig_002
#487794
0sig_002
#497628
1sig_007
#500157
0sig_007
#500159
1sig_006
#502688
0sig_006
#502690
1sig_000
#507023
0sig_000
#507025
1sig_002
#507037
0sig_002
#507038
1sig_005
#509565
0sig_005
#509567
1sig_004
#512095
0sig_004
#512096
1sig_003
#514624
0sig_003
#516473
1sig_000
#520806
0sig_000
#520807
1sig_002
#520819
0sig_002
#530650
1sig_007
#533179
0sig_007
#533181
1sig_006
#535710
0sig_006
#535712
1sig_000
#540047
0sig_000
#540048
1sig_002
#540059
0sig_002
#540060
1sig_005
#542587
0sig_005
#542589
1sig_004
#545117
0sig_004
#545119
1sig_003
#547646
0sig_003
#550161
1sig_000
#554491
0sig_000
#554493
1sig_002
#554504
0sig_002
#563672
1sig_007
#566206
0sig_007
#566208
1sig_006
#568737
0sig_006
#568738
1sig_000
#573073
0sig_000
#573075
1sig_002
#573085
0sig_002
#573087
1sig_005
#575614
0sig_005
#575615
1sig_004
#578144
0sig_004
#578145
1sig_003
#580673
0sig_003
#583183
1sig_000
#587513
0sig_000
#587515
1sig_002
#587526
0sig_002
#596035
1sig_007
#598568
0sig_007
#598569
1sig_006
#601100
0sig_006
#601101
1sig_000
#605435
0sig_000
#605436
1sig_002
#605447
0sig_002
#605448
1sig_005
#607975
0sig_005
#607977
1sig_004
#610505
0sig_004
#610507
1sig_003
#613036
0sig_003
#615548
1sig_000
#619878
0sig_000
#619879
1sig_002
#619891
0sig_002
#628394
1sig_007
#630929
0sig_007
#630930
1sig_006
#633461
0sig_006
#633462
1sig_000
#637796
0sig_000
#637798
1sig_002
#637808
0sig_002
#637810
1sig_005
#640338
0sig_005
#640340
1sig_004
#642867
0sig_004
#642868
1sig_003
#645397
0sig_003
#647238
1sig_000
#651569
0sig_000
#651570
1sig_002
#651581
0sig_002
#660085
1sig_007
#662619
0sig_007
#662621
1sig_006
#665149
0sig_006
#665151
1sig_000
#669487
0sig_000
#669488
1sig_002
#669499
0sig_002
#669500
1sig_005
#672027
0sig_005
#672029
1sig_004
#674557
0sig_004
#674559
1sig_003
#677087
0sig_003
#679595
1sig_000
#683925
0sig_000
#683927
1sig_002
#683938
0sig_002
#692441
1sig_007
#694976
0sig_007
#694977
1sig_006
#697508
0sig_006
#697509
1sig_000
#701844
0sig_000
#701845
1sig_002
#701856
0sig_002
#701857
1sig_005
#704385
0sig_005
#704387
1sig_004
#706914
0sig_004
#706915
1sig_003
#709444
0sig_003
#711286
1sig_000
#715616
0sig_000
#715618
1sig_002
#715629
0sig_002
#724132
1sig_007
#726667
0sig_007
#726668
1sig_006
#729196
0sig_006
#729198
1sig_000
#733534
0sig_000
#733535
1sig_002
#733546
0sig_002
#733548
1sig_005
#736076
0sig_005
#736077
1sig_004
#738604
0sig_004
#738606
1sig_003
#741135
0sig_003
#743642
1sig_000
#747973
0sig_000
#747974
1sig_002
#747985
0sig_002
#756488
1sig_007
#759023
0sig_007
#759025
1sig_006
#761553
0sig_006
#761554
1sig_000
#765890
0sig_000
#765892
1sig_002
#765903
0sig_002
#765904
1sig_005
#768432
0sig_005
#768434
1sig_004
#770961
0sig_004
#770963
1sig_003
#773492
0sig_003
#775333
1sig_000
#779663
0sig_000
#779665
1sig_002
#779676
0sig_002
#788179
1sig_007
#790714
0sig_007
#790716
1sig_006
#793244
0sig_006
#793245
1sig_000
#797581
0sig_000
#797583
1sig_002
#797594
0sig_002
#797595
1sig_005
#800123
0sig_005
#800125
1sig_004
#802652
0sig_004
#802653
1sig_003
#805182
0sig_003
#807690
1sig_000
#812020
0sig_000
#812022
1sig_002
#812035
0sig_002
#820536
1sig_007
#823072
0sig_007
#823073
1sig_006
#825600
0sig_006
#825602
1sig_000
#829938
0sig_000
#829940
1sig_002
#829950
0sig_002
#829952
1sig_005
#832480
0sig_005
#832482
1sig_004
#835009
0sig_004
#835010
1sig_003
#837539
0sig_003
#839381
1sig_000
#843711
0sig_000
#843712
1sig_002
#843724
0sig_002
#853558
1sig_007
#856087
0sig_007
#856089
1sig_006
#858620
0sig_006
#858621
1sig_000
#862953
0sig_000
#862954
1sig_002
#862965
0sig_002
#862967
1sig_005
#865495
0sig_005
#865496
1sig_004
#868023
0sig_004
#868025
1sig_003
#870554
0sig_003
#872403
1sig_000
#876733
0sig_000
#876734
1sig_002
#876745
0sig_002
#886580
1sig_007
#889109
0sig_007
#889110
1sig_006
#891642
0sig_006
#891643
1sig_000
#895975
0sig_000
#895976
1sig_002
#895987
0sig_002
#895988
1sig_005
#898516
0sig_005
#898518
1sig_004
#901046
0sig_004
#901048
1sig_003
#903575
0sig_003
#905425
1sig_000
#909755
0sig_000
#909756
1sig_002
#909768
0sig_002
#919602
1sig_007
#922131
0sig_007
#922133
1sig_006
#924662
0sig_006
#924663
1sig_000
#928997
0sig_000
#928998
1sig_002
#929009
0sig_002
#929011
1sig_005
#931539
0sig_005
#931540
1sig_004
#934069
0sig_004
#934070
1sig_003
#936598
0sig_003
#938447
1sig_000
#942777
0sig_000
#942779
1sig_002
#942790
0sig_002
#952624
1sig_007
#955153
0sig_007
#955155
1sig_006
#957684
0sig_006
#957686
1sig_000
#962019
0sig_000
#962021
1sig_002
#962033
0sig_002
#962035
1sig_005
#964562
0sig_005
#964563
1sig_004
#967092
0sig_004
#967093
1sig_003
#969621
0sig_003
#971469
1sig_000
#975799
0sig_000
#975801
1sig_002
#975812
0sig_002
#985646
1sig_007
#988175
0sig_007
#988177
1sig_006
#990706
0sig_006
#990708
1sig_000
#995042
0sig_000
#995044
1sig_002
#995055
0sig_002
#995056
1sig_005
#997583
0sig_005
#997585
1sig_004
#1000113
0sig_004
#1000114
1sig_003
#1002642
0sig_003
#1005156
1sig_000
#1009487
0sig_000
#1009488
1sig_002
#1009500
0sig_002
#1018668
1sig_007
#1021202
0sig_007
#1021203
1sig_006
#1023733
0sig_006
#1023734
1sig_000
#1028069
0sig_000
#1028071
1sig_002
#1028081
0sig_002
#1028083
1sig_005
#1030610
0sig_005
#1030611
1sig_004
#1033139
0sig_004
#1033141
1sig_003
#1035669
0sig_003
#1038179
1sig_000
#1042509
0sig_000
#1042510
1sig_002
#1042522
0sig_002
#1051690
1sig_007
#1054224
0sig_007
#1054226
1sig_006
#1056755
0sig_006
#1056757
1sig_000
#1061091
0sig_000
#1061093
1sig_002
#1061103
0sig_002
#1061105
1sig_005
#1063632
0sig_005
#1063633
1sig_004
#1066162
0sig_004
#1066163
1sig_003
#1068691
0sig_003
#1071201
1sig_000
#1075531
0sig_000
#1075533
1sig_002
#1075544
0sig_002
#1084047
1sig_007
#1086579
0sig_007
#1086581
1sig_006
#1089112
0sig_006
#1089113
1sig_000
#1093447
0sig_000
#1093448
1sig_002
#1093459
0sig_002
#1093460
1sig_005
#1095987
0sig_005
#1095989
1sig_004
#1098517
0sig_004
#1098519
1sig_003
#1101048
0sig_003
#1103557
1sig_000
#1107887
0sig_000
#1107889
1sig_002
#1107900
0sig_002
#1116403
1sig_007
#1118938
0sig_007
#1118939
1sig_006
#1121470
0sig_006
#1121472
1sig_000
#1125805
0sig_000
#1125807
1sig_002
#1125818
0sig_002
#1125819
1sig_005
#1128347
0sig_005
#1128349
1sig_004
#1130876
0sig_004
#1130877
1sig_003
#1133406
0sig_003
#1135248
1sig_000
#1139578
0sig_000
#1139580
1sig_002
#1139591
0sig_002
#1148094
1sig_007
#1150629
0sig_007
#1150631
1sig_006
#1153159
0sig_006
#1153160
1sig_000
#1157497
0sig_000
#1157498
1sig_002
#1157509
0sig_002
#1157510
1sig_005
#1160038
0sig_005
#1160040
1sig_004
#1162567
0sig_004
#1162569
1sig_003
#1165097
0sig_003
#1167605
1sig_000
#1171935
0sig_000
#1171936
1sig_002
#1171948
0sig_002
#1180451
1sig_007
#1182986
0sig_007
#1182987
1sig_006
#1185516
0sig_006
#1185517
1sig_000
#1189853
0sig_000
#1189855
1sig_002
#1189865
0sig_002
#1189867
1sig_005
#1192395
0sig_005
#1192397
1sig_004
#1194924
0sig_004
#1194925
1sig_003
#1197454
0sig_003
#1199304
1sig_000
#1203634
0sig_000
#1203636
1sig_002
#1203647
0sig_002
#1212150
1sig_007
#1214685
0sig_007
#1214687
1sig_006
#1217215
0sig_006
#1217216
1sig_000
#1221552
0sig_000
#1221554
1sig_002
#1221565
0sig_002
#1221566
1sig_005
#1224094
0sig_005
#1224096
1sig_004
#1226623
0sig_004
#1226624
1sig_003
#1229153
0sig_003
#1231669
1sig_000
#1235999
0sig_000
#1236000
1sig_002
#1236012
0sig_002
#1244515
1sig_007
#1247051
0sig_007
#1247052
1sig_006
#1249579
0sig_006
#1249581
1sig_000
#1253917
0sig_000
#1253918
1sig_002
#1253929
0sig_002
#1253931
1sig_005
#1256459
0sig_005
#1256460
1sig_004
#1258987
0sig_004
#1258989
1sig_003
#1261518
0sig_003
#1263359
1sig_000
#1267689
0sig_000
#1267691
1sig_002
#1267702
0sig_002
#1277537
1sig_007
#1280066
0sig_007
#1280068
1sig_006
#1282599
0sig_006
#1282600
1sig_000
#1286932
0sig_000
#1286933
1sig_002
#1286944
0sig_002
#1286946
1sig_005
#1289474
0sig_005
#1289475
1sig_004
#1292002
0sig_004
#1292004
1sig_003
#1294533
0sig_003
#1296382
1sig_000
#1300712
0sig_000
#1300713
1sig_002
#1300725
0sig_002
#1310559
1sig_007
#1313088
0sig_007
#1313090
1sig_006
#1315621
0sig_006
#1315622
1sig_000
#1319954
0sig_000
#1319955
1sig_002
#1319966
0sig_002
#1319968
1sig_005
#1322496
0sig_005
#1322497
1sig_004
#1325024
0sig_004
#1325026
1sig_003
#1327554
0sig_003
#1329404
1sig_000
#1333734
0sig_000
#1333736
1sig_002
#1333747
0sig_002
#1343581
1sig_007
#1346110
0sig_007
#1346111
1sig_006
#1348643
0sig_006
#1348644
1sig_000
#1352976
0sig_000
#1352977
1sig_002
#1352988
0sig_002
#1352989
1sig_005
#1355518
0sig_005
#1355519
1sig_004
#1358048
0sig_004
#1358049
1sig_003
#1360577
0sig_003
#1362426
1sig_000
#1366756
0sig_000
#1366757
1sig_002
#1366769
0sig_002
#1376603
1sig_007
#1379132
0sig_007
#1379134
1sig_006
#1381663
0sig_006
#1381664
1sig_000
#1385998
0sig_000
#1385999
1sig_002
#1386010
0sig_002
#1386012
1sig_005
#1388540
0sig_005
#1388541
1sig_004
#1391069
0sig_004
#1391071
1sig_003
#1393599
0sig_003
#1395448
1sig_000
#1399778
0sig_000
#1399780
1sig_002
#1399791
0sig_002
#1409625
1sig_007
#1412154
0sig_007
#1412156
1sig_006
#1414685
0sig_006
#1414687
1sig_000
#1419020
0sig_000
#1419022
1sig_002
#1419035
0sig_002
#1419036
1sig_005
#1421563
0sig_005
#1421565
1sig_004
#1424093
0sig_004
#1424094
1sig_003
#1426622
0sig_003
#1428470
1sig_000
#1432800
0sig_000
#1432802
1sig_002
#1432813
0sig_002
#1442647
1sig_007
#1445176
0sig_007
#1445178
1sig_006
#1447707
0sig_006
#1447709
1sig_000
#1452043
0sig_000
#1452045
1sig_002
#1452056
0sig_002
#1452057
1sig_005
#1454584
0sig_005
#1454586
1sig_004
#1457114
0sig_004
#1457115
1sig_003
#1459643
0sig_003
#1462157
1sig_000
#1466487
0sig_000
#1466489
1sig_002
#1466500
0sig_002
#1475669
1sig_007
#1478203
0sig_007
#1478204
1sig_006
#1480734
0sig_006
#1480735
1sig_000
#1485070
0sig_000
#1485072
1sig_002
#1485082
0sig_002
#1485084
1sig_005
#1487611
0sig_005
#1487612
1sig_004
#1490140
0sig_004
#1490142
1sig_003
#1492670
0sig_003
#1495180
1sig_000
#1499510
0sig_000
#1499512
1sig_002
#1499523
0sig_002
#1508691
1sig_007
#1511225
0sig_007
#1511227
1sig_006
#1513756
0sig_006
#1513758
1sig_000
#1518093
0sig_000
#1518094
1sig_002
#1518105
0sig_002
#1518106
1sig_005
#1520633
0sig_005
#1520635
1sig_004
#1523163
0sig_004
#1523165
1sig_003
#1525692
0sig_003
#1528201
1sig_000
#1532532
0sig_000
#1532533
1sig_002
#1532544
0sig_002
#1541048
1sig_007
#1543581
0sig_007
#1543582
1sig_006
#1546113
0sig_006
#1546114
1sig_000
#1550448
0sig_000
#1550449
1sig_002
#1550460
0sig_002
#1550461
1sig_005
#1552988
0sig_005
#1552990
1sig_004
#1555518
0sig_004
#1555520
1sig_003
#1558049
0sig_003
#1560558
1sig_000
#1564888
0sig_000
#1564890
1sig_002
#1564901
0sig_002
#1573404
1sig_007
#1575939
0sig_007
#1575941
1sig_006
#1578471
0sig_006
#1578473
1sig_000
#1582807
0sig_000
#1582808
1sig_002
#1582819
0sig_002
#1582821
1sig_005
#1585349
0sig_005
#1585351
1sig_004
#1587877
0sig_004
#1587879
1sig_003
#1590408
0sig_003
#1592258
1sig_000
#1596588
0sig_000
#1596589
1sig_002
#1596601
0sig_002
#1605104
1sig_007
#1607639
0sig_007
#1607640
1sig_006
#1610168
0sig_006
#1610170
1sig_000
#1614506
0sig_000
#1614507
1sig_002
#1614518
0sig_002
#1614519
1sig_005
#1617048
0sig_005
#1617049
1sig_004
#1619576
0sig_004
#1619578
1sig_003
#1622107
0sig_003
#1624614
1sig_000
#1628944
0sig_000
#1628945
1sig_002
#1628957
0sig_002
#1637460
1sig_007
#1639995
0sig_007
#1639997
1sig_006
#1642525
0sig_006
#1642526
1sig_000
#1646862
0sig_000
#1646864
1sig_002
#1646874
0sig_002
#1646876
1sig_005
#1649404
0sig_005
#1649406
1sig_004
#1651933
0sig_004
#1651934
1sig_003
#1654463
0sig_003
#1656305
1sig_000
#1660635
0sig_000
#1660636
1sig_002
#1660648
0sig_002
#1669151
1sig_007
#1671686
0sig_007
#1671687
1sig_006
#1674215
0sig_006
#1674217
1sig_000
#1678553
0sig_000
#1678554
1sig_002
#1678565
0sig_002
#1678567
1sig_005
#1681095
0sig_005
#1681096
1sig_004
#1683623
0sig_004
#1683625
1sig_003
#1686154
0sig_003
#1688661
1sig_000
#1692992
0sig_000
#1692993
1sig_002
#1693004
0sig_002
#1701507
1sig_007
#1704043
0sig_007
#1704045
1sig_006
#1706572
0sig_006
#1706573
1sig_000
#1710909
0sig_000
#1710911
1sig_002
#1710921
0sig_002
#1710923
1sig_005
#1713451
0sig_005
#1713453
1sig_004
#1715980
0sig_004
#1715981
1sig_003
#1718510
0sig_003
#1720352
1sig_000
#1724682
0sig_000
#1724684
1sig_002
#1724695
0sig_002
#1734529
1sig_007
#1737058
0sig_007
#1737060
1sig_006
#1739591
0sig_006
#1739593
1sig_000
#1743924
0sig_000
#1743926
1sig_002
#1743936
0sig_002
#1743938
1sig_005
#1746466
0sig_005
#1746467
1sig_004
#1748994
0sig_004
#1748996
1sig_003
#1751525
0sig_003
#1753374
1sig_000
#1757705
0sig_000
#1757706
1sig_002
#1757717
0sig_002
#1767551
1sig_007
#1770080
0sig_007
#1770082
1sig_006
#1772613
0sig_006
#1772615
1sig_000
#1776946
0sig_000
#1776948
1sig_002
#1776958
0sig_002
#1776960
1sig_005
#1779488
0sig_005
#1779490
1sig_004
#1782017
0sig_004
#1782018
1sig_003
#1784547
0sig_003
#1786396
1sig_000
#1790726
0sig_000
#1790728
1sig_002
#1790739
0sig_002
#1800573
1sig_007
#1803103
0sig_007
#1803104
1sig_006
#1805635
0sig_006
#1805637
1sig_000
#1809968
0sig_000
#1809970
1sig_002
#1809980
0sig_002
#1809982
1sig_005
#1812510
0sig_005
#1812512
1sig_004
#1815040
0sig_004
#1815041
1sig_003
#1817569
0sig_003
#1819418
1sig_000
#1823748
0sig_000
#1823750
1sig_002
#1823761
0sig_002
#1833595
1sig_007
#1836124
0sig_007
#1836126
1sig_006
#1838655
0sig_006
#1838657
1sig_000
#1842990
0sig_000
#1842992
1sig_002
#1843003
0sig_002
#1843004
1sig_005
#1845532
0sig_005
#1845534
1sig_004
#1848062
0sig_004
#1848064
1sig_003
#1850591
0sig_003
#1852440
1sig_000
#1856770
0sig_000
#1856772
1sig_002
#1856783
0sig_002
#1866618
1sig_007
#1869147
0sig_007
#1869148
1sig_006
#1871677
0sig_006
#1871679
1sig_000
#1876012
0sig_000
#1876014
1sig_002
#1876025
0sig_002
#1876026
1sig_005
#1878554
0sig_005
#1878556
1sig_004
#1881084
0sig_004
#1881086
1sig_003
#1883613
0sig_003
#1885462
1sig_000
#1889793
0sig_000
#1889794
1sig_002
#1889806
0sig_002
#1899640
1sig_007
#1902169
0sig_007
#1902171
1sig_006
#1904700
0sig_006
#1904701
1sig_000
#1909036
0sig_000
#1909038
1sig_002
#1909048
0sig_002
#1909050
1sig_005
#1911577
0sig_005
#1911578
1sig_004
#1914106
0sig_004
#1914108
1sig_003
#1916636
0sig_003
#1919150
1sig_000
#1923480
0sig_000
#1923482
1sig_002
#1923493
0sig_002
#1932662
1sig_007
#1935195
0sig_007
#1935197
1sig_006
#1937726
0sig_006
#1937728
1sig_000
#1942063
0sig_000
#1942064
1sig_002
#1942075
0sig_002
#1942077
1sig_005
#1944603
0sig_005
#1944605
1sig_004
#1947133
0sig_004
#1947135
1sig_003
#1949662
0sig_003
#1952172
1sig_000
#1956502
0sig_000
#1956504
1sig_002
#1956515
0sig_002
#1965684
1sig_007
#1968218
0sig_007
#1968219
1sig_006
#1970749
0sig_006
#1970750
1sig_000
#1975085
0sig_000
#1975087
1sig_002
#1975097
0sig_002
#1975099
1sig_005
#1977626
0sig_005
#1977627
1sig_004
#1980156
0sig_004
#1980157
1sig_003
#1982685
0sig_003
#1985194
1sig_000
#1989525
0sig_000
#1989526
1sig_002
#1989537
0sig_002
#1998041
1sig_007
#2000573
0sig_007
#2000575
1sig_006
#2003105
0sig_006
#2003107
1sig_000
#2007440
0sig_000
#2007442
1sig_002
#2007452
0sig_002
#2007454
1sig_005
#2009981
0sig_005
#2009983
1sig_004
#2012511
0sig_004
#2012512
1sig_003
#2015041
0sig_003
#2017551
1sig_000
#2021881
0sig_000
#2021882
1sig_002
#2021894
0sig_002
#2030397
1sig_007
#2032931
0sig_007
#2032933
1sig_006
#2035464
0sig_006
#2035465
1sig_000
#2039799
0sig_000
#2039801
1sig_002
#2039811
0sig_002
#2039813
1sig_005
#2042341
0sig_005
#2042342
1sig_004
#2044869
0sig_004
#2044871
1sig_003
#2047400
0sig_003
#2049242
1sig_000
#2053572
0sig_000
#2053573
1sig_002
#2053585
0sig_002
#2062088
1sig_007
#2064623
0sig_007
#2064624
1sig_006
#2067153
0sig_006
#2067154
1sig_000
#2071490
0sig_000
#2071492
1sig_002
#2071502
0sig_002
#2071504
1sig_005
#2074033
0sig_005
#2074035
1sig_004
#2076562
0sig_004
#2076563
1sig_003
#2079092
0sig_003
#2081606
1sig_000
#2085937
0sig_000
#2085938
1sig_002
#2085949
0sig_002
#2094453
1sig_007
#2096987
0sig_007
#2096989
1sig_006
#2099520
0sig_006
#2099521
1sig_000
#2103855
0sig_000
#2103857
1sig_002
#2103867
0sig_002
#2103869
1sig_005
#2106397
0sig_005
#2106399
1sig_004
#2108926
0sig_004
#2108927
1sig_003
#2111456
0sig_003
#2113306
1sig_000
#2117636
0sig_000
#2117638
1sig_002
#2117649
0sig_002
#2126152
1sig_007
#2128687
0sig_007
#2128688
1sig_006
#2131216
0sig_006
#2131218
1sig_000
#2135554
0sig_000
#2135556
1sig_002
#2135566
0sig_002
#2135568
1sig_005
#2138096
0sig_005
#2138097
1sig_004
#2140624
0sig_004
#2140626
1sig_003
#2143155
0sig_003
#2145662
1sig_000
#2149992
0sig_000
#2149994
1sig_002
#2150005
0sig_002
#2158508
1sig_007
#2161044
0sig_007
#2161046
1sig_006
#2163572
0sig_006
#2163574
1sig_000
#2167910
0sig_000
#2167912
1sig_002
#2167922
0sig_002
#2167924
1sig_005
#2170452
0sig_005
#2170453
1sig_004
#2172981
0sig_004
#2172982
1sig_003
#2175511
0sig_003
#2177353
1sig_000
#2181683
0sig_000
#2181685
1sig_002
#2181696
0sig_002
#2191530
1sig_007
#2194059
0sig_007
#2194061
1sig_006
#2196592
0sig_006
#2196594
1sig_000
#2200925
0sig_000
#2200927
1sig_002
#2200937
0sig_002
#2200939
1sig_005
#2203467
0sig_005
#2203469
1sig_004
#2205996
0sig_004
#2205997
1sig_003
#2208526
0sig_003
#2210375
1sig_000
#2214705
0sig_000
#2214707
1sig_002
#2214718
0sig_002
#2224553
1sig_007
#2227082
0sig_007
#2227083
1sig_006
#2229615
0sig_006
#2229616
1sig_000
#2233948
0sig_000
#2233949
1sig_002
#2233960
0sig_002
#2233961
1sig_005
#2236489
0sig_005
#2236491
1sig_004
#2239018
0sig_004
#2239019
1sig_003
#2241548
0sig_003
#2243397
1sig_000
#2247727
0sig_000
#2247729
1sig_002
#2247740
0sig_002
#2257574
1sig_007
#2260103
0sig_007
#2260105
1sig_006
#2262636
0sig_006
#2262638
1sig_000
#2266969
0sig_000
#2266971
1sig_002
#2266981
0sig_002
#2266983
1sig_005
#2269511
0sig_005
#2269513
1sig_004
#2272041
0sig_004
#2272043
1sig_003
#2274570
0sig_003
#2276419
1sig_000
#2280749
0sig_000
#2280751
1sig_002
#2280762
0sig_002
#2290597
1sig_007
#2293126
0sig_007
#2293127
1sig_006
#2295657
0sig_006
#2295658
1sig_000
#2299992
0sig_000
#2299993
1sig_002
#2300004
0sig_002
#2300005
1sig_005
#2302533
0sig_005
#2302535
1sig_004
#2305063
0sig_004
#2305065
1sig_003
#2307592
0sig_003
#2309442
1sig_000
#2313772
0sig_000
#2313773
1sig_002
#2313785
0sig_002
#2323619
1sig_007
#2326147
0sig_007
#2326149
1sig_006
#2328678
0sig_006
#2328680
1sig_000
#2333014
0sig_000
#2333015
1sig_002
#2333026
0sig_002
#2333027
1sig_005
#2335555
0sig_005
#2335557
1sig_004
#2338085
0sig_004
#2338087
1sig_003
#2340614
0sig_003
#2342463
1sig_000
#2346794
0sig_000
#2346795
1sig_002
#2346806
0sig_002
#2356641
1sig_007
#2359170
0sig_007
#2359171
1sig_006
#2361701
0sig_006
#2361702
1sig_000
#2366037
0sig_000
#2366039
1sig_002
#2366049
0sig_002
#2366051
1sig_005
#2368578
0sig_005
#2368579
1sig_004
#2371107
0sig_004
#2371109
1sig_003
#2373636
0sig_003
#2376151
1sig_000
#2380481
0sig_000
#2380482
1sig_002
#2380494
0sig_002
#2389663
1sig_007
#2392196
0sig_007
#2392198
1sig_006
#2394727
0sig_006
#2394729
1sig_000
#2399064
0sig_000
#2399065
1sig_002
#2399076
0sig_002
#2399077
1sig_005
#2401604
0sig_005
#2401606
1sig_004
#2404134
0sig_004
#2404136
1sig_003
#2406663
0sig_003
#2409173
1sig_000
#2413503
0sig_000
#2413505
1sig_002
#2413516
0sig_002
#2422685
1sig_007
#2425219
0sig_007
#2425220
1sig_006
#2427750
0sig_006
#2427751
1sig_000
#2432086
0sig_000
#2432087
1sig_002
#2432098
0sig_002
#2432100
1sig_005
#2434627
0sig_005
#2434628
1sig_004
#2437156
0sig_004
#2437158
1sig_003
#2439685
0sig_003
#2442195
1sig_000
#2446525
0sig_000
#2446527
1sig_002
#2446538
0sig_002
#2455041
1sig_007
#2457574
0sig_007
#2457575
1sig_006
#2460106
0sig_006
#2460107
1sig_000
#2464441
0sig_000
#2464443
1sig_002
#2464453
0sig_002
#2464455
1sig_005
#2466982
0sig_005
#2466983
1sig_004
#2469512
0sig_004
#2469513
1sig_003
#2472042
0sig_003
#2474552
1sig_000
#2478882
0sig_000
#2478884
1sig_002
#2478895
0sig_002
#2487398
1sig_007
#2489932
0sig_007
#2489934
1sig_006
#2492465
0sig_006
#2492466
1sig_000
#2496800
0sig_000
